i,used_ram,cpu_usage
0,1589727232,0.5
1,1908310016,0.6
2,2200469504,3.4
3,2487971840,13.9
4,2785415168,14.7
5,3089416192,13.2
6,3372249088,20.9
7,3661357056,13.8
8,3953119232,13.9
9,4244434944,14.5
10,4532183040,14.2
11,4886560768,13.5
12,5208920064,14.9
13,5519360000,14.1
14,5817901056,22.9
0,1609912320,0.4
1,1942102016,2.6
2,2213883904,4.0
3,2502987776,13.9
4,2793545728,16.8
5,3105394688,13.0
6,3384999936,13.1
7,3664924672,19.0
8,3963625472,17.0
9,4313055232,19.1
10,4662628352,17.8
11,4972244992,12.8
12,5327155200,15.8
13,5635162112,13.4
14,5981454336,14.5
0,1730576384,0.6
1,2035273728,1.3
2,2319499264,1.5
3,2594856960,12.9
4,2884329472,13.6
5,3183804416,12.3
6,3459469312,19.0
7,3750019072,15.3
8,4025315328,16.6
9,4325765120,14.4
10,4658962432,12.7
11,5043277824,14.1
12,5354110976,14.0
13,5648121856,14.5
14,5998202880,17.2
0,1907249152,0.5
1,2195972096,1.6
2,2469462016,0.5
3,2739322880,13.2
4,3009196032,17.6
5,3231436800,17.9
6,3497504768,14.0
7,3785719808,14.6
8,4066369536,18.8
9,4380192768,18.7
10,4719484928,18.2
11,5082800128,15.9
12,5394296832,15.6
13,5736734720,14.4
14,6027997184,18.5
0,1926000640,0.8
1,2218258432,11.1
2,2489745408,0.5
3,2755248128,13.3
4,3032502272,14.8
5,3233316864,13.6
6,3507085312,15.0
7,3774332928,13.9
8,4073758720,28.1
9,4387815424,17.0
10,4769406976,14.4
11,5054750720,18.1
12,5417005056,14.1
13,5772742656,14.8
14,6308798464,13.4
0,1946030080,0.6
1,2235170816,5.0
2,2507329536,0.8
3,2775048192,13.1
4,3056861184,13.4
5,3294146560,22.6
6,3523321856,18.7
7,3795578880,14.5
8,4097884160,14.9
9,4428652544,14.0
10,4749180928,15.5
11,5124378624,12.6
12,5551157248,14.5
13,5838909440,14.3
14,6128689152,14.6
0,1957081088,0.4
1,2245623808,0.5
2,2522132480,0.6
3,2782306304,14.0
4,3055423488,12.5
5,3272880128,13.9
6,3544227840,15.7
7,3800735744,18.2
8,4106616832,13.0
9,4424105984,14.1
10,4774879232,12.9
11,5110149120,15.8
12,5476806656,15.3
13,5768503296,13.9
14,6059483136,13.6
0,1969451008,1.3
1,2258718720,0.8
2,2525577216,4.4
3,2794033152,13.6
4,3059548160,13.8
5,3295600640,17.4
6,3537461248,13.8
7,3815337984,13.9
8,4099362816,14.4
9,4380893184,14.1
10,4705390592,14.1
11,5041475584,17.4
12,5329039360,13.1
13,5631385600,18.5
14,5931646976,13.5
0,1974595584,0.5
1,2262941696,0.5
2,2537091072,0.4
3,2800435200,12.6
4,3082301440,14.3
5,3296894976,13.1
6,3543621632,17.1
7,3823190016,13.0
8,4105551872,14.1
9,4418359296,13.7
10,4783243264,14.0
11,5142822912,13.4
12,5460660224,13.3
13,5782233088,26.9
14,6118207488,13.3
0,1982697472,0.6
1,2272157696,4.4
2,2546229248,0.6
3,2807902208,13.1
4,3096965120,18.2
5,3301793792,17.1
6,3563778048,17.5
7,3831496704,17.6
8,4124643328,16.0
9,4452986880,15.8
10,4833689600,14.1
11,5116403712,13.3
12,5405196288,14.0
13,5693763584,14.1
14,6046494720,16.0
