n,start,onboard,ns_start,num_failed,ns_delete,stop
0,41.562443017959595,1.9102120399475098,0.047865867614746094,0,0.03999805450439453,4.0903990268707275
1,41.832852840423584,1.903918981552124,7.654010057449341,0,5.392084121704102,3.7921199798583984
2,40.395200967788696,1.943498134613037,13.427754878997803,0,5.5575830936431885,3.799504041671753
3,41.25366997718811,1.84635591506958,12.809120178222656,0,5.901500940322876,4.112915992736816
4,40.27696895599365,1.776534080505371,14.384830951690674,0,5.98454213142395,3.8406479358673096
5,40.27677893638611,1.8316380977630615,19.35365104675293,0,11.987352848052979,4.071691036224365
6,40.38334679603577,1.7845780849456787,19.970387935638428,0,11.088613033294678,3.8218491077423096
7,40.43807101249695,1.8764960765838623,25.49612307548523,0,11.668747901916504,3.6916511058807373
8,40.40436291694641,1.7841038703918457,25.7522292137146,0,16.593398809432983,4.028586149215698
9,40.47299909591675,1.7980139255523682,31.325942993164062,0,17.015600204467773,3.8097479343414307
10,40.480746030807495,1.7897710800170898,38.47022199630737,0,17.474337816238403,3.8776071071624756
11,40.46396207809448,1.7618000507354736,39.15525579452515,0,16.732717037200928,4.225378036499023
12,41.571253061294556,1.8108768463134766,44.12534022331238,0,22.089787006378174,3.8348548412323
13,40.53276491165161,1.7873570919036865,49.423372983932495,0,23.04646110534668,4.083177804946899
14,40.64031910896301,1.7941858768463135,51.36812710762024,0,23.488855838775635,3.9560670852661133
15,41.62619400024414,1.7989599704742432,57.29446506500244,0,23.788546085357666,3.925792932510376
