n,start,onboard,ns_start,num_failed,ns_delete,stop
0,42.23405909538269,1.7721998691558838,0.044580936431884766,0,0.04333019256591797,4.182482004165649
1,40.61275792121887,1.767509937286377,10.779627084732056,0,5.371504068374634,4.174088001251221
2,40.34963393211365,1.8390400409698486,7.9646570682525635,0,5.592528820037842,3.9299240112304688
3,40.379607915878296,1.8559300899505615,13.747915983200073,0,5.798789978027344,3.8927719593048096
4,40.4312059879303,1.8327670097351074,14.25960397720337,0,5.991931915283203,4.0972490310668945
5,40.44212102890015,1.807116985321045,19.28587508201599,0,10.77179503440857,3.9077858924865723
6,40.371402978897095,1.768003225326538,20.03427290916443,0,11.070899963378906,4.147865056991577
7,40.49829292297363,1.7835090160369873,26.461663007736206,0,11.423887968063354,3.806612014770508
8,40.510135889053345,1.7544920444488525,25.658577919006348,0,16.671258211135864,3.8224689960479736
9,40.43886995315552,1.7767770290374756,31.39036798477173,0,17.101974964141846,4.02478814125061
10,40.47247099876404,1.7824270725250244,37.077080965042114,0,17.525073051452637,3.9066739082336426
11,42.333927154541016,1.7951149940490723,39.47397994995117,0,16.702826023101807,3.894469976425171
12,40.64303994178772,1.8733489513397217,44.34395503997803,0,22.352069854736328,3.9905290603637695
13,40.79814910888672,1.7594468593597412,47.994081020355225,0,22.75360894203186,3.987076997756958
14,41.31317496299744,1.7874629497528076,50.66671705245972,0,23.13665795326233,4.14488410949707
15,41.662538051605225,1.8981688022613525,57.73631715774536,0,28.212378978729248,3.9218740463256836
