n,start,onboard,ns_start,num_failed,ns_delete,stop
0,41.93856906890869,1.787052869796753,0.08427000045776367,0,0.05961298942565918,4.257488012313843
1,43.85575580596924,1.7934901714324951,7.662091970443726,0,5.4226319789886475,3.7928950786590576
2,41.796101093292236,1.9128739833831787,12.547546863555908,0,5.592955112457275,3.9557058811187744
3,41.546931982040405,1.8096239566802979,13.798679113388062,0,5.976223945617676,4.53698205947876
4,44.63813304901123,1.8231220245361328,14.2985999584198,0,5.98167610168457,3.954582929611206
5,40.46244502067566,1.8326950073242188,20.529473066329956,0,11.996455907821655,3.914419174194336
6,40.70546889305115,1.818593978881836,19.907839059829712,0,11.269952058792114,4.218348979949951
7,40.579754114151,1.817939043045044,27.56054186820984,0,11.594618082046509,4.779897928237915
8,40.83526682853699,1.8861141204833984,26.974018096923828,0,11.903612852096558,4.0227789878845215
9,40.79920816421509,1.8160159587860107,31.64520001411438,0,17.14441704750061,3.913681983947754
10,40.84705400466919,1.8529181480407715,37.737009048461914,0,17.584606885910034,4.341403007507324
11,40.933037996292114,1.8236730098724365,42.45894384384155,0,16.66212511062622,3.9690048694610596
12,40.994203090667725,1.8270039558410645,44.563647985458374,0,22.416506052017212,4.22517991065979
13,40.82730793952942,1.8091931343078613,51.317030906677246,0,23.229171991348267,4.239078998565674
14,41.09940695762634,1.8376140594482422,56.92179894447327,0,22.587027072906494,4.095702886581421
15,43.931666135787964,1.8837559223175049,63.088330030441284,0,27.521399974822998,4.3035359382629395
