ns_create,charm_deployment_start,waiting_for_machine,installing_charm_software,ns_action,ns_delete
7.579396963119507,6.317284107208252,57.56081795692444,69.0712559223175,6.6858439445495605,85.76726007461548
7.573022127151489,5.2943830490112305,59.74479579925537,73.47294521331787,3.5827078819274902,85.99520611763
6.551464080810547,5.254585027694702,62.07122993469238,77.96256303787231,19.94709086418152,86.07714700698853
8.803007125854492,6.3017048835754395,61.057244062423706,73.42499494552612,2.829988956451416,135.7122700214386
8.659539937973022,5.333024024963379,57.95636010169983,68.09496283531189,6.983906984329224,146.4598240852356
6.54208779335022,5.2679970264434814,59.790088176727295,72.21684384346008,3.3761420249938965,145.47151613235474
6.638564825057983,5.264341115951538,61.81643891334534,68.11876916885376,6.044932842254639,86.25727200508118
7.608144998550415,4.220412015914917,64.01497006416321,78.63933992385864,3.7968339920043945,85.71859002113342
6.6002891063690186,5.2707579135894775,59.01286792755127,77.65043807029724,7.432547092437744,85.84858989715576
7.584614992141724,4.236552953720093,61.9071159362793,68.11381101608276,24.121330976486206,86.18179297447205
