%!PS-Adobe-3.0 EPSF-3.0
%%DocumentNeededResources: font Helvetica
%%+ font Helvetica-Bold
%%+ font Helvetica-Oblique
%%+ font Helvetica-BoldOblique
%%+ font Symbol
%%Title: R Graphics Output
%%Creator: R Software
%%Pages: (atend)
%%BoundingBox: 0 0 432 252
%%EndComments
%%BeginProlog
/bp  { gs sRGB gs } def
% begin .ps.prolog
/gs  { gsave } bind def
/gr  { grestore } bind def
/ep  { showpage gr gr } bind def
/m   { moveto } bind def
/l  { rlineto } bind def
/np  { newpath } bind def
/cp  { closepath } bind def
/f   { fill } bind def
/o   { stroke } bind def
/c   { newpath 0 360 arc } bind def
/r   { 4 2 roll moveto 1 copy 3 -1 roll exch 0 exch rlineto 0 rlineto -1 mul 0 exch rlineto closepath } bind def
/p1  { stroke } bind def
/p2  { gsave bg fill grestore newpath } bind def
/p3  { gsave bg fill grestore stroke } bind def
/p6  { gsave bg eofill grestore newpath } bind def
/p7  { gsave bg eofill grestore stroke } bind def
/t   { 5 -2 roll moveto gsave rotate
       1 index stringwidth pop
       mul neg 0 rmoveto show grestore } bind def
/ta  { 4 -2 roll moveto gsave rotate show } bind def
/tb  { 2 -1 roll 0 rmoveto show } bind def
/cl  { grestore gsave newpath 3 index 3 index moveto 1 index
       4 -1 roll lineto  exch 1 index lineto lineto
       closepath clip newpath } bind def
/rgb { setrgbcolor } bind def
/s   { scalefont setfont } bind def
% end   .ps.prolog
/sRGB { [ /CIEBasedABC
          << /DecodeLMN
               [ { dup 0.03928 le
                        {12.92321 div}
                        {0.055 add 1.055 div 2.4 exp }
                     ifelse
                 } bind dup dup
               ]
             /MatrixLMN [0.412457 0.212673 0.019334
                         0.357576 0.715152 0.119192
                         0.180437 0.072175 0.950301]
             /WhitePoint [0.9505 1.0 1.0890]
           >>
         ] setcolorspace } bind def
/srgb { setcolor } bind def
%%IncludeResource: font Helvetica
/Helvetica findfont
dup length dict begin
  {1 index /FID ne {def} {pop pop} ifelse} forall
  /Encoding ISOLatin1Encoding def
  currentdict
  end
/Font1 exch definefont pop
%%IncludeResource: font Helvetica-Bold
/Helvetica-Bold findfont
dup length dict begin
  {1 index /FID ne {def} {pop pop} ifelse} forall
  /Encoding ISOLatin1Encoding def
  currentdict
  end
/Font2 exch definefont pop
%%IncludeResource: font Helvetica-Oblique
/Helvetica-Oblique findfont
dup length dict begin
  {1 index /FID ne {def} {pop pop} ifelse} forall
  /Encoding ISOLatin1Encoding def
  currentdict
  end
/Font3 exch definefont pop
%%IncludeResource: font Helvetica-BoldOblique
/Helvetica-BoldOblique findfont
dup length dict begin
  {1 index /FID ne {def} {pop pop} ifelse} forall
  /Encoding ISOLatin1Encoding def
  currentdict
  end
/Font4 exch definefont pop
%%IncludeResource: font Symbol
/Symbol findfont
dup length dict begin
  {1 index /FID ne {def} {pop pop} ifelse} forall
  currentdict
  end
/Font5 exch definefont pop
%%EndProlog
%%Page: 1 1
bp
0.00 0.00 432.00 252.00 cl
0.00 0.00 432.00 252.00 cl
0.00 0.00 432.00 252.00 cl
0.00 0.00 432.00 252.00 cl
0.00 0.00 432.00 252.00 cl
0.00 0.00 432.00 252.00 cl
0.00 0.00 432.00 252.00 cl
0.00 0.00 432.00 252.00 cl
0.00 0.00 432.00 252.00 cl
0.00 0.00 432.00 252.00 cl
/bg { 1 1 1 srgb } def
1 1 1 srgb
1.07 setlinewidth
[] 0 setdash
1 setlinecap
1 setlinejoin
10.00 setmiterlimit
0.00 0.00 432.00 252.00 r p3
0.00 0.00 432.00 252.00 cl
33.70 42.29 426.52 246.52 cl
/bg { 1 1 1 srgb } def
33.70 42.29 392.82 204.23 r p2
0.9216 0.9216 0.9216 srgb
0.53 setlinewidth
[] 0 setdash
0 setlinecap
1 setlinejoin
10.00 setmiterlimit
np
33.70 77.49 m
392.82 0 l
o
np
33.70 129.32 m
392.82 0 l
o
np
33.70 181.15 m
392.82 0 l
o
np
33.70 232.98 m
392.82 0 l
o
1.07 setlinewidth
[] 0 setdash
np
33.70 51.58 m
392.82 0 l
o
np
33.70 103.41 m
392.82 0 l
o
np
33.70 155.23 m
392.82 0 l
o
np
33.70 207.06 m
392.82 0 l
o
np
71.71 42.29 m
0 204.23 l
o
np
135.07 42.29 m
0 204.23 l
o
np
198.43 42.29 m
0 204.23 l
o
np
261.79 42.29 m
0 204.23 l
o
np
325.15 42.29 m
0 204.23 l
o
np
388.51 42.29 m
0 204.23 l
o
/bg { 0.9725 0.4627 0.4275 srgb } def
65.38 51.58 12.67 124.60 r p2
128.73 51.58 12.67 106.44 r p2
192.09 51.58 12.67 15.94 r p2
255.45 51.58 12.67 9.21 r p2
318.81 51.58 12.67 13.19 r p2
382.17 51.58 12.67 164.92 r p2
0 0 0 srgb
0.43 setlinewidth
[] 0 setdash
np
68.54 178.97 m
6.34 0 l
o
np
71.71 178.97 m
0 -5.59 l
o
np
68.54 173.38 m
6.34 0 l
o
np
131.90 160.63 m
6.34 0 l
o
np
135.07 160.63 m
0 -5.22 l
o
np
131.90 155.41 m
6.34 0 l
o
np
195.26 75.03 m
6.34 0 l
o
np
198.43 75.03 m
0 -15.03 l
o
np
195.26 60.00 m
6.34 0 l
o
np
258.62 61.48 m
6.34 0 l
o
np
261.79 61.48 m
0 -1.38 l
o
np
258.62 60.10 m
6.34 0 l
o
np
321.98 65.40 m
6.33 0 l
o
np
325.15 65.40 m
0 -1.26 l
o
np
321.98 64.14 m
6.33 0 l
o
np
385.34 237.24 m
6.33 0 l
o
np
388.51 237.24 m
0 -41.47 l
o
np
385.34 195.77 m
6.33 0 l
o
0.2000 0.2000 0.2000 srgb
1.07 setlinewidth
[] 0 setdash
1 setlinecap
33.70 42.29 392.82 204.23 r p1
0.00 0.00 432.00 252.00 cl
0.00 0.00 432.00 252.00 cl
0.00 0.00 432.00 252.00 cl
0.00 0.00 432.00 252.00 cl
0.00 0.00 432.00 252.00 cl
0.00 0.00 432.00 252.00 cl
0.00 0.00 432.00 252.00 cl
0.00 0.00 432.00 252.00 cl
0.00 0.00 432.00 252.00 cl
0.00 0.00 432.00 252.00 cl
0.00 0.00 432.00 252.00 cl
0.00 0.00 432.00 252.00 cl
0.00 0.00 432.00 252.00 cl
0.00 0.00 432.00 252.00 cl
0.00 0.00 432.00 252.00 cl
0.00 0.00 432.00 252.00 cl
/Font1 findfont 9 s
0.3020 0.3020 0.3020 srgb
28.77 48.35 (0) 1 0 t
28.77 100.17 (30) 1 0 t
28.77 152.00 (60) 1 0 t
28.77 203.83 (90) 1 0 t
0.00 0.00 432.00 252.00 cl
0.00 0.00 432.00 252.00 cl
0.2000 0.2000 0.2000 srgb
1.07 setlinewidth
[] 0 setdash
0 setlinecap
1 setlinejoin
10.00 setmiterlimit
np
30.96 51.58 m
2.74 0 l
o
np
30.96 103.41 m
2.74 0 l
o
np
30.96 155.23 m
2.74 0 l
o
np
30.96 207.06 m
2.74 0 l
o
0.00 0.00 432.00 252.00 cl
0.00 0.00 432.00 252.00 cl
0.00 0.00 432.00 252.00 cl
0.00 0.00 432.00 252.00 cl
0.00 0.00 432.00 252.00 cl
0.00 0.00 432.00 252.00 cl
0.00 0.00 432.00 252.00 cl
0.00 0.00 432.00 252.00 cl
0.00 0.00 432.00 252.00 cl
0.00 0.00 432.00 252.00 cl
0.2000 0.2000 0.2000 srgb
1.07 setlinewidth
[] 0 setdash
0 setlinecap
1 setlinejoin
10.00 setmiterlimit
np
71.71 39.55 m
0 2.74 l
o
np
135.07 39.55 m
0 2.74 l
o
np
198.43 39.55 m
0 2.74 l
o
np
261.79 39.55 m
0 2.74 l
o
np
325.15 39.55 m
0 2.74 l
o
np
388.51 39.55 m
0 2.74 l
o
0.00 0.00 432.00 252.00 cl
0.00 0.00 432.00 252.00 cl
/Font1 findfont 9 s
0.3020 0.3020 0.3020 srgb
44.70 30.90 (J) 0 ta
-0.180 (uju installing) tb gr
40.95 21.40 (char) 0 ta
0.225 (m softw) tb
-0.135 (are) tb gr
111.56 30.90 (J) 0 ta
-0.180 (uju w) tb
-0.135 (aiting) tb gr
111.56 21.40 (f) 0 ta
-0.270 (or machine) tb gr
198.43 30.90 (NS action) .5 0 t
237.78 30.90 (NS a) 0 ta
-0.180 (w) tb
-0.135 (aiting) tb gr
236.03 21.40 (configur) 0 ta
-0.090 (ation) tb gr
325.15 30.90 (NS creation) .5 0 t
388.51 30.90 (NS deletion) .5 0 t
0.00 0.00 432.00 252.00 cl
0.00 0.00 432.00 252.00 cl
0.00 0.00 432.00 252.00 cl
0.00 0.00 432.00 252.00 cl
0.00 0.00 432.00 252.00 cl
0.00 0.00 432.00 252.00 cl
/Font1 findfont 11 s
0 0 0 srgb
230.11 8.12 (Status of NS) .5 0 t
0.00 0.00 432.00 252.00 cl
0.00 0.00 432.00 252.00 cl
/Font1 findfont 11 s
0 0 0 srgb
13.38 144.41 (Mean time in status [s]) .5 90 t
0.00 0.00 432.00 252.00 cl
0.00 0.00 432.00 252.00 cl
0.00 0.00 432.00 252.00 cl
0.00 0.00 432.00 252.00 cl
0.00 0.00 432.00 252.00 cl
0.00 0.00 432.00 252.00 cl
0.00 0.00 432.00 252.00 cl
0.00 0.00 432.00 252.00 cl
0.00 0.00 432.00 252.00 cl
0.00 0.00 432.00 252.00 cl
0.00 0.00 432.00 252.00 cl
0.00 0.00 432.00 252.00 cl
ep
%%Trailer
%%Pages: 1
%%EOF
