%!PS-Adobe-3.0 EPSF-3.0
%%DocumentNeededResources: font Helvetica
%%+ font Helvetica-Bold
%%+ font Helvetica-Oblique
%%+ font Helvetica-BoldOblique
%%+ font Symbol
%%Title: R Graphics Output
%%Creator: R Software
%%Pages: (atend)
%%BoundingBox: 0 0 432 252
%%EndComments
%%BeginProlog
/bp  { gs sRGB gs } def
% begin .ps.prolog
/gs  { gsave } bind def
/gr  { grestore } bind def
/ep  { showpage gr gr } bind def
/m   { moveto } bind def
/l  { rlineto } bind def
/np  { newpath } bind def
/cp  { closepath } bind def
/f   { fill } bind def
/o   { stroke } bind def
/c   { newpath 0 360 arc } bind def
/r   { 4 2 roll moveto 1 copy 3 -1 roll exch 0 exch rlineto 0 rlineto -1 mul 0 exch rlineto closepath } bind def
/p1  { stroke } bind def
/p2  { gsave bg fill grestore newpath } bind def
/p3  { gsave bg fill grestore stroke } bind def
/p6  { gsave bg eofill grestore newpath } bind def
/p7  { gsave bg eofill grestore stroke } bind def
/t   { 5 -2 roll moveto gsave rotate
       1 index stringwidth pop
       mul neg 0 rmoveto show grestore } bind def
/ta  { 4 -2 roll moveto gsave rotate show } bind def
/tb  { 2 -1 roll 0 rmoveto show } bind def
/cl  { grestore gsave newpath 3 index 3 index moveto 1 index
       4 -1 roll lineto  exch 1 index lineto lineto
       closepath clip newpath } bind def
/rgb { setrgbcolor } bind def
/s   { scalefont setfont } bind def
% end   .ps.prolog
/sRGB { [ /CIEBasedABC
          << /DecodeLMN
               [ { dup 0.03928 le
                        {12.92321 div}
                        {0.055 add 1.055 div 2.4 exp }
                     ifelse
                 } bind dup dup
               ]
             /MatrixLMN [0.412457 0.212673 0.019334
                         0.357576 0.715152 0.119192
                         0.180437 0.072175 0.950301]
             /WhitePoint [0.9505 1.0 1.0890]
           >>
         ] setcolorspace } bind def
/srgb { setcolor } bind def
%%IncludeResource: font Helvetica
/Helvetica findfont
dup length dict begin
  {1 index /FID ne {def} {pop pop} ifelse} forall
  /Encoding ISOLatin1Encoding def
  currentdict
  end
/Font1 exch definefont pop
%%IncludeResource: font Helvetica-Bold
/Helvetica-Bold findfont
dup length dict begin
  {1 index /FID ne {def} {pop pop} ifelse} forall
  /Encoding ISOLatin1Encoding def
  currentdict
  end
/Font2 exch definefont pop
%%IncludeResource: font Helvetica-Oblique
/Helvetica-Oblique findfont
dup length dict begin
  {1 index /FID ne {def} {pop pop} ifelse} forall
  /Encoding ISOLatin1Encoding def
  currentdict
  end
/Font3 exch definefont pop
%%IncludeResource: font Helvetica-BoldOblique
/Helvetica-BoldOblique findfont
dup length dict begin
  {1 index /FID ne {def} {pop pop} ifelse} forall
  /Encoding ISOLatin1Encoding def
  currentdict
  end
/Font4 exch definefont pop
%%IncludeResource: font Symbol
/Symbol findfont
dup length dict begin
  {1 index /FID ne {def} {pop pop} ifelse} forall
  currentdict
  end
/Font5 exch definefont pop
%%EndProlog
%%Page: 1 1
bp
0.00 0.00 432.00 252.00 cl
0.00 0.00 432.00 252.00 cl
0.00 0.00 432.00 252.00 cl
0.00 0.00 432.00 252.00 cl
0.00 0.00 432.00 252.00 cl
0.00 0.00 432.00 252.00 cl
0.00 0.00 432.00 252.00 cl
0.00 0.00 432.00 252.00 cl
0.00 0.00 432.00 252.00 cl
0.00 0.00 432.00 252.00 cl
0.00 0.00 432.00 252.00 cl
0.00 0.00 432.00 252.00 cl
0.00 0.00 432.00 252.00 cl
0.00 0.00 432.00 252.00 cl
0.00 0.00 432.00 252.00 cl
0.00 0.00 432.00 252.00 cl
/bg { 1 1 1 srgb } def
1 1 1 srgb
1.07 setlinewidth
[] 0 setdash
1 setlinecap
1 setlinejoin
10.00 setmiterlimit
0.00 0.00 432.00 252.00 r p3
0.00 0.00 432.00 252.00 cl
33.70 32.79 334.10 246.52 cl
/bg { 1 1 1 srgb } def
33.70 32.79 300.40 213.73 r p2
0.9216 0.9216 0.9216 srgb
0.53 setlinewidth
[] 0 setdash
0 setlinecap
1 setlinejoin
10.00 setmiterlimit
np
33.70 64.50 m
300.40 0 l
o
np
33.70 108.49 m
300.40 0 l
o
np
33.70 152.49 m
300.40 0 l
o
np
33.70 196.48 m
300.40 0 l
o
np
33.70 240.47 m
300.40 0 l
o
np
37.27 32.79 m
0 213.73 l
o
np
46.43 32.79 m
0 213.73 l
o
np
64.76 32.79 m
0 213.73 l
o
np
83.09 32.79 m
0 213.73 l
o
np
101.42 32.79 m
0 213.73 l
o
np
119.75 32.79 m
0 213.73 l
o
np
138.08 32.79 m
0 213.73 l
o
np
156.40 32.79 m
0 213.73 l
o
np
174.73 32.79 m
0 213.73 l
o
np
193.06 32.79 m
0 213.73 l
o
np
211.39 32.79 m
0 213.73 l
o
np
229.72 32.79 m
0 213.73 l
o
np
248.05 32.79 m
0 213.73 l
o
np
266.38 32.79 m
0 213.73 l
o
np
284.70 32.79 m
0 213.73 l
o
np
303.03 32.79 m
0 213.73 l
o
np
321.36 32.79 m
0 213.73 l
o
np
330.52 32.79 m
0 213.73 l
o
1.07 setlinewidth
[] 0 setdash
np
33.70 42.51 m
300.40 0 l
o
np
33.70 86.50 m
300.40 0 l
o
np
33.70 130.49 m
300.40 0 l
o
np
33.70 174.48 m
300.40 0 l
o
np
33.70 218.47 m
300.40 0 l
o
np
55.60 32.79 m
0 213.73 l
o
np
73.93 32.79 m
0 213.73 l
o
np
92.26 32.79 m
0 213.73 l
o
np
110.58 32.79 m
0 213.73 l
o
np
128.91 32.79 m
0 213.73 l
o
np
147.24 32.79 m
0 213.73 l
o
np
165.57 32.79 m
0 213.73 l
o
np
183.90 32.79 m
0 213.73 l
o
np
202.23 32.79 m
0 213.73 l
o
np
220.55 32.79 m
0 213.73 l
o
np
238.88 32.79 m
0 213.73 l
o
np
257.21 32.79 m
0 213.73 l
o
np
275.54 32.79 m
0 213.73 l
o
np
293.87 32.79 m
0 213.73 l
o
np
312.20 32.79 m
0 213.73 l
o
/bg { 0 0.7490 0.7686 srgb } def
55.60 42.51 8.25 28.60 r p2
/bg { 0.9725 0.4627 0.4275 srgb } def
47.35 42.51 8.25 35.17 r p2
/bg { 0 0.7490 0.7686 srgb } def
73.93 42.51 8.25 28.73 r p2
/bg { 0.9725 0.4627 0.4275 srgb } def
65.68 42.51 8.25 58.56 r p2
/bg { 0 0.7490 0.7686 srgb } def
92.26 42.51 8.25 28.97 r p2
/bg { 0.9725 0.4627 0.4275 srgb } def
84.01 42.51 8.25 60.74 r p2
/bg { 0 0.7490 0.7686 srgb } def
110.58 42.51 8.25 47.42 r p2
/bg { 0.9725 0.4627 0.4275 srgb } def
102.34 42.51 8.25 67.01 r p2
/bg { 0 0.7490 0.7686 srgb } def
128.91 42.51 8.25 52.70 r p2
/bg { 0.9725 0.4627 0.4275 srgb } def
120.66 42.51 8.25 83.95 r p2
/bg { 0 0.7490 0.7686 srgb } def
147.24 42.51 8.25 52.95 r p2
/bg { 0.9725 0.4627 0.4275 srgb } def
138.99 42.51 8.25 87.77 r p2
/bg { 0 0.7490 0.7686 srgb } def
165.57 42.51 8.25 71.29 r p2
/bg { 0.9725 0.4627 0.4275 srgb } def
157.32 42.51 8.25 90.70 r p2
/bg { 0 0.7490 0.7686 srgb } def
183.90 42.51 8.25 74.37 r p2
/bg { 0.9725 0.4627 0.4275 srgb } def
175.65 42.51 8.25 107.62 r p2
/bg { 0 0.7490 0.7686 srgb } def
202.23 42.51 8.25 75.32 r p2
/bg { 0.9725 0.4627 0.4275 srgb } def
193.98 42.51 8.25 139.37 r p2
/bg { 0 0.7490 0.7686 srgb } def
220.55 42.51 8.25 80.96 r p2
/bg { 0.9725 0.4627 0.4275 srgb } def
212.31 42.51 8.25 138.66 r p2
/bg { 0 0.7490 0.7686 srgb } def
238.88 42.51 8.25 94.43 r p2
/bg { 0.9725 0.4627 0.4275 srgb } def
230.63 42.51 8.25 151.48 r p2
/bg { 0 0.7490 0.7686 srgb } def
257.21 42.51 8.25 100.46 r p2
/bg { 0.9725 0.4627 0.4275 srgb } def
248.96 42.51 8.25 163.91 r p2
/bg { 0 0.7490 0.7686 srgb } def
275.54 42.51 8.25 103.11 r p2
/bg { 0.9725 0.4627 0.4275 srgb } def
267.29 42.51 8.25 169.86 r p2
/bg { 0 0.7490 0.7686 srgb } def
293.87 42.51 8.25 113.64 r p2
/bg { 0.9725 0.4627 0.4275 srgb } def
285.62 42.51 8.25 175.88 r p2
/bg { 0 0.7490 0.7686 srgb } def
312.20 42.51 8.25 125.32 r p2
/bg { 0.9725 0.4627 0.4275 srgb } def
303.95 42.51 8.25 192.46 r p2
0 0 0 srgb
0.43 setlinewidth
[] 0 setdash
np
57.66 71.19 m
4.12 0 l
o
np
59.72 71.19 m
0 -0.16 l
o
np
57.66 71.03 m
4.12 0 l
o
np
49.41 79.13 m
4.13 0 l
o
np
51.48 79.13 m
0 -2.91 l
o
np
49.41 76.22 m
4.13 0 l
o
np
75.99 71.30 m
4.12 0 l
o
np
78.05 71.30 m
0 -0.13 l
o
np
75.99 71.17 m
4.12 0 l
o
np
67.74 102.71 m
4.13 0 l
o
np
69.80 102.71 m
0 -3.29 l
o
np
67.74 99.42 m
4.13 0 l
o
np
94.32 71.55 m
4.12 0 l
o
np
96.38 71.55 m
0 -0.15 l
o
np
94.32 71.40 m
4.12 0 l
o
np
86.07 105.13 m
4.12 0 l
o
np
88.13 105.13 m
0 -3.77 l
o
np
86.07 101.36 m
4.12 0 l
o
np
112.65 95.27 m
4.12 0 l
o
np
114.71 95.27 m
0 -10.69 l
o
np
112.65 84.58 m
4.12 0 l
o
np
104.40 115.95 m
4.12 0 l
o
np
106.46 115.95 m
0 -12.87 l
o
np
104.40 103.08 m
4.12 0 l
o
np
130.97 95.32 m
4.13 0 l
o
np
133.04 95.32 m
0 -0.23 l
o
np
130.97 95.09 m
4.13 0 l
o
np
122.73 127.68 m
4.12 0 l
o
np
124.79 127.68 m
0 -2.46 l
o
np
122.73 125.22 m
4.12 0 l
o
np
149.30 95.54 m
4.13 0 l
o
np
151.36 95.54 m
0 -0.17 l
o
np
149.30 95.37 m
4.13 0 l
o
np
141.05 131.91 m
4.13 0 l
o
np
143.12 131.91 m
0 -3.27 l
o
np
141.05 128.64 m
4.13 0 l
o
np
167.63 116.65 m
4.12 0 l
o
np
169.69 116.65 m
0 -5.71 l
o
np
167.63 110.94 m
4.12 0 l
o
np
159.38 138.33 m
4.13 0 l
o
np
161.45 138.33 m
0 -10.25 l
o
np
159.38 128.08 m
4.13 0 l
o
np
185.96 120.30 m
4.12 0 l
o
np
188.02 120.30 m
0 -6.85 l
o
np
185.96 113.45 m
4.12 0 l
o
np
177.71 156.27 m
4.13 0 l
o
np
179.77 156.27 m
0 -12.28 l
o
np
177.71 143.99 m
4.13 0 l
o
np
204.29 119.14 m
4.12 0 l
o
np
206.35 119.14 m
0 -2.63 l
o
np
204.29 116.51 m
4.12 0 l
o
np
196.04 185.24 m
4.12 0 l
o
np
198.10 185.24 m
0 -6.73 l
o
np
196.04 178.51 m
4.12 0 l
o
np
222.62 129.08 m
4.12 0 l
o
np
224.68 129.08 m
0 -11.22 l
o
np
222.62 117.86 m
4.12 0 l
o
np
214.37 182.55 m
4.12 0 l
o
np
216.43 182.55 m
0 -2.77 l
o
np
214.37 179.78 m
4.12 0 l
o
np
240.94 141.15 m
4.13 0 l
o
np
243.01 141.15 m
0 -8.43 l
o
np
240.94 132.72 m
4.13 0 l
o
np
232.70 201.79 m
4.12 0 l
o
np
234.76 201.79 m
0 -15.60 l
o
np
232.70 186.19 m
4.12 0 l
o
np
259.27 146.78 m
4.13 0 l
o
np
261.33 146.78 m
0 -7.62 l
o
np
259.27 139.16 m
4.13 0 l
o
np
251.03 208.33 m
4.12 0 l
o
np
253.09 208.33 m
0 -3.83 l
o
np
251.03 204.50 m
4.12 0 l
o
np
277.60 151.41 m
4.13 0 l
o
np
279.66 151.41 m
0 -11.58 l
o
np
277.60 139.83 m
4.13 0 l
o
np
269.35 217.37 m
4.13 0 l
o
np
271.42 217.37 m
0 -10.01 l
o
np
269.35 207.36 m
4.13 0 l
o
np
295.93 163.13 m
4.12 0 l
o
np
297.99 163.13 m
0 -13.96 l
o
np
295.93 149.17 m
4.12 0 l
o
np
287.68 224.69 m
4.13 0 l
o
np
289.74 224.69 m
0 -12.61 l
o
np
287.68 212.08 m
4.13 0 l
o
np
314.26 171.45 m
4.12 0 l
o
np
316.32 171.45 m
0 -7.24 l
o
np
314.26 164.21 m
4.12 0 l
o
np
306.01 236.81 m
4.12 0 l
o
np
308.07 236.81 m
0 -3.69 l
o
np
306.01 233.12 m
4.12 0 l
o
0.2000 0.2000 0.2000 srgb
1.07 setlinewidth
[] 0 setdash
1 setlinecap
33.70 32.79 300.40 213.73 r p1
0.00 0.00 432.00 252.00 cl
0.00 0.00 432.00 252.00 cl
0.00 0.00 432.00 252.00 cl
0.00 0.00 432.00 252.00 cl
0.00 0.00 432.00 252.00 cl
0.00 0.00 432.00 252.00 cl
0.00 0.00 432.00 252.00 cl
0.00 0.00 432.00 252.00 cl
0.00 0.00 432.00 252.00 cl
0.00 0.00 432.00 252.00 cl
0.00 0.00 432.00 252.00 cl
0.00 0.00 432.00 252.00 cl
0.00 0.00 432.00 252.00 cl
0.00 0.00 432.00 252.00 cl
0.00 0.00 432.00 252.00 cl
0.00 0.00 432.00 252.00 cl
/Font1 findfont 9 s
0.3020 0.3020 0.3020 srgb
28.77 39.27 (0) 1 0 t
28.77 83.27 (10) 1 0 t
28.77 127.26 (20) 1 0 t
28.77 171.25 (30) 1 0 t
28.77 215.24 (40) 1 0 t
0.00 0.00 432.00 252.00 cl
0.00 0.00 432.00 252.00 cl
0.2000 0.2000 0.2000 srgb
1.07 setlinewidth
[] 0 setdash
0 setlinecap
1 setlinejoin
10.00 setmiterlimit
np
30.96 42.51 m
2.74 0 l
o
np
30.96 86.50 m
2.74 0 l
o
np
30.96 130.49 m
2.74 0 l
o
np
30.96 174.48 m
2.74 0 l
o
np
30.96 218.47 m
2.74 0 l
o
0.00 0.00 432.00 252.00 cl
0.00 0.00 432.00 252.00 cl
0.00 0.00 432.00 252.00 cl
0.00 0.00 432.00 252.00 cl
0.00 0.00 432.00 252.00 cl
0.00 0.00 432.00 252.00 cl
0.00 0.00 432.00 252.00 cl
0.00 0.00 432.00 252.00 cl
0.00 0.00 432.00 252.00 cl
0.00 0.00 432.00 252.00 cl
0.2000 0.2000 0.2000 srgb
1.07 setlinewidth
[] 0 setdash
0 setlinecap
1 setlinejoin
10.00 setmiterlimit
np
55.60 30.05 m
0 2.74 l
o
np
73.93 30.05 m
0 2.74 l
o
np
92.26 30.05 m
0 2.74 l
o
np
110.58 30.05 m
0 2.74 l
o
np
128.91 30.05 m
0 2.74 l
o
np
147.24 30.05 m
0 2.74 l
o
np
165.57 30.05 m
0 2.74 l
o
np
183.90 30.05 m
0 2.74 l
o
np
202.23 30.05 m
0 2.74 l
o
np
220.55 30.05 m
0 2.74 l
o
np
238.88 30.05 m
0 2.74 l
o
np
257.21 30.05 m
0 2.74 l
o
np
275.54 30.05 m
0 2.74 l
o
np
293.87 30.05 m
0 2.74 l
o
np
312.20 30.05 m
0 2.74 l
o
0.00 0.00 432.00 252.00 cl
0.00 0.00 432.00 252.00 cl
/Font1 findfont 9 s
0.3020 0.3020 0.3020 srgb
55.60 21.40 (1) .5 0 t
73.93 21.40 (2) .5 0 t
92.26 21.40 (3) .5 0 t
110.58 21.40 (4) .5 0 t
128.91 21.40 (5) .5 0 t
147.24 21.40 (6) .5 0 t
165.57 21.40 (7) .5 0 t
183.90 21.40 (8) .5 0 t
202.23 21.40 (9) .5 0 t
220.55 21.40 (10) .5 0 t
238.88 21.40 (11) .5 0 t
257.21 21.40 (12) .5 0 t
275.54 21.40 (13) .5 0 t
293.87 21.40 (14) .5 0 t
312.20 21.40 (15) .5 0 t
0.00 0.00 432.00 252.00 cl
0.00 0.00 432.00 252.00 cl
0.00 0.00 432.00 252.00 cl
0.00 0.00 432.00 252.00 cl
0.00 0.00 432.00 252.00 cl
0.00 0.00 432.00 252.00 cl
/Font1 findfont 11 s
0 0 0 srgb
95.26 8.12 (Number of VNFs in f) 0 ta
-0.330 (orw) tb
-0.165 (arding chain) tb gr
0.00 0.00 432.00 252.00 cl
0.00 0.00 432.00 252.00 cl
/Font1 findfont 11 s
0 0 0 srgb
13.38 97.16 (Mean dur) 90 ta
-0.110 (ation [s]) tb gr
0.00 0.00 432.00 252.00 cl
0.00 0.00 432.00 252.00 cl
0.00 0.00 432.00 252.00 cl
0.00 0.00 432.00 252.00 cl
0.00 0.00 432.00 252.00 cl
0.00 0.00 432.00 252.00 cl
0.00 0.00 432.00 252.00 cl
0.00 0.00 432.00 252.00 cl
/bg { 1 1 1 srgb } def
345.06 108.89 81.46 61.54 r p2
0.00 0.00 432.00 252.00 cl
0.00 0.00 432.00 252.00 cl
0.00 0.00 432.00 252.00 cl
0.00 0.00 432.00 252.00 cl
0.00 0.00 432.00 252.00 cl
0.00 0.00 432.00 252.00 cl
0.00 0.00 432.00 252.00 cl
/bg { 1 1 1 srgb } def
350.54 131.65 17.28 17.28 r p2
0.00 0.00 432.00 252.00 cl
0.00 0.00 432.00 252.00 cl
/bg { 0.9725 0.4627 0.4275 srgb } def
351.25 132.36 15.86 15.86 r p2
0.00 0.00 432.00 252.00 cl
0.00 0.00 432.00 252.00 cl
/bg { 1 1 1 srgb } def
350.54 114.37 17.28 17.28 r p2
0.00 0.00 432.00 252.00 cl
0.00 0.00 432.00 252.00 cl
/bg { 0 0.7490 0.7686 srgb } def
351.25 115.08 15.86 15.86 r p2
0.00 0.00 432.00 252.00 cl
0.00 0.00 432.00 252.00 cl
0.00 0.00 432.00 252.00 cl
0.00 0.00 432.00 252.00 cl
/Font1 findfont 9 s
0 0 0 srgb
373.30 137.06 (Deplo) 0 ta
-0.270 (yment) tb gr
0.00 0.00 432.00 252.00 cl
0.00 0.00 432.00 252.00 cl
0.00 0.00 432.00 252.00 cl
0.00 0.00 432.00 252.00 cl
0.00 0.00 432.00 252.00 cl
/Font1 findfont 9 s
0 0 0 srgb
373.30 119.78 (Deletion) 0 0 t
0.00 0.00 432.00 252.00 cl
0.00 0.00 432.00 252.00 cl
0.00 0.00 432.00 252.00 cl
0.00 0.00 432.00 252.00 cl
0.00 0.00 432.00 252.00 cl
0.00 0.00 432.00 252.00 cl
0.00 0.00 432.00 252.00 cl
0.00 0.00 432.00 252.00 cl
0.00 0.00 432.00 252.00 cl
0.00 0.00 432.00 252.00 cl
0.00 0.00 432.00 252.00 cl
0.00 0.00 432.00 252.00 cl
0.00 0.00 432.00 252.00 cl
ep
%%Trailer
%%Pages: 1
%%EOF
