%!PS-Adobe-3.0 EPSF-3.0
%%DocumentNeededResources: font Helvetica
%%+ font Helvetica-Bold
%%+ font Helvetica-Oblique
%%+ font Helvetica-BoldOblique
%%+ font Symbol
%%Title: R Graphics Output
%%Creator: R Software
%%Pages: (atend)
%%BoundingBox: 0 0 432 252
%%EndComments
%%BeginProlog
/bp  { gs sRGB gs } def
% begin .ps.prolog
/gs  { gsave } bind def
/gr  { grestore } bind def
/ep  { showpage gr gr } bind def
/m   { moveto } bind def
/l  { rlineto } bind def
/np  { newpath } bind def
/cp  { closepath } bind def
/f   { fill } bind def
/o   { stroke } bind def
/c   { newpath 0 360 arc } bind def
/r   { 4 2 roll moveto 1 copy 3 -1 roll exch 0 exch rlineto 0 rlineto -1 mul 0 exch rlineto closepath } bind def
/p1  { stroke } bind def
/p2  { gsave bg fill grestore newpath } bind def
/p3  { gsave bg fill grestore stroke } bind def
/p6  { gsave bg eofill grestore newpath } bind def
/p7  { gsave bg eofill grestore stroke } bind def
/t   { 5 -2 roll moveto gsave rotate
       1 index stringwidth pop
       mul neg 0 rmoveto show grestore } bind def
/ta  { 4 -2 roll moveto gsave rotate show } bind def
/tb  { 2 -1 roll 0 rmoveto show } bind def
/cl  { grestore gsave newpath 3 index 3 index moveto 1 index
       4 -1 roll lineto  exch 1 index lineto lineto
       closepath clip newpath } bind def
/rgb { setrgbcolor } bind def
/s   { scalefont setfont } bind def
% end   .ps.prolog
/sRGB { [ /CIEBasedABC
          << /DecodeLMN
               [ { dup 0.03928 le
                        {12.92321 div}
                        {0.055 add 1.055 div 2.4 exp }
                     ifelse
                 } bind dup dup
               ]
             /MatrixLMN [0.412457 0.212673 0.019334
                         0.357576 0.715152 0.119192
                         0.180437 0.072175 0.950301]
             /WhitePoint [0.9505 1.0 1.0890]
           >>
         ] setcolorspace } bind def
/srgb { setcolor } bind def
%%IncludeResource: font Helvetica
/Helvetica findfont
dup length dict begin
  {1 index /FID ne {def} {pop pop} ifelse} forall
  /Encoding ISOLatin1Encoding def
  currentdict
  end
/Font1 exch definefont pop
%%IncludeResource: font Helvetica-Bold
/Helvetica-Bold findfont
dup length dict begin
  {1 index /FID ne {def} {pop pop} ifelse} forall
  /Encoding ISOLatin1Encoding def
  currentdict
  end
/Font2 exch definefont pop
%%IncludeResource: font Helvetica-Oblique
/Helvetica-Oblique findfont
dup length dict begin
  {1 index /FID ne {def} {pop pop} ifelse} forall
  /Encoding ISOLatin1Encoding def
  currentdict
  end
/Font3 exch definefont pop
%%IncludeResource: font Helvetica-BoldOblique
/Helvetica-BoldOblique findfont
dup length dict begin
  {1 index /FID ne {def} {pop pop} ifelse} forall
  /Encoding ISOLatin1Encoding def
  currentdict
  end
/Font4 exch definefont pop
%%IncludeResource: font Symbol
/Symbol findfont
dup length dict begin
  {1 index /FID ne {def} {pop pop} ifelse} forall
  currentdict
  end
/Font5 exch definefont pop
%%EndProlog
%%Page: 1 1
bp
0.00 0.00 432.00 252.00 cl
0.00 0.00 432.00 252.00 cl
0.00 0.00 432.00 252.00 cl
0.00 0.00 432.00 252.00 cl
0.00 0.00 432.00 252.00 cl
0.00 0.00 432.00 252.00 cl
0.00 0.00 432.00 252.00 cl
0.00 0.00 432.00 252.00 cl
0.00 0.00 432.00 252.00 cl
0.00 0.00 432.00 252.00 cl
0.00 0.00 432.00 252.00 cl
0.00 0.00 432.00 252.00 cl
0.00 0.00 432.00 252.00 cl
0.00 0.00 432.00 252.00 cl
0.00 0.00 432.00 252.00 cl
0.00 0.00 432.00 252.00 cl
/bg { 1 1 1 srgb } def
1 1 1 srgb
1.07 setlinewidth
[] 0 setdash
1 setlinecap
1 setlinejoin
10.00 setmiterlimit
0.00 0.00 432.00 252.00 r p3
0.00 0.00 432.00 252.00 cl
38.70 32.79 343.51 246.52 cl
/bg { 1 1 1 srgb } def
38.70 32.79 304.81 213.73 r p2
0.9216 0.9216 0.9216 srgb
0.53 setlinewidth
[] 0 setdash
0 setlinecap
1 setlinejoin
10.00 setmiterlimit
np
38.70 33.17 m
304.81 0 l
o
np
38.70 51.84 m
304.81 0 l
o
np
38.70 70.52 m
304.81 0 l
o
np
38.70 89.19 m
304.81 0 l
o
np
38.70 107.87 m
304.81 0 l
o
np
38.70 126.54 m
304.81 0 l
o
np
38.70 145.22 m
304.81 0 l
o
np
38.70 163.90 m
304.81 0 l
o
np
38.70 182.57 m
304.81 0 l
o
np
38.70 201.25 m
304.81 0 l
o
np
38.70 219.92 m
304.81 0 l
o
np
38.70 238.60 m
304.81 0 l
o
np
41.59 32.79 m
0 213.73 l
o
np
51.56 32.79 m
0 213.73 l
o
np
71.49 32.79 m
0 213.73 l
o
np
91.43 32.79 m
0 213.73 l
o
np
111.37 32.79 m
0 213.73 l
o
np
131.30 32.79 m
0 213.73 l
o
np
151.24 32.79 m
0 213.73 l
o
np
171.17 32.79 m
0 213.73 l
o
np
191.11 32.79 m
0 213.73 l
o
np
211.04 32.79 m
0 213.73 l
o
np
230.98 32.79 m
0 213.73 l
o
np
250.91 32.79 m
0 213.73 l
o
np
270.85 32.79 m
0 213.73 l
o
np
290.78 32.79 m
0 213.73 l
o
np
310.72 32.79 m
0 213.73 l
o
np
330.65 32.79 m
0 213.73 l
o
np
340.62 32.79 m
0 213.73 l
o
1.07 setlinewidth
[] 0 setdash
np
38.70 42.51 m
304.81 0 l
o
np
38.70 61.18 m
304.81 0 l
o
np
38.70 79.86 m
304.81 0 l
o
np
38.70 98.53 m
304.81 0 l
o
np
38.70 117.21 m
304.81 0 l
o
np
38.70 135.88 m
304.81 0 l
o
np
38.70 154.56 m
304.81 0 l
o
np
38.70 173.23 m
304.81 0 l
o
np
38.70 191.91 m
304.81 0 l
o
np
38.70 210.58 m
304.81 0 l
o
np
38.70 229.26 m
304.81 0 l
o
np
61.53 32.79 m
0 213.73 l
o
np
81.46 32.79 m
0 213.73 l
o
np
101.40 32.79 m
0 213.73 l
o
np
121.33 32.79 m
0 213.73 l
o
np
141.27 32.79 m
0 213.73 l
o
np
161.20 32.79 m
0 213.73 l
o
np
181.14 32.79 m
0 213.73 l
o
np
201.07 32.79 m
0 213.73 l
o
np
221.01 32.79 m
0 213.73 l
o
np
240.94 32.79 m
0 213.73 l
o
np
260.88 32.79 m
0 213.73 l
o
np
280.82 32.79 m
0 213.73 l
o
np
300.75 32.79 m
0 213.73 l
o
np
320.69 32.79 m
0 213.73 l
o
/bg { 0 0.7490 0.7686 srgb } def
61.53 42.51 8.97 0.01 r p2
/bg { 0.9725 0.4627 0.4275 srgb } def
52.56 42.51 8.97 0.02 r p2
/bg { 0 0.7490 0.7686 srgb } def
81.46 42.51 8.97 14.98 r p2
/bg { 0.9725 0.4627 0.4275 srgb } def
72.49 42.51 8.97 14.98 r p2
/bg { 0 0.7490 0.7686 srgb } def
101.40 42.51 8.97 29.93 r p2
/bg { 0.9725 0.4627 0.4275 srgb } def
92.43 42.51 8.97 29.99 r p2
/bg { 0 0.7490 0.7686 srgb } def
121.33 42.51 8.97 44.89 r p2
/bg { 0.9725 0.4627 0.4275 srgb } def
112.36 42.51 8.97 44.87 r p2
/bg { 0 0.7490 0.7686 srgb } def
141.27 42.51 8.97 59.82 r p2
/bg { 0.9725 0.4627 0.4275 srgb } def
132.30 42.51 8.97 59.82 r p2
/bg { 0 0.7490 0.7686 srgb } def
161.20 42.51 8.97 74.76 r p2
/bg { 0.9725 0.4627 0.4275 srgb } def
152.23 42.51 8.97 74.76 r p2
/bg { 0 0.7490 0.7686 srgb } def
181.14 42.51 8.97 89.69 r p2
/bg { 0.9725 0.4627 0.4275 srgb } def
172.17 42.51 8.97 89.70 r p2
/bg { 0 0.7490 0.7686 srgb } def
201.07 42.51 8.97 104.64 r p2
/bg { 0.9725 0.4627 0.4275 srgb } def
192.10 42.51 8.97 104.63 r p2
/bg { 0 0.7490 0.7686 srgb } def
221.01 42.51 8.97 119.62 r p2
/bg { 0.9725 0.4627 0.4275 srgb } def
212.04 42.51 8.97 119.60 r p2
/bg { 0 0.7490 0.7686 srgb } def
240.94 42.51 8.97 134.53 r p2
/bg { 0.9725 0.4627 0.4275 srgb } def
231.97 42.51 8.97 134.53 r p2
/bg { 0 0.7490 0.7686 srgb } def
260.88 42.51 8.97 149.46 r p2
/bg { 0.9725 0.4627 0.4275 srgb } def
251.91 42.51 8.97 149.46 r p2
/bg { 0 0.7490 0.7686 srgb } def
280.82 42.51 8.97 164.40 r p2
/bg { 0.9725 0.4627 0.4275 srgb } def
271.84 42.51 8.97 164.40 r p2
/bg { 0 0.7490 0.7686 srgb } def
300.75 42.51 8.97 179.35 r p2
/bg { 0.9725 0.4627 0.4275 srgb } def
291.78 42.51 8.97 179.35 r p2
/bg { 0 0.7490 0.7686 srgb } def
320.69 42.51 8.97 194.28 r p2
/bg { 0.9725 0.4627 0.4275 srgb } def
311.72 42.51 8.97 194.28 r p2
0 0 0 srgb
0.43 setlinewidth
[] 0 setdash
np
63.77 42.52 m
4.48 0 l
o
np
66.01 42.52 m
0 -0.01 l
o
np
63.77 42.51 m
4.48 0 l
o
np
54.80 42.53 m
4.48 0 l
o
np
57.04 42.53 m
0 -0.01 l
o
np
54.80 42.52 m
4.48 0 l
o
np
83.70 57.49 m
4.49 0 l
o
np
85.95 57.49 m
0 -0.01 l
o
np
83.70 57.48 m
4.49 0 l
o
np
74.73 57.50 m
4.49 0 l
o
np
76.98 57.50 m
0 -0.02 l
o
np
74.73 57.48 m
4.49 0 l
o
np
103.64 72.44 m
4.49 0 l
o
np
105.88 72.44 m
0 -0.01 l
o
np
103.64 72.43 m
4.49 0 l
o
np
94.67 72.59 m
4.48 0 l
o
np
96.91 72.59 m
0 -0.19 l
o
np
94.67 72.40 m
4.48 0 l
o
np
123.58 87.43 m
4.48 0 l
o
np
125.82 87.43 m
0 -0.07 l
o
np
123.58 87.36 m
4.48 0 l
o
np
114.60 87.39 m
4.49 0 l
o
np
116.85 87.39 m
0 -0.03 l
o
np
114.60 87.36 m
4.49 0 l
o
np
143.51 102.35 m
4.49 0 l
o
np
145.75 102.35 m
0 -0.04 l
o
np
143.51 102.31 m
4.49 0 l
o
np
134.54 102.34 m
4.49 0 l
o
np
136.78 102.34 m
0 -0.03 l
o
np
134.54 102.31 m
4.49 0 l
o
np
163.45 117.27 m
4.48 0 l
o
np
165.69 117.27 m
0 -0.01 l
o
np
163.45 117.26 m
4.48 0 l
o
np
154.48 117.27 m
4.48 0 l
o
np
156.72 117.27 m
0 -0.02 l
o
np
154.48 117.25 m
4.48 0 l
o
np
183.38 132.21 m
4.49 0 l
o
np
185.62 132.21 m
0 -0.03 l
o
np
183.38 132.18 m
4.49 0 l
o
np
174.41 132.23 m
4.49 0 l
o
np
176.65 132.23 m
0 -0.04 l
o
np
174.41 132.19 m
4.49 0 l
o
np
203.32 147.16 m
4.48 0 l
o
np
205.56 147.16 m
0 -0.03 l
o
np
203.32 147.13 m
4.48 0 l
o
np
194.35 147.14 m
4.48 0 l
o
np
196.59 147.14 m
0 -0.01 l
o
np
194.35 147.13 m
4.48 0 l
o
np
223.25 162.21 m
4.49 0 l
o
np
225.49 162.21 m
0 -0.18 l
o
np
223.25 162.03 m
4.49 0 l
o
np
214.28 162.13 m
4.49 0 l
o
np
216.52 162.13 m
0 -0.06 l
o
np
214.28 162.07 m
4.49 0 l
o
np
243.19 177.05 m
4.48 0 l
o
np
245.43 177.05 m
0 -0.03 l
o
np
243.19 177.02 m
4.48 0 l
o
np
234.22 177.04 m
4.48 0 l
o
np
236.46 177.04 m
0 -0.02 l
o
np
234.22 177.02 m
4.48 0 l
o
np
263.12 191.97 m
4.49 0 l
o
np
265.37 191.97 m
0 -0.01 l
o
np
263.12 191.96 m
4.49 0 l
o
np
254.15 191.97 m
4.49 0 l
o
np
256.39 191.97 m
0 -0.01 l
o
np
254.15 191.96 m
4.49 0 l
o
np
283.06 206.92 m
4.48 0 l
o
np
285.30 206.92 m
0 -0.02 l
o
np
283.06 206.90 m
4.48 0 l
o
np
274.09 206.91 m
4.48 0 l
o
np
276.33 206.91 m
0 -0.01 l
o
np
274.09 206.90 m
4.48 0 l
o
np
302.99 221.86 m
4.49 0 l
o
np
305.24 221.86 m
0 -0.02 l
o
np
302.99 221.84 m
4.49 0 l
o
np
294.02 221.87 m
4.49 0 l
o
np
296.27 221.87 m
0 -0.04 l
o
np
294.02 221.83 m
4.49 0 l
o
np
322.93 236.80 m
4.48 0 l
o
np
325.17 236.80 m
0 -0.03 l
o
np
322.93 236.77 m
4.48 0 l
o
np
313.96 236.81 m
4.48 0 l
o
np
316.20 236.81 m
0 -0.04 l
o
np
313.96 236.77 m
4.48 0 l
o
0.2000 0.2000 0.2000 srgb
1.07 setlinewidth
[] 0 setdash
1 setlinecap
38.70 32.79 304.81 213.73 r p1
0.00 0.00 432.00 252.00 cl
0.00 0.00 432.00 252.00 cl
0.00 0.00 432.00 252.00 cl
0.00 0.00 432.00 252.00 cl
0.00 0.00 432.00 252.00 cl
0.00 0.00 432.00 252.00 cl
0.00 0.00 432.00 252.00 cl
0.00 0.00 432.00 252.00 cl
0.00 0.00 432.00 252.00 cl
0.00 0.00 432.00 252.00 cl
0.00 0.00 432.00 252.00 cl
0.00 0.00 432.00 252.00 cl
0.00 0.00 432.00 252.00 cl
0.00 0.00 432.00 252.00 cl
0.00 0.00 432.00 252.00 cl
0.00 0.00 432.00 252.00 cl
/Font1 findfont 9 s
0.3020 0.3020 0.3020 srgb
33.77 39.27 (0) 1 0 t
33.77 57.95 (50) 1 0 t
33.77 76.63 (100) 1 0 t
33.77 95.30 (150) 1 0 t
33.77 113.98 (200) 1 0 t
33.77 132.65 (250) 1 0 t
33.77 151.33 (300) 1 0 t
33.77 170.00 (350) 1 0 t
33.77 188.68 (400) 1 0 t
33.77 207.35 (450) 1 0 t
33.77 226.03 (500) 1 0 t
0.00 0.00 432.00 252.00 cl
0.00 0.00 432.00 252.00 cl
0.2000 0.2000 0.2000 srgb
1.07 setlinewidth
[] 0 setdash
0 setlinecap
1 setlinejoin
10.00 setmiterlimit
np
35.96 42.51 m
2.74 0 l
o
np
35.96 61.18 m
2.74 0 l
o
np
35.96 79.86 m
2.74 0 l
o
np
35.96 98.53 m
2.74 0 l
o
np
35.96 117.21 m
2.74 0 l
o
np
35.96 135.88 m
2.74 0 l
o
np
35.96 154.56 m
2.74 0 l
o
np
35.96 173.23 m
2.74 0 l
o
np
35.96 191.91 m
2.74 0 l
o
np
35.96 210.58 m
2.74 0 l
o
np
35.96 229.26 m
2.74 0 l
o
0.00 0.00 432.00 252.00 cl
0.00 0.00 432.00 252.00 cl
0.00 0.00 432.00 252.00 cl
0.00 0.00 432.00 252.00 cl
0.00 0.00 432.00 252.00 cl
0.00 0.00 432.00 252.00 cl
0.00 0.00 432.00 252.00 cl
0.00 0.00 432.00 252.00 cl
0.00 0.00 432.00 252.00 cl
0.00 0.00 432.00 252.00 cl
0.2000 0.2000 0.2000 srgb
1.07 setlinewidth
[] 0 setdash
0 setlinecap
1 setlinejoin
10.00 setmiterlimit
np
61.53 30.05 m
0 2.74 l
o
np
81.46 30.05 m
0 2.74 l
o
np
101.40 30.05 m
0 2.74 l
o
np
121.33 30.05 m
0 2.74 l
o
np
141.27 30.05 m
0 2.74 l
o
np
161.20 30.05 m
0 2.74 l
o
np
181.14 30.05 m
0 2.74 l
o
np
201.07 30.05 m
0 2.74 l
o
np
221.01 30.05 m
0 2.74 l
o
np
240.94 30.05 m
0 2.74 l
o
np
260.88 30.05 m
0 2.74 l
o
np
280.82 30.05 m
0 2.74 l
o
np
300.75 30.05 m
0 2.74 l
o
np
320.69 30.05 m
0 2.74 l
o
0.00 0.00 432.00 252.00 cl
0.00 0.00 432.00 252.00 cl
/Font1 findfont 9 s
0.3020 0.3020 0.3020 srgb
61.53 21.40 (0) .5 0 t
81.46 21.40 (10) .5 0 t
101.40 21.40 (20) .5 0 t
121.33 21.40 (30) .5 0 t
141.27 21.40 (40) .5 0 t
161.20 21.40 (50) .5 0 t
181.14 21.40 (60) .5 0 t
201.07 21.40 (70) .5 0 t
221.01 21.40 (80) .5 0 t
240.94 21.40 (90) .5 0 t
260.88 21.40 (100) .5 0 t
280.82 21.40 (110) .5 0 t
300.75 21.40 (120) .5 0 t
320.69 21.40 (130) .5 0 t
0.00 0.00 432.00 252.00 cl
0.00 0.00 432.00 252.00 cl
0.00 0.00 432.00 252.00 cl
0.00 0.00 432.00 252.00 cl
0.00 0.00 432.00 252.00 cl
0.00 0.00 432.00 252.00 cl
/Font1 findfont 11 s
0 0 0 srgb
131.50 8.12 (Em) 0 ta
-0.110 (ulated link dela) tb
-0.330 (y [ms]) tb gr
0.00 0.00 432.00 252.00 cl
0.00 0.00 432.00 252.00 cl
/Font1 findfont 11 s
0 0 0 srgb
13.38 139.66 (Mean ping time [ms]) .5 90 t
0.00 0.00 432.00 252.00 cl
0.00 0.00 432.00 252.00 cl
0.00 0.00 432.00 252.00 cl
0.00 0.00 432.00 252.00 cl
0.00 0.00 432.00 252.00 cl
0.00 0.00 432.00 252.00 cl
0.00 0.00 432.00 252.00 cl
0.00 0.00 432.00 252.00 cl
/bg { 1 1 1 srgb } def
354.47 108.89 72.05 61.54 r p2
0.00 0.00 432.00 252.00 cl
0.00 0.00 432.00 252.00 cl
0.00 0.00 432.00 252.00 cl
0.00 0.00 432.00 252.00 cl
0.00 0.00 432.00 252.00 cl
0.00 0.00 432.00 252.00 cl
0.00 0.00 432.00 252.00 cl
/bg { 1 1 1 srgb } def
359.95 131.65 17.28 17.28 r p2
0.00 0.00 432.00 252.00 cl
0.00 0.00 432.00 252.00 cl
/bg { 0.9725 0.4627 0.4275 srgb } def
360.66 132.36 15.86 15.86 r p2
0.00 0.00 432.00 252.00 cl
0.00 0.00 432.00 252.00 cl
/bg { 1 1 1 srgb } def
359.95 114.37 17.28 17.28 r p2
0.00 0.00 432.00 252.00 cl
0.00 0.00 432.00 252.00 cl
/bg { 0 0.7490 0.7686 srgb } def
360.66 115.08 15.86 15.86 r p2
0.00 0.00 432.00 252.00 cl
0.00 0.00 432.00 252.00 cl
0.00 0.00 432.00 252.00 cl
0.00 0.00 432.00 252.00 cl
/Font1 findfont 9 s
0 0 0 srgb
382.71 137.06 (R) 0 ta
-0.180 (O to DB) tb gr
0.00 0.00 432.00 252.00 cl
0.00 0.00 432.00 252.00 cl
0.00 0.00 432.00 252.00 cl
0.00 0.00 432.00 252.00 cl
0.00 0.00 432.00 252.00 cl
/Font1 findfont 9 s
0 0 0 srgb
382.71 119.78 (DB to R) 0 ta
-0.180 (O) tb gr
0.00 0.00 432.00 252.00 cl
0.00 0.00 432.00 252.00 cl
0.00 0.00 432.00 252.00 cl
0.00 0.00 432.00 252.00 cl
0.00 0.00 432.00 252.00 cl
0.00 0.00 432.00 252.00 cl
0.00 0.00 432.00 252.00 cl
0.00 0.00 432.00 252.00 cl
0.00 0.00 432.00 252.00 cl
0.00 0.00 432.00 252.00 cl
0.00 0.00 432.00 252.00 cl
0.00 0.00 432.00 252.00 cl
0.00 0.00 432.00 252.00 cl
ep
%%Trailer
%%Pages: 1
%%EOF
