%!PS-Adobe-3.0 EPSF-3.0
%%DocumentNeededResources: font Helvetica
%%+ font Helvetica-Bold
%%+ font Helvetica-Oblique
%%+ font Helvetica-BoldOblique
%%+ font Symbol
%%Title: R Graphics Output
%%Creator: R Software
%%Pages: (atend)
%%BoundingBox: 0 0 432 252
%%EndComments
%%BeginProlog
/bp  { gs sRGB gs } def
% begin .ps.prolog
/gs  { gsave } bind def
/gr  { grestore } bind def
/ep  { showpage gr gr } bind def
/m   { moveto } bind def
/l  { rlineto } bind def
/np  { newpath } bind def
/cp  { closepath } bind def
/f   { fill } bind def
/o   { stroke } bind def
/c   { newpath 0 360 arc } bind def
/r   { 4 2 roll moveto 1 copy 3 -1 roll exch 0 exch rlineto 0 rlineto -1 mul 0 exch rlineto closepath } bind def
/p1  { stroke } bind def
/p2  { gsave bg fill grestore newpath } bind def
/p3  { gsave bg fill grestore stroke } bind def
/p6  { gsave bg eofill grestore newpath } bind def
/p7  { gsave bg eofill grestore stroke } bind def
/t   { 5 -2 roll moveto gsave rotate
       1 index stringwidth pop
       mul neg 0 rmoveto show grestore } bind def
/ta  { 4 -2 roll moveto gsave rotate show } bind def
/tb  { 2 -1 roll 0 rmoveto show } bind def
/cl  { grestore gsave newpath 3 index 3 index moveto 1 index
       4 -1 roll lineto  exch 1 index lineto lineto
       closepath clip newpath } bind def
/rgb { setrgbcolor } bind def
/s   { scalefont setfont } bind def
% end   .ps.prolog
/sRGB { [ /CIEBasedABC
          << /DecodeLMN
               [ { dup 0.03928 le
                        {12.92321 div}
                        {0.055 add 1.055 div 2.4 exp }
                     ifelse
                 } bind dup dup
               ]
             /MatrixLMN [0.412457 0.212673 0.019334
                         0.357576 0.715152 0.119192
                         0.180437 0.072175 0.950301]
             /WhitePoint [0.9505 1.0 1.0890]
           >>
         ] setcolorspace } bind def
/srgb { setcolor } bind def
%%IncludeResource: font Helvetica
/Helvetica findfont
dup length dict begin
  {1 index /FID ne {def} {pop pop} ifelse} forall
  /Encoding ISOLatin1Encoding def
  currentdict
  end
/Font1 exch definefont pop
%%IncludeResource: font Helvetica-Bold
/Helvetica-Bold findfont
dup length dict begin
  {1 index /FID ne {def} {pop pop} ifelse} forall
  /Encoding ISOLatin1Encoding def
  currentdict
  end
/Font2 exch definefont pop
%%IncludeResource: font Helvetica-Oblique
/Helvetica-Oblique findfont
dup length dict begin
  {1 index /FID ne {def} {pop pop} ifelse} forall
  /Encoding ISOLatin1Encoding def
  currentdict
  end
/Font3 exch definefont pop
%%IncludeResource: font Helvetica-BoldOblique
/Helvetica-BoldOblique findfont
dup length dict begin
  {1 index /FID ne {def} {pop pop} ifelse} forall
  /Encoding ISOLatin1Encoding def
  currentdict
  end
/Font4 exch definefont pop
%%IncludeResource: font Symbol
/Symbol findfont
dup length dict begin
  {1 index /FID ne {def} {pop pop} ifelse} forall
  currentdict
  end
/Font5 exch definefont pop
%%EndProlog
%%Page: 1 1
bp
0.00 0.00 432.00 252.00 cl
0.00 0.00 432.00 252.00 cl
0.00 0.00 432.00 252.00 cl
0.00 0.00 432.00 252.00 cl
0.00 0.00 432.00 252.00 cl
0.00 0.00 432.00 252.00 cl
0.00 0.00 432.00 252.00 cl
0.00 0.00 432.00 252.00 cl
0.00 0.00 432.00 252.00 cl
0.00 0.00 432.00 252.00 cl
/bg { 1 1 1 srgb } def
1 1 1 srgb
1.07 setlinewidth
[] 0 setdash
1 setlinecap
1 setlinejoin
10.00 setmiterlimit
0.00 0.00 432.00 252.00 r p3
0.00 0.00 432.00 252.00 cl
33.70 32.79 426.52 246.52 cl
/bg { 1 1 1 srgb } def
33.70 32.79 392.82 213.73 r p2
0.9216 0.9216 0.9216 srgb
0.53 setlinewidth
[] 0 setdash
0 setlinecap
1 setlinejoin
10.00 setmiterlimit
np
33.70 67.03 m
392.82 0 l
o
np
33.70 116.08 m
392.82 0 l
o
np
33.70 165.14 m
392.82 0 l
o
np
33.70 214.19 m
392.82 0 l
o
np
44.11 32.79 m
0 213.73 l
o
np
68.91 32.79 m
0 213.73 l
o
np
93.71 32.79 m
0 213.73 l
o
np
118.51 32.79 m
0 213.73 l
o
np
143.31 32.79 m
0 213.73 l
o
np
168.11 32.79 m
0 213.73 l
o
np
192.91 32.79 m
0 213.73 l
o
np
217.71 32.79 m
0 213.73 l
o
np
242.51 32.79 m
0 213.73 l
o
np
267.31 32.79 m
0 213.73 l
o
np
292.11 32.79 m
0 213.73 l
o
np
316.91 32.79 m
0 213.73 l
o
np
341.71 32.79 m
0 213.73 l
o
np
366.51 32.79 m
0 213.73 l
o
np
391.31 32.79 m
0 213.73 l
o
np
416.10 32.79 m
0 213.73 l
o
1.07 setlinewidth
[] 0 setdash
np
33.70 42.51 m
392.82 0 l
o
np
33.70 91.56 m
392.82 0 l
o
np
33.70 140.61 m
392.82 0 l
o
np
33.70 189.66 m
392.82 0 l
o
np
33.70 238.72 m
392.82 0 l
o
np
56.51 32.79 m
0 213.73 l
o
np
81.31 32.79 m
0 213.73 l
o
np
106.11 32.79 m
0 213.73 l
o
np
130.91 32.79 m
0 213.73 l
o
np
155.71 32.79 m
0 213.73 l
o
np
180.51 32.79 m
0 213.73 l
o
np
205.31 32.79 m
0 213.73 l
o
np
230.11 32.79 m
0 213.73 l
o
np
254.91 32.79 m
0 213.73 l
o
np
279.71 32.79 m
0 213.73 l
o
np
304.51 32.79 m
0 213.73 l
o
np
329.31 32.79 m
0 213.73 l
o
np
354.11 32.79 m
0 213.73 l
o
np
378.91 32.79 m
0 213.73 l
o
np
403.71 32.79 m
0 213.73 l
o
/bg { 0.9725 0.4627 0.4275 srgb } def
51.55 42.51 9.92 6.08 r p2
76.35 42.51 9.92 27.86 r p2
101.15 42.51 9.92 16.38 r p2
125.95 42.51 9.92 131.07 r p2
150.75 42.51 9.92 146.86 r p2
175.55 42.51 9.92 151.18 r p2
200.35 42.51 9.92 161.68 r p2
225.15 42.51 9.92 150.89 r p2
249.95 42.51 9.92 163.64 r p2
274.75 42.51 9.92 152.46 r p2
299.55 42.51 9.92 145.10 r p2
324.35 42.51 9.92 144.12 r p2
349.15 42.51 9.92 141.86 r p2
373.95 42.51 9.92 155.89 r p2
398.75 42.51 9.92 154.52 r p2
0 0 0 srgb
0.43 setlinewidth
[] 0 setdash
np
54.03 50.45 m
4.96 0 l
o
np
56.51 50.45 m
0 -3.73 l
o
np
54.03 46.72 m
4.96 0 l
o
np
78.83 93.69 m
4.96 0 l
o
np
81.31 93.69 m
0 -46.65 l
o
np
78.83 47.04 m
4.96 0 l
o
np
103.63 70.18 m
4.96 0 l
o
np
106.11 70.18 m
0 -22.58 l
o
np
103.63 47.60 m
4.96 0 l
o
np
128.43 176.89 m
4.96 0 l
o
np
130.91 176.89 m
0 -6.63 l
o
np
128.43 170.26 m
4.96 0 l
o
np
153.23 202.82 m
4.96 0 l
o
np
155.71 202.82 m
0 -26.90 l
o
np
153.23 175.92 m
4.96 0 l
o
np
178.03 216.60 m
4.96 0 l
o
np
180.51 216.60 m
0 -45.83 l
o
np
178.03 170.77 m
4.96 0 l
o
np
202.83 222.27 m
4.96 0 l
o
np
205.31 222.27 m
0 -36.18 l
o
np
202.83 186.09 m
4.96 0 l
o
np
227.63 208.17 m
4.96 0 l
o
np
230.11 208.17 m
0 -29.56 l
o
np
227.63 178.61 m
4.96 0 l
o
np
252.43 236.81 m
4.96 0 l
o
np
254.91 236.81 m
0 -61.32 l
o
np
252.43 175.49 m
4.96 0 l
o
np
277.23 209.22 m
4.96 0 l
o
np
279.71 209.22 m
0 -28.52 l
o
np
277.23 180.70 m
4.96 0 l
o
np
302.03 200.67 m
4.96 0 l
o
np
304.51 200.67 m
0 -26.14 l
o
np
302.03 174.53 m
4.96 0 l
o
np
326.83 200.46 m
4.96 0 l
o
np
329.31 200.46 m
0 -27.67 l
o
np
326.83 172.79 m
4.96 0 l
o
np
351.63 190.88 m
4.96 0 l
o
np
354.11 190.88 m
0 -13.02 l
o
np
351.63 177.86 m
4.96 0 l
o
np
376.43 227.28 m
4.96 0 l
o
np
378.91 227.28 m
0 -57.77 l
o
np
376.43 169.51 m
4.96 0 l
o
np
401.23 218.58 m
4.95 0 l
o
np
403.71 218.58 m
0 -43.12 l
o
np
401.23 175.46 m
4.95 0 l
o
0.2000 0.2000 0.2000 srgb
1.07 setlinewidth
[] 0 setdash
1 setlinecap
33.70 32.79 392.82 213.73 r p1
0.00 0.00 432.00 252.00 cl
0.00 0.00 432.00 252.00 cl
0.00 0.00 432.00 252.00 cl
0.00 0.00 432.00 252.00 cl
0.00 0.00 432.00 252.00 cl
0.00 0.00 432.00 252.00 cl
0.00 0.00 432.00 252.00 cl
0.00 0.00 432.00 252.00 cl
0.00 0.00 432.00 252.00 cl
0.00 0.00 432.00 252.00 cl
0.00 0.00 432.00 252.00 cl
0.00 0.00 432.00 252.00 cl
0.00 0.00 432.00 252.00 cl
0.00 0.00 432.00 252.00 cl
0.00 0.00 432.00 252.00 cl
0.00 0.00 432.00 252.00 cl
/Font1 findfont 9 s
0.3020 0.3020 0.3020 srgb
28.77 39.27 (0) 1 0 t
28.77 88.33 (5) 1 0 t
28.77 137.38 (10) 1 0 t
28.77 186.43 (15) 1 0 t
28.77 235.49 (20) 1 0 t
0.00 0.00 432.00 252.00 cl
0.00 0.00 432.00 252.00 cl
0.2000 0.2000 0.2000 srgb
1.07 setlinewidth
[] 0 setdash
0 setlinecap
1 setlinejoin
10.00 setmiterlimit
np
30.96 42.51 m
2.74 0 l
o
np
30.96 91.56 m
2.74 0 l
o
np
30.96 140.61 m
2.74 0 l
o
np
30.96 189.66 m
2.74 0 l
o
np
30.96 238.72 m
2.74 0 l
o
0.00 0.00 432.00 252.00 cl
0.00 0.00 432.00 252.00 cl
0.00 0.00 432.00 252.00 cl
0.00 0.00 432.00 252.00 cl
0.00 0.00 432.00 252.00 cl
0.00 0.00 432.00 252.00 cl
0.00 0.00 432.00 252.00 cl
0.00 0.00 432.00 252.00 cl
0.00 0.00 432.00 252.00 cl
0.00 0.00 432.00 252.00 cl
0.2000 0.2000 0.2000 srgb
1.07 setlinewidth
[] 0 setdash
0 setlinecap
1 setlinejoin
10.00 setmiterlimit
np
56.51 30.05 m
0 2.74 l
o
np
81.31 30.05 m
0 2.74 l
o
np
106.11 30.05 m
0 2.74 l
o
np
130.91 30.05 m
0 2.74 l
o
np
155.71 30.05 m
0 2.74 l
o
np
180.51 30.05 m
0 2.74 l
o
np
205.31 30.05 m
0 2.74 l
o
np
230.11 30.05 m
0 2.74 l
o
np
254.91 30.05 m
0 2.74 l
o
np
279.71 30.05 m
0 2.74 l
o
np
304.51 30.05 m
0 2.74 l
o
np
329.31 30.05 m
0 2.74 l
o
np
354.11 30.05 m
0 2.74 l
o
np
378.91 30.05 m
0 2.74 l
o
np
403.71 30.05 m
0 2.74 l
o
0.00 0.00 432.00 252.00 cl
0.00 0.00 432.00 252.00 cl
/Font1 findfont 9 s
0.3020 0.3020 0.3020 srgb
56.51 21.40 (0) .5 0 t
81.31 21.40 (1) .5 0 t
106.11 21.40 (2) .5 0 t
130.91 21.40 (3) .5 0 t
155.71 21.40 (4) .5 0 t
180.51 21.40 (5) .5 0 t
205.31 21.40 (6) .5 0 t
230.11 21.40 (7) .5 0 t
254.91 21.40 (8) .5 0 t
279.71 21.40 (9) .5 0 t
304.51 21.40 (10) .5 0 t
329.31 21.40 (11) .5 0 t
354.11 21.40 (12) .5 0 t
378.91 21.40 (13) .5 0 t
403.71 21.40 (14) .5 0 t
0.00 0.00 432.00 252.00 cl
0.00 0.00 432.00 252.00 cl
0.00 0.00 432.00 252.00 cl
0.00 0.00 432.00 252.00 cl
0.00 0.00 432.00 252.00 cl
0.00 0.00 432.00 252.00 cl
/Font1 findfont 11 s
0 0 0 srgb
230.11 8.12 (Number of NSs) .5 0 t
0.00 0.00 432.00 252.00 cl
0.00 0.00 432.00 252.00 cl
/Font1 findfont 11 s
0 0 0 srgb
13.38 139.66 (Mean CPU usage [%]) .5 90 t
0.00 0.00 432.00 252.00 cl
0.00 0.00 432.00 252.00 cl
0.00 0.00 432.00 252.00 cl
0.00 0.00 432.00 252.00 cl
0.00 0.00 432.00 252.00 cl
0.00 0.00 432.00 252.00 cl
0.00 0.00 432.00 252.00 cl
0.00 0.00 432.00 252.00 cl
0.00 0.00 432.00 252.00 cl
0.00 0.00 432.00 252.00 cl
0.00 0.00 432.00 252.00 cl
0.00 0.00 432.00 252.00 cl
ep
%%Trailer
%%Pages: 1
%%EOF
