%!PS-Adobe-3.0 EPSF-3.0
%%DocumentNeededResources: font Helvetica
%%+ font Helvetica-Bold
%%+ font Helvetica-Oblique
%%+ font Helvetica-BoldOblique
%%+ font Symbol
%%Title: R Graphics Output
%%Creator: R Software
%%Pages: (atend)
%%BoundingBox: 0 0 432 252
%%EndComments
%%BeginProlog
/bp  { gs sRGB gs } def
% begin .ps.prolog
/gs  { gsave } bind def
/gr  { grestore } bind def
/ep  { showpage gr gr } bind def
/m   { moveto } bind def
/l  { rlineto } bind def
/np  { newpath } bind def
/cp  { closepath } bind def
/f   { fill } bind def
/o   { stroke } bind def
/c   { newpath 0 360 arc } bind def
/r   { 4 2 roll moveto 1 copy 3 -1 roll exch 0 exch rlineto 0 rlineto -1 mul 0 exch rlineto closepath } bind def
/p1  { stroke } bind def
/p2  { gsave bg fill grestore newpath } bind def
/p3  { gsave bg fill grestore stroke } bind def
/p6  { gsave bg eofill grestore newpath } bind def
/p7  { gsave bg eofill grestore stroke } bind def
/t   { 5 -2 roll moveto gsave rotate
       1 index stringwidth pop
       mul neg 0 rmoveto show grestore } bind def
/ta  { 4 -2 roll moveto gsave rotate show } bind def
/tb  { 2 -1 roll 0 rmoveto show } bind def
/cl  { grestore gsave newpath 3 index 3 index moveto 1 index
       4 -1 roll lineto  exch 1 index lineto lineto
       closepath clip newpath } bind def
/rgb { setrgbcolor } bind def
/s   { scalefont setfont } bind def
% end   .ps.prolog
/sRGB { [ /CIEBasedABC
          << /DecodeLMN
               [ { dup 0.03928 le
                        {12.92321 div}
                        {0.055 add 1.055 div 2.4 exp }
                     ifelse
                 } bind dup dup
               ]
             /MatrixLMN [0.412457 0.212673 0.019334
                         0.357576 0.715152 0.119192
                         0.180437 0.072175 0.950301]
             /WhitePoint [0.9505 1.0 1.0890]
           >>
         ] setcolorspace } bind def
/srgb { setcolor } bind def
%%IncludeResource: font Helvetica
/Helvetica findfont
dup length dict begin
  {1 index /FID ne {def} {pop pop} ifelse} forall
  /Encoding ISOLatin1Encoding def
  currentdict
  end
/Font1 exch definefont pop
%%IncludeResource: font Helvetica-Bold
/Helvetica-Bold findfont
dup length dict begin
  {1 index /FID ne {def} {pop pop} ifelse} forall
  /Encoding ISOLatin1Encoding def
  currentdict
  end
/Font2 exch definefont pop
%%IncludeResource: font Helvetica-Oblique
/Helvetica-Oblique findfont
dup length dict begin
  {1 index /FID ne {def} {pop pop} ifelse} forall
  /Encoding ISOLatin1Encoding def
  currentdict
  end
/Font3 exch definefont pop
%%IncludeResource: font Helvetica-BoldOblique
/Helvetica-BoldOblique findfont
dup length dict begin
  {1 index /FID ne {def} {pop pop} ifelse} forall
  /Encoding ISOLatin1Encoding def
  currentdict
  end
/Font4 exch definefont pop
%%IncludeResource: font Symbol
/Symbol findfont
dup length dict begin
  {1 index /FID ne {def} {pop pop} ifelse} forall
  currentdict
  end
/Font5 exch definefont pop
%%EndProlog
%%Page: 1 1
bp
0.00 0.00 432.00 252.00 cl
0.00 0.00 432.00 252.00 cl
0.00 0.00 432.00 252.00 cl
0.00 0.00 432.00 252.00 cl
0.00 0.00 432.00 252.00 cl
0.00 0.00 432.00 252.00 cl
0.00 0.00 432.00 252.00 cl
0.00 0.00 432.00 252.00 cl
0.00 0.00 432.00 252.00 cl
0.00 0.00 432.00 252.00 cl
0.00 0.00 432.00 252.00 cl
0.00 0.00 432.00 252.00 cl
0.00 0.00 432.00 252.00 cl
0.00 0.00 432.00 252.00 cl
0.00 0.00 432.00 252.00 cl
0.00 0.00 432.00 252.00 cl
/bg { 1 1 1 srgb } def
1 1 1 srgb
1.07 setlinewidth
[] 0 setdash
1 setlinecap
1 setlinejoin
10.00 setmiterlimit
0.00 0.00 432.00 252.00 r p3
0.00 0.00 432.00 252.00 cl
38.70 32.79 335.32 246.52 cl
/bg { 1 1 1 srgb } def
38.70 32.79 296.62 213.73 r p2
0.9216 0.9216 0.9216 srgb
0.53 setlinewidth
[] 0 setdash
0 setlinecap
1 setlinejoin
10.00 setmiterlimit
np
38.70 61.99 m
296.62 0 l
o
np
38.70 100.97 m
296.62 0 l
o
np
38.70 139.94 m
296.62 0 l
o
np
38.70 178.91 m
296.62 0 l
o
np
38.70 217.89 m
296.62 0 l
o
np
69.77 32.79 m
0 213.73 l
o
np
114.86 32.79 m
0 213.73 l
o
np
159.96 32.79 m
0 213.73 l
o
np
205.05 32.79 m
0 213.73 l
o
np
250.14 32.79 m
0 213.73 l
o
np
295.23 32.79 m
0 213.73 l
o
1.07 setlinewidth
[] 0 setdash
np
38.70 42.51 m
296.62 0 l
o
np
38.70 81.48 m
296.62 0 l
o
np
38.70 120.45 m
296.62 0 l
o
np
38.70 159.43 m
296.62 0 l
o
np
38.70 198.40 m
296.62 0 l
o
np
38.70 237.37 m
296.62 0 l
o
np
47.22 32.79 m
0 213.73 l
o
np
92.32 32.79 m
0 213.73 l
o
np
137.41 32.79 m
0 213.73 l
o
np
182.50 32.79 m
0 213.73 l
o
np
227.60 32.79 m
0 213.73 l
o
np
272.69 32.79 m
0 213.73 l
o
np
317.78 32.79 m
0 213.73 l
o
/bg { 0 0.7490 0.7686 srgb } def
56.24 42.51 4.06 2.35 r p2
/bg { 0.9725 0.4627 0.4275 srgb } def
52.18 42.51 4.06 3.09 r p2
/bg { 0 0.7490 0.7686 srgb } def
65.26 42.51 4.06 2.18 r p2
/bg { 0.9725 0.4627 0.4275 srgb } def
61.20 42.51 4.06 5.35 r p2
/bg { 0 0.7490 0.7686 srgb } def
74.28 42.51 4.06 2.28 r p2
/bg { 0.9725 0.4627 0.4275 srgb } def
70.22 42.51 4.06 5.61 r p2
/bg { 0 0.7490 0.7686 srgb } def
83.30 42.51 4.06 3.46 r p2
/bg { 0.9725 0.4627 0.4275 srgb } def
79.24 42.51 4.06 7.71 r p2
/bg { 0 0.7490 0.7686 srgb } def
92.32 42.51 4.06 4.43 r p2
/bg { 0.9725 0.4627 0.4275 srgb } def
88.26 42.51 4.06 9.82 r p2
/bg { 0 0.7490 0.7686 srgb } def
101.33 42.51 4.06 4.36 r p2
/bg { 0.9725 0.4627 0.4275 srgb } def
97.28 42.51 4.06 12.16 r p2
/bg { 0 0.7490 0.7686 srgb } def
110.35 42.51 4.06 4.47 r p2
/bg { 0.9725 0.4627 0.4275 srgb } def
106.30 42.51 4.06 14.32 r p2
/bg { 0 0.7490 0.7686 srgb } def
119.37 42.51 4.06 5.36 r p2
/bg { 0.9725 0.4627 0.4275 srgb } def
115.31 42.51 4.06 16.34 r p2
/bg { 0 0.7490 0.7686 srgb } def
128.39 42.51 4.06 6.65 r p2
/bg { 0.9725 0.4627 0.4275 srgb } def
124.33 42.51 4.06 19.97 r p2
/bg { 0 0.7490 0.7686 srgb } def
137.41 42.51 4.06 6.74 r p2
/bg { 0.9725 0.4627 0.4275 srgb } def
133.35 42.51 4.06 22.82 r p2
/bg { 0 0.7490 0.7686 srgb } def
146.43 42.51 4.06 6.67 r p2
/bg { 0.9725 0.4627 0.4275 srgb } def
142.37 42.51 4.06 26.52 r p2
/bg { 0 0.7490 0.7686 srgb } def
155.45 42.51 4.06 9.01 r p2
/bg { 0.9725 0.4627 0.4275 srgb } def
151.39 42.51 4.06 30.17 r p2
/bg { 0 0.7490 0.7686 srgb } def
164.46 42.51 4.06 11.73 r p2
/bg { 0.9725 0.4627 0.4275 srgb } def
160.41 42.51 4.06 34.64 r p2
/bg { 0 0.7490 0.7686 srgb } def
173.48 42.51 4.06 13.36 r p2
/bg { 0.9725 0.4627 0.4275 srgb } def
169.43 42.51 4.06 38.14 r p2
/bg { 0 0.7490 0.7686 srgb } def
182.50 42.51 4.06 14.43 r p2
/bg { 0.9725 0.4627 0.4275 srgb } def
178.44 42.51 4.06 47.23 r p2
/bg { 0 0.7490 0.7686 srgb } def
191.52 42.51 4.06 15.47 r p2
/bg { 0.9725 0.4627 0.4275 srgb } def
187.46 42.51 4.06 50.54 r p2
/bg { 0 0.7490 0.7686 srgb } def
200.54 42.51 4.06 17.16 r p2
/bg { 0.9725 0.4627 0.4275 srgb } def
196.48 42.51 4.06 65.14 r p2
/bg { 0 0.7490 0.7686 srgb } def
209.56 42.51 4.06 19.08 r p2
/bg { 0.9725 0.4627 0.4275 srgb } def
205.50 42.51 4.06 71.02 r p2
/bg { 0 0.7490 0.7686 srgb } def
218.58 42.51 4.06 19.40 r p2
/bg { 0.9725 0.4627 0.4275 srgb } def
214.52 42.51 4.06 74.82 r p2
/bg { 0 0.7490 0.7686 srgb } def
227.60 42.51 4.06 21.17 r p2
/bg { 0.9725 0.4627 0.4275 srgb } def
223.54 42.51 4.06 77.95 r p2
/bg { 0 0.7490 0.7686 srgb } def
236.61 42.51 4.06 20.92 r p2
/bg { 0.9725 0.4627 0.4275 srgb } def
232.56 42.51 4.06 92.34 r p2
/bg { 0 0.7490 0.7686 srgb } def
245.63 42.51 4.06 22.34 r p2
/bg { 0.9725 0.4627 0.4275 srgb } def
241.57 42.51 4.06 111.43 r p2
/bg { 0 0.7490 0.7686 srgb } def
254.65 42.51 4.06 23.08 r p2
/bg { 0.9725 0.4627 0.4275 srgb } def
250.59 42.51 4.06 120.25 r p2
/bg { 0 0.7490 0.7686 srgb } def
263.67 42.51 4.06 22.89 r p2
/bg { 0.9725 0.4627 0.4275 srgb } def
259.61 42.51 4.06 124.55 r p2
/bg { 0 0.7490 0.7686 srgb } def
272.69 42.51 4.06 24.33 r p2
/bg { 0.9725 0.4627 0.4275 srgb } def
268.63 42.51 4.06 136.33 r p2
/bg { 0 0.7490 0.7686 srgb } def
281.71 42.51 4.06 24.69 r p2
/bg { 0.9725 0.4627 0.4275 srgb } def
277.65 42.51 4.06 139.98 r p2
/bg { 0 0.7490 0.7686 srgb } def
290.73 42.51 4.06 26.22 r p2
/bg { 0.9725 0.4627 0.4275 srgb } def
286.67 42.51 4.06 155.91 r p2
/bg { 0 0.7490 0.7686 srgb } def
299.74 42.51 4.06 29.74 r p2
/bg { 0.9725 0.4627 0.4275 srgb } def
295.69 42.51 4.06 165.77 r p2
/bg { 0 0.7490 0.7686 srgb } def
308.76 42.51 4.06 34.25 r p2
/bg { 0.9725 0.4627 0.4275 srgb } def
304.70 42.51 4.06 169.24 r p2
/bg { 0 0.7490 0.7686 srgb } def
317.78 42.51 4.06 28.68 r p2
/bg { 0.9725 0.4627 0.4275 srgb } def
313.72 42.51 4.06 165.58 r p2
0 0 0 srgb
0.43 setlinewidth
[] 0 setdash
np
57.26 44.99 m
2.03 0 l
o
np
58.27 44.99 m
0 -0.27 l
o
np
57.26 44.72 m
2.03 0 l
o
np
53.20 45.79 m
2.03 0 l
o
np
54.21 45.79 m
0 -0.40 l
o
np
53.20 45.39 m
2.03 0 l
o
np
66.28 44.70 m
2.02 0 l
o
np
67.29 44.70 m
0 -0.03 l
o
np
66.28 44.67 m
2.02 0 l
o
np
62.22 48.01 m
2.03 0 l
o
np
63.23 48.01 m
0 -0.31 l
o
np
62.22 47.70 m
2.03 0 l
o
np
75.29 44.80 m
2.03 0 l
o
np
76.31 44.80 m
0 -0.03 l
o
np
75.29 44.77 m
2.03 0 l
o
np
71.24 48.61 m
2.02 0 l
o
np
72.25 48.61 m
0 -0.99 l
o
np
71.24 47.62 m
2.02 0 l
o
np
84.31 46.81 m
2.03 0 l
o
np
85.33 46.81 m
0 -1.68 l
o
np
84.31 45.13 m
2.03 0 l
o
np
80.25 50.50 m
2.03 0 l
o
np
81.27 50.50 m
0 -0.56 l
o
np
80.25 49.94 m
2.03 0 l
o
np
93.33 47.07 m
2.03 0 l
o
np
94.35 47.07 m
0 -0.27 l
o
np
93.33 46.80 m
2.03 0 l
o
np
89.27 52.49 m
2.03 0 l
o
np
90.29 52.49 m
0 -0.32 l
o
np
89.27 52.17 m
2.03 0 l
o
np
102.35 46.90 m
2.03 0 l
o
np
103.36 46.90 m
0 -0.07 l
o
np
102.35 46.83 m
2.03 0 l
o
np
98.29 55.17 m
2.03 0 l
o
np
99.31 55.17 m
0 -1.01 l
o
np
98.29 54.16 m
2.03 0 l
o
np
111.37 47.00 m
2.03 0 l
o
np
112.38 47.00 m
0 -0.06 l
o
np
111.37 46.94 m
2.03 0 l
o
np
107.31 57.02 m
2.03 0 l
o
np
108.32 57.02 m
0 -0.40 l
o
np
107.31 56.62 m
2.03 0 l
o
np
120.39 48.56 m
2.03 0 l
o
np
121.40 48.56 m
0 -1.39 l
o
np
120.39 47.17 m
2.03 0 l
o
np
116.33 59.08 m
2.03 0 l
o
np
117.34 59.08 m
0 -0.47 l
o
np
116.33 58.61 m
2.03 0 l
o
np
129.41 49.19 m
2.02 0 l
o
np
130.42 49.19 m
0 -0.07 l
o
np
129.41 49.12 m
2.02 0 l
o
np
125.35 63.14 m
2.03 0 l
o
np
126.36 63.14 m
0 -1.33 l
o
np
125.35 61.81 m
2.03 0 l
o
np
138.42 49.37 m
2.03 0 l
o
np
139.44 49.37 m
0 -0.24 l
o
np
138.42 49.13 m
2.03 0 l
o
np
134.37 65.55 m
2.02 0 l
o
np
135.38 65.55 m
0 -0.45 l
o
np
134.37 65.10 m
2.02 0 l
o
np
147.44 49.62 m
2.03 0 l
o
np
148.46 49.62 m
0 -0.89 l
o
np
147.44 48.73 m
2.03 0 l
o
np
143.38 69.63 m
2.03 0 l
o
np
144.40 69.63 m
0 -1.21 l
o
np
143.38 68.42 m
2.03 0 l
o
np
156.46 52.81 m
2.03 0 l
o
np
157.48 52.81 m
0 -2.58 l
o
np
156.46 50.23 m
2.03 0 l
o
np
152.40 73.45 m
2.03 0 l
o
np
153.42 73.45 m
0 -1.54 l
o
np
152.40 71.91 m
2.03 0 l
o
np
165.48 54.99 m
2.03 0 l
o
np
166.49 54.99 m
0 -1.51 l
o
np
165.48 53.48 m
2.03 0 l
o
np
161.42 77.90 m
2.03 0 l
o
np
162.44 77.90 m
0 -1.50 l
o
np
161.42 76.40 m
2.03 0 l
o
np
174.50 56.43 m
2.03 0 l
o
np
175.51 56.43 m
0 -1.12 l
o
np
174.50 55.31 m
2.03 0 l
o
np
170.44 81.55 m
2.03 0 l
o
np
171.45 81.55 m
0 -1.81 l
o
np
170.44 79.74 m
2.03 0 l
o
np
183.52 57.56 m
2.03 0 l
o
np
184.53 57.56 m
0 -1.25 l
o
np
183.52 56.31 m
2.03 0 l
o
np
179.46 92.62 m
2.03 0 l
o
np
180.47 92.62 m
0 -5.76 l
o
np
179.46 86.86 m
2.03 0 l
o
np
192.54 58.64 m
2.02 0 l
o
np
193.55 58.64 m
0 -1.33 l
o
np
192.54 57.31 m
2.02 0 l
o
np
188.48 94.59 m
2.03 0 l
o
np
189.49 94.59 m
0 -3.10 l
o
np
188.48 91.49 m
2.03 0 l
o
np
201.55 60.50 m
2.03 0 l
o
np
202.57 60.50 m
0 -1.66 l
o
np
201.55 58.84 m
2.03 0 l
o
np
197.50 111.12 m
2.02 0 l
o
np
198.51 111.12 m
0 -6.94 l
o
np
197.50 104.18 m
2.02 0 l
o
np
210.57 62.10 m
2.03 0 l
o
np
211.59 62.10 m
0 -1.02 l
o
np
210.57 61.08 m
2.03 0 l
o
np
206.51 114.95 m
2.03 0 l
o
np
207.53 114.95 m
0 -2.86 l
o
np
206.51 112.09 m
2.03 0 l
o
np
219.59 62.82 m
2.03 0 l
o
np
220.61 62.82 m
0 -1.84 l
o
np
219.59 60.98 m
2.03 0 l
o
np
215.53 120.50 m
2.03 0 l
o
np
216.55 120.50 m
0 -6.35 l
o
np
215.53 114.15 m
2.03 0 l
o
np
228.61 64.48 m
2.03 0 l
o
np
229.62 64.48 m
0 -1.61 l
o
np
228.61 62.87 m
2.03 0 l
o
np
224.55 123.40 m
2.03 0 l
o
np
225.57 123.40 m
0 -5.88 l
o
np
224.55 117.52 m
2.03 0 l
o
np
237.63 63.82 m
2.03 0 l
o
np
238.64 63.82 m
0 -0.79 l
o
np
237.63 63.03 m
2.03 0 l
o
np
233.57 139.16 m
2.03 0 l
o
np
234.58 139.16 m
0 -8.64 l
o
np
233.57 130.52 m
2.03 0 l
o
np
246.65 65.50 m
2.03 0 l
o
np
247.66 65.50 m
0 -1.30 l
o
np
246.65 64.20 m
2.03 0 l
o
np
242.59 162.19 m
2.03 0 l
o
np
243.60 162.19 m
0 -16.51 l
o
np
242.59 145.68 m
2.03 0 l
o
np
255.67 66.73 m
2.02 0 l
o
np
256.68 66.73 m
0 -2.28 l
o
np
255.67 64.45 m
2.02 0 l
o
np
251.61 164.36 m
2.03 0 l
o
np
252.62 164.36 m
0 -3.22 l
o
np
251.61 161.14 m
2.03 0 l
o
np
264.68 66.44 m
2.03 0 l
o
np
265.70 66.44 m
0 -2.08 l
o
np
264.68 64.36 m
2.03 0 l
o
np
260.63 169.75 m
2.02 0 l
o
np
261.64 169.75 m
0 -5.40 l
o
np
260.63 164.35 m
2.02 0 l
o
np
273.70 68.34 m
2.03 0 l
o
np
274.72 68.34 m
0 -3.02 l
o
np
273.70 65.32 m
2.03 0 l
o
np
269.64 186.36 m
2.03 0 l
o
np
270.66 186.36 m
0 -15.04 l
o
np
269.64 171.32 m
2.03 0 l
o
np
282.72 67.90 m
2.03 0 l
o
np
283.74 67.90 m
0 -1.41 l
o
np
282.72 66.49 m
2.03 0 l
o
np
278.66 194.24 m
2.03 0 l
o
np
279.68 194.24 m
0 -23.51 l
o
np
278.66 170.73 m
2.03 0 l
o
np
291.74 70.65 m
2.03 0 l
o
np
292.75 70.65 m
0 -3.86 l
o
np
291.74 66.79 m
2.03 0 l
o
np
287.68 210.38 m
2.03 0 l
o
np
288.70 210.38 m
0 -23.93 l
o
np
287.68 186.45 m
2.03 0 l
o
np
300.76 77.11 m
2.03 0 l
o
np
301.77 77.11 m
0 -9.73 l
o
np
300.76 67.38 m
2.03 0 l
o
np
296.70 221.97 m
2.03 0 l
o
np
297.71 221.97 m
0 -27.38 l
o
np
296.70 194.59 m
2.03 0 l
o
np
309.78 89.54 m
2.03 0 l
o
np
310.79 89.54 m
0 -25.57 l
o
np
309.78 63.97 m
2.03 0 l
o
np
305.72 228.45 m
2.03 0 l
o
np
306.73 228.45 m
0 -33.42 l
o
np
305.72 195.03 m
2.03 0 l
o
np
318.80 75.53 m
2.02 0 l
o
np
319.81 75.53 m
0 -8.68 l
o
np
318.80 66.85 m
2.02 0 l
o
np
314.74 236.81 m
2.03 0 l
o
np
315.75 236.81 m
0 -57.45 l
o
np
314.74 179.36 m
2.03 0 l
o
0.2000 0.2000 0.2000 srgb
1.07 setlinewidth
[] 0 setdash
1 setlinecap
38.70 32.79 296.62 213.73 r p1
0.00 0.00 432.00 252.00 cl
0.00 0.00 432.00 252.00 cl
0.00 0.00 432.00 252.00 cl
0.00 0.00 432.00 252.00 cl
0.00 0.00 432.00 252.00 cl
0.00 0.00 432.00 252.00 cl
0.00 0.00 432.00 252.00 cl
0.00 0.00 432.00 252.00 cl
0.00 0.00 432.00 252.00 cl
0.00 0.00 432.00 252.00 cl
0.00 0.00 432.00 252.00 cl
0.00 0.00 432.00 252.00 cl
0.00 0.00 432.00 252.00 cl
0.00 0.00 432.00 252.00 cl
0.00 0.00 432.00 252.00 cl
0.00 0.00 432.00 252.00 cl
/Font1 findfont 9 s
0.3020 0.3020 0.3020 srgb
33.77 39.27 (0) 1 0 t
33.77 78.25 (100) 1 0 t
33.77 117.22 (200) 1 0 t
33.77 156.20 (300) 1 0 t
33.77 195.17 (400) 1 0 t
33.77 234.14 (500) 1 0 t
0.00 0.00 432.00 252.00 cl
0.00 0.00 432.00 252.00 cl
0.2000 0.2000 0.2000 srgb
1.07 setlinewidth
[] 0 setdash
0 setlinecap
1 setlinejoin
10.00 setmiterlimit
np
35.96 42.51 m
2.74 0 l
o
np
35.96 81.48 m
2.74 0 l
o
np
35.96 120.45 m
2.74 0 l
o
np
35.96 159.43 m
2.74 0 l
o
np
35.96 198.40 m
2.74 0 l
o
np
35.96 237.37 m
2.74 0 l
o
0.00 0.00 432.00 252.00 cl
0.00 0.00 432.00 252.00 cl
0.00 0.00 432.00 252.00 cl
0.00 0.00 432.00 252.00 cl
0.00 0.00 432.00 252.00 cl
0.00 0.00 432.00 252.00 cl
0.00 0.00 432.00 252.00 cl
0.00 0.00 432.00 252.00 cl
0.00 0.00 432.00 252.00 cl
0.00 0.00 432.00 252.00 cl
0.2000 0.2000 0.2000 srgb
1.07 setlinewidth
[] 0 setdash
0 setlinecap
1 setlinejoin
10.00 setmiterlimit
np
47.22 30.05 m
0 2.74 l
o
np
92.32 30.05 m
0 2.74 l
o
np
137.41 30.05 m
0 2.74 l
o
np
182.50 30.05 m
0 2.74 l
o
np
227.60 30.05 m
0 2.74 l
o
np
272.69 30.05 m
0 2.74 l
o
np
317.78 30.05 m
0 2.74 l
o
0.00 0.00 432.00 252.00 cl
0.00 0.00 432.00 252.00 cl
/Font1 findfont 9 s
0.3020 0.3020 0.3020 srgb
47.22 21.40 (0) .5 0 t
92.32 21.40 (5) .5 0 t
137.41 21.40 (10) .5 0 t
182.50 21.40 (15) .5 0 t
227.60 21.40 (20) .5 0 t
272.69 21.40 (25) .5 0 t
317.78 21.40 (30) .5 0 t
0.00 0.00 432.00 252.00 cl
0.00 0.00 432.00 252.00 cl
0.00 0.00 432.00 252.00 cl
0.00 0.00 432.00 252.00 cl
0.00 0.00 432.00 252.00 cl
0.00 0.00 432.00 252.00 cl
/Font1 findfont 11 s
0 0 0 srgb
102.34 8.12 (Number of par) 0 ta
-0.110 (allelly deplo) tb
-0.330 (y) tb
-0.220 (ed NSs) tb gr
0.00 0.00 432.00 252.00 cl
0.00 0.00 432.00 252.00 cl
/Font1 findfont 11 s
0 0 0 srgb
13.38 97.16 (Mean dur) 90 ta
-0.110 (ation [s]) tb gr
0.00 0.00 432.00 252.00 cl
0.00 0.00 432.00 252.00 cl
0.00 0.00 432.00 252.00 cl
0.00 0.00 432.00 252.00 cl
0.00 0.00 432.00 252.00 cl
0.00 0.00 432.00 252.00 cl
0.00 0.00 432.00 252.00 cl
0.00 0.00 432.00 252.00 cl
/bg { 1 1 1 srgb } def
346.28 108.89 80.24 61.54 r p2
0.00 0.00 432.00 252.00 cl
0.00 0.00 432.00 252.00 cl
0.00 0.00 432.00 252.00 cl
0.00 0.00 432.00 252.00 cl
0.00 0.00 432.00 252.00 cl
0.00 0.00 432.00 252.00 cl
0.00 0.00 432.00 252.00 cl
/bg { 1 1 1 srgb } def
351.76 131.65 17.28 17.28 r p2
0.00 0.00 432.00 252.00 cl
0.00 0.00 432.00 252.00 cl
/bg { 0.9725 0.4627 0.4275 srgb } def
352.47 132.36 15.86 15.86 r p2
0.00 0.00 432.00 252.00 cl
0.00 0.00 432.00 252.00 cl
/bg { 1 1 1 srgb } def
351.76 114.37 17.28 17.28 r p2
0.00 0.00 432.00 252.00 cl
0.00 0.00 432.00 252.00 cl
/bg { 0 0.7490 0.7686 srgb } def
352.47 115.08 15.86 15.86 r p2
0.00 0.00 432.00 252.00 cl
0.00 0.00 432.00 252.00 cl
0.00 0.00 432.00 252.00 cl
0.00 0.00 432.00 252.00 cl
/Font1 findfont 9 s
0 0 0 srgb
374.52 137.06 (NS deplo) 0 ta
-0.270 (y) tb gr
0.00 0.00 432.00 252.00 cl
0.00 0.00 432.00 252.00 cl
0.00 0.00 432.00 252.00 cl
0.00 0.00 432.00 252.00 cl
0.00 0.00 432.00 252.00 cl
/Font1 findfont 9 s
0 0 0 srgb
374.52 119.78 (NS deletion) 0 0 t
0.00 0.00 432.00 252.00 cl
0.00 0.00 432.00 252.00 cl
0.00 0.00 432.00 252.00 cl
0.00 0.00 432.00 252.00 cl
0.00 0.00 432.00 252.00 cl
0.00 0.00 432.00 252.00 cl
0.00 0.00 432.00 252.00 cl
0.00 0.00 432.00 252.00 cl
0.00 0.00 432.00 252.00 cl
0.00 0.00 432.00 252.00 cl
0.00 0.00 432.00 252.00 cl
0.00 0.00 432.00 252.00 cl
0.00 0.00 432.00 252.00 cl
ep
%%Trailer
%%Pages: 1
%%EOF
