%!PS-Adobe-3.0 EPSF-3.0
%%DocumentNeededResources: font Helvetica
%%+ font Helvetica-Bold
%%+ font Helvetica-Oblique
%%+ font Helvetica-BoldOblique
%%+ font Symbol
%%Title: R Graphics Output
%%Creator: R Software
%%Pages: (atend)
%%BoundingBox: 0 0 432 252
%%EndComments
%%BeginProlog
/bp  { gs sRGB gs } def
% begin .ps.prolog
/gs  { gsave } bind def
/gr  { grestore } bind def
/ep  { showpage gr gr } bind def
/m   { moveto } bind def
/l  { rlineto } bind def
/np  { newpath } bind def
/cp  { closepath } bind def
/f   { fill } bind def
/o   { stroke } bind def
/c   { newpath 0 360 arc } bind def
/r   { 4 2 roll moveto 1 copy 3 -1 roll exch 0 exch rlineto 0 rlineto -1 mul 0 exch rlineto closepath } bind def
/p1  { stroke } bind def
/p2  { gsave bg fill grestore newpath } bind def
/p3  { gsave bg fill grestore stroke } bind def
/p6  { gsave bg eofill grestore newpath } bind def
/p7  { gsave bg eofill grestore stroke } bind def
/t   { 5 -2 roll moveto gsave rotate
       1 index stringwidth pop
       mul neg 0 rmoveto show grestore } bind def
/ta  { 4 -2 roll moveto gsave rotate show } bind def
/tb  { 2 -1 roll 0 rmoveto show } bind def
/cl  { grestore gsave newpath 3 index 3 index moveto 1 index
       4 -1 roll lineto  exch 1 index lineto lineto
       closepath clip newpath } bind def
/rgb { setrgbcolor } bind def
/s   { scalefont setfont } bind def
% end   .ps.prolog
/sRGB { [ /CIEBasedABC
          << /DecodeLMN
               [ { dup 0.03928 le
                        {12.92321 div}
                        {0.055 add 1.055 div 2.4 exp }
                     ifelse
                 } bind dup dup
               ]
             /MatrixLMN [0.412457 0.212673 0.019334
                         0.357576 0.715152 0.119192
                         0.180437 0.072175 0.950301]
             /WhitePoint [0.9505 1.0 1.0890]
           >>
         ] setcolorspace } bind def
/srgb { setcolor } bind def
%%IncludeResource: font Helvetica
/Helvetica findfont
dup length dict begin
  {1 index /FID ne {def} {pop pop} ifelse} forall
  /Encoding ISOLatin1Encoding def
  currentdict
  end
/Font1 exch definefont pop
%%IncludeResource: font Helvetica-Bold
/Helvetica-Bold findfont
dup length dict begin
  {1 index /FID ne {def} {pop pop} ifelse} forall
  /Encoding ISOLatin1Encoding def
  currentdict
  end
/Font2 exch definefont pop
%%IncludeResource: font Helvetica-Oblique
/Helvetica-Oblique findfont
dup length dict begin
  {1 index /FID ne {def} {pop pop} ifelse} forall
  /Encoding ISOLatin1Encoding def
  currentdict
  end
/Font3 exch definefont pop
%%IncludeResource: font Helvetica-BoldOblique
/Helvetica-BoldOblique findfont
dup length dict begin
  {1 index /FID ne {def} {pop pop} ifelse} forall
  /Encoding ISOLatin1Encoding def
  currentdict
  end
/Font4 exch definefont pop
%%IncludeResource: font Symbol
/Symbol findfont
dup length dict begin
  {1 index /FID ne {def} {pop pop} ifelse} forall
  currentdict
  end
/Font5 exch definefont pop
%%EndProlog
%%Page: 1 1
bp
0.00 0.00 432.00 252.00 cl
0.00 0.00 432.00 252.00 cl
0.00 0.00 432.00 252.00 cl
0.00 0.00 432.00 252.00 cl
0.00 0.00 432.00 252.00 cl
0.00 0.00 432.00 252.00 cl
0.00 0.00 432.00 252.00 cl
0.00 0.00 432.00 252.00 cl
0.00 0.00 432.00 252.00 cl
0.00 0.00 432.00 252.00 cl
0.00 0.00 432.00 252.00 cl
0.00 0.00 432.00 252.00 cl
0.00 0.00 432.00 252.00 cl
0.00 0.00 432.00 252.00 cl
0.00 0.00 432.00 252.00 cl
0.00 0.00 432.00 252.00 cl
/bg { 1 1 1 srgb } def
1 1 1 srgb
1.07 setlinewidth
[] 0 setdash
1 setlinecap
1 setlinejoin
10.00 setmiterlimit
0.00 0.00 432.00 252.00 r p3
0.00 0.00 432.00 252.00 cl
33.70 32.79 351.34 246.52 cl
/bg { 1 1 1 srgb } def
33.70 32.79 317.65 213.73 r p2
0.9216 0.9216 0.9216 srgb
0.53 setlinewidth
[] 0 setdash
0 setlinecap
1 setlinejoin
10.00 setmiterlimit
np
33.70 69.60 m
317.64 0 l
o
np
33.70 123.79 m
317.64 0 l
o
np
33.70 177.98 m
317.64 0 l
o
np
33.70 232.17 m
317.64 0 l
o
np
37.48 32.79 m
0 213.73 l
o
np
47.17 32.79 m
0 213.73 l
o
np
66.55 32.79 m
0 213.73 l
o
np
85.93 32.79 m
0 213.73 l
o
np
105.31 32.79 m
0 213.73 l
o
np
124.69 32.79 m
0 213.73 l
o
np
144.07 32.79 m
0 213.73 l
o
np
163.45 32.79 m
0 213.73 l
o
np
182.83 32.79 m
0 213.73 l
o
np
202.21 32.79 m
0 213.73 l
o
np
221.59 32.79 m
0 213.73 l
o
np
240.97 32.79 m
0 213.73 l
o
np
260.35 32.79 m
0 213.73 l
o
np
279.73 32.79 m
0 213.73 l
o
np
299.11 32.79 m
0 213.73 l
o
np
318.49 32.79 m
0 213.73 l
o
np
337.87 32.79 m
0 213.73 l
o
np
347.56 32.79 m
0 213.73 l
o
1.07 setlinewidth
[] 0 setdash
np
33.70 42.51 m
317.64 0 l
o
np
33.70 96.69 m
317.64 0 l
o
np
33.70 150.88 m
317.64 0 l
o
np
33.70 205.07 m
317.64 0 l
o
np
56.86 32.79 m
0 213.73 l
o
np
76.24 32.79 m
0 213.73 l
o
np
95.62 32.79 m
0 213.73 l
o
np
115.00 32.79 m
0 213.73 l
o
np
134.38 32.79 m
0 213.73 l
o
np
153.76 32.79 m
0 213.73 l
o
np
173.14 32.79 m
0 213.73 l
o
np
192.52 32.79 m
0 213.73 l
o
np
211.90 32.79 m
0 213.73 l
o
np
231.28 32.79 m
0 213.73 l
o
np
250.66 32.79 m
0 213.73 l
o
np
270.04 32.79 m
0 213.73 l
o
np
289.42 32.79 m
0 213.73 l
o
np
308.80 32.79 m
0 213.73 l
o
np
328.18 32.79 m
0 213.73 l
o
/bg { 0 0.7490 0.7686 srgb } def
56.86 42.51 8.72 99.53 r p2
/bg { 0.9725 0.4627 0.4275 srgb } def
48.14 42.51 8.72 100.61 r p2
/bg { 0 0.7490 0.7686 srgb } def
76.24 42.51 8.72 99.71 r p2
/bg { 0.9725 0.4627 0.4275 srgb } def
67.52 42.51 8.72 85.44 r p2
/bg { 0 0.7490 0.7686 srgb } def
95.62 42.51 8.72 98.62 r p2
/bg { 0.9725 0.4627 0.4275 srgb } def
86.90 42.51 8.72 99.89 r p2
/bg { 0 0.7490 0.7686 srgb } def
115.00 42.51 8.72 99.35 r p2
/bg { 0.9725 0.4627 0.4275 srgb } def
106.28 42.51 8.72 121.02 r p2
/bg { 0 0.7490 0.7686 srgb } def
134.38 42.51 8.72 98.99 r p2
/bg { 0.9725 0.4627 0.4275 srgb } def
125.66 42.51 8.72 133.12 r p2
/bg { 0 0.7490 0.7686 srgb } def
153.76 42.51 8.72 99.89 r p2
/bg { 0.9725 0.4627 0.4275 srgb } def
145.04 42.51 8.72 137.82 r p2
/bg { 0 0.7490 0.7686 srgb } def
173.14 42.51 8.72 100.79 r p2
/bg { 0.9725 0.4627 0.4275 srgb } def
164.42 42.51 8.72 127.89 r p2
/bg { 0 0.7490 0.7686 srgb } def
192.52 42.51 8.72 106.03 r p2
/bg { 0.9725 0.4627 0.4275 srgb } def
183.80 42.51 8.72 119.58 r p2
/bg { 0 0.7490 0.7686 srgb } def
211.90 42.51 8.72 99.71 r p2
/bg { 0.9725 0.4627 0.4275 srgb } def
203.18 42.51 8.72 117.05 r p2
/bg { 0 0.7490 0.7686 srgb } def
231.28 42.51 8.72 103.86 r p2
/bg { 0.9725 0.4627 0.4275 srgb } def
222.56 42.51 8.72 138.36 r p2
/bg { 0 0.7490 0.7686 srgb } def
250.66 42.51 8.72 100.61 r p2
/bg { 0.9725 0.4627 0.4275 srgb } def
241.94 42.51 8.72 157.15 r p2
/bg { 0 0.7490 0.7686 srgb } def
270.04 42.51 8.72 98.08 r p2
/bg { 0.9725 0.4627 0.4275 srgb } def
261.32 42.51 8.72 148.30 r p2
/bg { 0 0.7490 0.7686 srgb } def
289.42 42.51 8.72 97.90 r p2
/bg { 0.9725 0.4627 0.4275 srgb } def
280.70 42.51 8.72 156.06 r p2
/bg { 0 0.7490 0.7686 srgb } def
308.80 42.51 8.72 97.00 r p2
/bg { 0.9725 0.4627 0.4275 srgb } def
300.08 42.51 8.72 169.25 r p2
/bg { 0 0.7490 0.7686 srgb } def
328.18 42.51 8.72 101.88 r p2
/bg { 0.9725 0.4627 0.4275 srgb } def
319.46 42.51 8.72 190.02 r p2
0 0 0 srgb
0.43 setlinewidth
[] 0 setdash
np
59.04 145.06 m
4.36 0 l
o
np
61.22 145.06 m
0 -6.05 l
o
np
59.04 139.01 m
4.36 0 l
o
np
50.32 145.51 m
4.36 0 l
o
np
52.50 145.51 m
0 -4.79 l
o
np
50.32 140.72 m
4.36 0 l
o
np
78.42 145.33 m
4.36 0 l
o
np
80.60 145.33 m
0 -6.23 l
o
np
78.42 139.10 m
4.36 0 l
o
np
69.70 129.32 m
4.36 0 l
o
np
71.88 129.32 m
0 -2.75 l
o
np
69.70 126.57 m
4.36 0 l
o
np
97.80 144.28 m
4.36 0 l
o
np
99.98 144.28 m
0 -6.30 l
o
np
97.80 137.98 m
4.36 0 l
o
np
89.08 144.51 m
4.36 0 l
o
np
91.26 144.51 m
0 -4.23 l
o
np
89.08 140.28 m
4.36 0 l
o
np
117.18 144.94 m
4.36 0 l
o
np
119.36 144.94 m
0 -6.18 l
o
np
117.18 138.76 m
4.36 0 l
o
np
108.46 165.98 m
4.36 0 l
o
np
110.64 165.98 m
0 -4.90 l
o
np
108.46 161.08 m
4.36 0 l
o
np
136.56 143.27 m
4.36 0 l
o
np
138.74 143.27 m
0 -3.56 l
o
np
136.56 139.71 m
4.36 0 l
o
np
127.84 177.32 m
4.36 0 l
o
np
130.02 177.32 m
0 -3.38 l
o
np
127.84 173.94 m
4.36 0 l
o
np
155.94 145.49 m
4.36 0 l
o
np
158.12 145.49 m
0 -6.19 l
o
np
155.94 139.30 m
4.36 0 l
o
np
147.22 182.28 m
4.36 0 l
o
np
149.40 182.28 m
0 -3.91 l
o
np
147.22 178.37 m
4.36 0 l
o
np
175.32 148.56 m
4.36 0 l
o
np
177.50 148.56 m
0 -10.53 l
o
np
175.32 138.03 m
4.36 0 l
o
np
166.60 174.76 m
4.36 0 l
o
np
168.78 174.76 m
0 -8.73 l
o
np
166.60 166.03 m
4.36 0 l
o
np
194.70 161.35 m
4.36 0 l
o
np
196.88 161.35 m
0 -25.63 l
o
np
194.70 135.72 m
4.36 0 l
o
np
185.98 166.01 m
4.36 0 l
o
np
188.16 166.01 m
0 -7.85 l
o
np
185.98 158.16 m
4.36 0 l
o
np
214.08 147.32 m
4.36 0 l
o
np
216.26 147.32 m
0 -10.22 l
o
np
214.08 137.10 m
4.36 0 l
o
np
205.36 161.27 m
4.36 0 l
o
np
207.54 161.27 m
0 -3.44 l
o
np
205.36 157.83 m
4.36 0 l
o
np
233.46 152.25 m
4.36 0 l
o
np
235.64 152.25 m
0 -11.77 l
o
np
233.46 140.48 m
4.36 0 l
o
np
224.74 185.49 m
4.36 0 l
o
np
226.92 185.49 m
0 -9.24 l
o
np
224.74 176.25 m
4.36 0 l
o
np
252.84 147.65 m
4.36 0 l
o
np
255.02 147.65 m
0 -9.07 l
o
np
252.84 138.58 m
4.36 0 l
o
np
244.12 216.84 m
4.36 0 l
o
np
246.30 216.84 m
0 -34.37 l
o
np
244.12 182.47 m
4.36 0 l
o
np
272.22 144.72 m
4.36 0 l
o
np
274.40 144.72 m
0 -8.27 l
o
np
272.22 136.45 m
4.36 0 l
o
np
263.50 195.53 m
4.36 0 l
o
np
265.68 195.53 m
0 -9.45 l
o
np
263.50 186.08 m
4.36 0 l
o
np
291.60 142.59 m
4.36 0 l
o
np
293.78 142.59 m
0 -4.37 l
o
np
291.60 138.22 m
4.36 0 l
o
np
282.88 202.92 m
4.36 0 l
o
np
285.06 202.92 m
0 -8.70 l
o
np
282.88 194.22 m
4.36 0 l
o
np
310.98 142.77 m
4.36 0 l
o
np
313.16 142.77 m
0 -6.53 l
o
np
310.98 136.24 m
4.36 0 l
o
np
302.26 216.76 m
4.36 0 l
o
np
304.44 216.76 m
0 -10.01 l
o
np
302.26 206.75 m
4.36 0 l
o
np
330.36 157.09 m
4.36 0 l
o
np
332.54 157.09 m
0 -25.41 l
o
np
330.36 131.68 m
4.36 0 l
o
np
321.64 236.81 m
4.36 0 l
o
np
323.82 236.81 m
0 -8.56 l
o
np
321.64 228.25 m
4.36 0 l
o
0.2000 0.2000 0.2000 srgb
1.07 setlinewidth
[] 0 setdash
1 setlinecap
33.70 32.79 317.65 213.73 r p1
0.00 0.00 432.00 252.00 cl
0.00 0.00 432.00 252.00 cl
0.00 0.00 432.00 252.00 cl
0.00 0.00 432.00 252.00 cl
0.00 0.00 432.00 252.00 cl
0.00 0.00 432.00 252.00 cl
0.00 0.00 432.00 252.00 cl
0.00 0.00 432.00 252.00 cl
0.00 0.00 432.00 252.00 cl
0.00 0.00 432.00 252.00 cl
0.00 0.00 432.00 252.00 cl
0.00 0.00 432.00 252.00 cl
0.00 0.00 432.00 252.00 cl
0.00 0.00 432.00 252.00 cl
0.00 0.00 432.00 252.00 cl
0.00 0.00 432.00 252.00 cl
/Font1 findfont 9 s
0.3020 0.3020 0.3020 srgb
28.77 39.27 (0) 1 0 t
28.77 93.46 (20) 1 0 t
28.77 147.65 (40) 1 0 t
28.77 201.84 (60) 1 0 t
0.00 0.00 432.00 252.00 cl
0.00 0.00 432.00 252.00 cl
0.2000 0.2000 0.2000 srgb
1.07 setlinewidth
[] 0 setdash
0 setlinecap
1 setlinejoin
10.00 setmiterlimit
np
30.96 42.51 m
2.74 0 l
o
np
30.96 96.69 m
2.74 0 l
o
np
30.96 150.88 m
2.74 0 l
o
np
30.96 205.07 m
2.74 0 l
o
0.00 0.00 432.00 252.00 cl
0.00 0.00 432.00 252.00 cl
0.00 0.00 432.00 252.00 cl
0.00 0.00 432.00 252.00 cl
0.00 0.00 432.00 252.00 cl
0.00 0.00 432.00 252.00 cl
0.00 0.00 432.00 252.00 cl
0.00 0.00 432.00 252.00 cl
0.00 0.00 432.00 252.00 cl
0.00 0.00 432.00 252.00 cl
0.2000 0.2000 0.2000 srgb
1.07 setlinewidth
[] 0 setdash
0 setlinecap
1 setlinejoin
10.00 setmiterlimit
np
56.86 30.05 m
0 2.74 l
o
np
76.24 30.05 m
0 2.74 l
o
np
95.62 30.05 m
0 2.74 l
o
np
115.00 30.05 m
0 2.74 l
o
np
134.38 30.05 m
0 2.74 l
o
np
153.76 30.05 m
0 2.74 l
o
np
173.14 30.05 m
0 2.74 l
o
np
192.52 30.05 m
0 2.74 l
o
np
211.90 30.05 m
0 2.74 l
o
np
231.28 30.05 m
0 2.74 l
o
np
250.66 30.05 m
0 2.74 l
o
np
270.04 30.05 m
0 2.74 l
o
np
289.42 30.05 m
0 2.74 l
o
np
308.80 30.05 m
0 2.74 l
o
np
328.18 30.05 m
0 2.74 l
o
0.00 0.00 432.00 252.00 cl
0.00 0.00 432.00 252.00 cl
/Font1 findfont 9 s
0.3020 0.3020 0.3020 srgb
56.86 21.40 (1) .5 0 t
76.24 21.40 (2) .5 0 t
95.62 21.40 (3) .5 0 t
115.00 21.40 (4) .5 0 t
134.38 21.40 (5) .5 0 t
153.76 21.40 (6) .5 0 t
173.14 21.40 (7) .5 0 t
192.52 21.40 (8) .5 0 t
211.90 21.40 (9) .5 0 t
231.28 21.40 (10) .5 0 t
250.66 21.40 (11) .5 0 t
270.04 21.40 (12) .5 0 t
289.42 21.40 (13) .5 0 t
308.80 21.40 (14) .5 0 t
328.18 21.40 (15) .5 0 t
0.00 0.00 432.00 252.00 cl
0.00 0.00 432.00 252.00 cl
0.00 0.00 432.00 252.00 cl
0.00 0.00 432.00 252.00 cl
0.00 0.00 432.00 252.00 cl
0.00 0.00 432.00 252.00 cl
/Font1 findfont 11 s
0 0 0 srgb
103.88 8.12 (Number of VNFs in f) 0 ta
-0.330 (orw) tb
-0.165 (arding chain) tb gr
0.00 0.00 432.00 252.00 cl
0.00 0.00 432.00 252.00 cl
/Font1 findfont 11 s
0 0 0 srgb
13.38 103.28 (Mean R) 90 ta
-0.330 (TT [us]) tb gr
0.00 0.00 432.00 252.00 cl
0.00 0.00 432.00 252.00 cl
0.00 0.00 432.00 252.00 cl
0.00 0.00 432.00 252.00 cl
0.00 0.00 432.00 252.00 cl
0.00 0.00 432.00 252.00 cl
0.00 0.00 432.00 252.00 cl
0.00 0.00 432.00 252.00 cl
/bg { 1 1 1 srgb } def
362.30 108.89 64.22 61.54 r p2
0.00 0.00 432.00 252.00 cl
0.00 0.00 432.00 252.00 cl
0.00 0.00 432.00 252.00 cl
0.00 0.00 432.00 252.00 cl
0.00 0.00 432.00 252.00 cl
0.00 0.00 432.00 252.00 cl
0.00 0.00 432.00 252.00 cl
/bg { 1 1 1 srgb } def
367.78 131.65 17.28 17.28 r p2
0.00 0.00 432.00 252.00 cl
0.00 0.00 432.00 252.00 cl
/bg { 0.9725 0.4627 0.4275 srgb } def
368.49 132.36 15.86 15.86 r p2
0.00 0.00 432.00 252.00 cl
0.00 0.00 432.00 252.00 cl
/bg { 1 1 1 srgb } def
367.78 114.37 17.28 17.28 r p2
0.00 0.00 432.00 252.00 cl
0.00 0.00 432.00 252.00 cl
/bg { 0 0.7490 0.7686 srgb } def
368.49 115.08 15.86 15.86 r p2
0.00 0.00 432.00 252.00 cl
0.00 0.00 432.00 252.00 cl
0.00 0.00 432.00 252.00 cl
0.00 0.00 432.00 252.00 cl
/Font1 findfont 9 s
0 0 0 srgb
390.54 137.06 (VNFFG) 0 0 t
0.00 0.00 432.00 252.00 cl
0.00 0.00 432.00 252.00 cl
0.00 0.00 432.00 252.00 cl
0.00 0.00 432.00 252.00 cl
0.00 0.00 432.00 252.00 cl
/Font1 findfont 9 s
0 0 0 srgb
390.54 119.78 (Direct) 0 0 t
0.00 0.00 432.00 252.00 cl
0.00 0.00 432.00 252.00 cl
0.00 0.00 432.00 252.00 cl
0.00 0.00 432.00 252.00 cl
0.00 0.00 432.00 252.00 cl
0.00 0.00 432.00 252.00 cl
0.00 0.00 432.00 252.00 cl
0.00 0.00 432.00 252.00 cl
0.00 0.00 432.00 252.00 cl
0.00 0.00 432.00 252.00 cl
0.00 0.00 432.00 252.00 cl
0.00 0.00 432.00 252.00 cl
0.00 0.00 432.00 252.00 cl
ep
%%Trailer
%%Pages: 1
%%EOF
