%!PS-Adobe-3.0 EPSF-3.0
%%DocumentNeededResources: font Helvetica
%%+ font Helvetica-Bold
%%+ font Helvetica-Oblique
%%+ font Helvetica-BoldOblique
%%+ font Symbol
%%Title: R Graphics Output
%%Creator: R Software
%%Pages: (atend)
%%BoundingBox: 0 0 432 252
%%EndComments
%%BeginProlog
/bp  { gs sRGB gs } def
% begin .ps.prolog
/gs  { gsave } bind def
/gr  { grestore } bind def
/ep  { showpage gr gr } bind def
/m   { moveto } bind def
/l  { rlineto } bind def
/np  { newpath } bind def
/cp  { closepath } bind def
/f   { fill } bind def
/o   { stroke } bind def
/c   { newpath 0 360 arc } bind def
/r   { 4 2 roll moveto 1 copy 3 -1 roll exch 0 exch rlineto 0 rlineto -1 mul 0 exch rlineto closepath } bind def
/p1  { stroke } bind def
/p2  { gsave bg fill grestore newpath } bind def
/p3  { gsave bg fill grestore stroke } bind def
/p6  { gsave bg eofill grestore newpath } bind def
/p7  { gsave bg eofill grestore stroke } bind def
/t   { 5 -2 roll moveto gsave rotate
       1 index stringwidth pop
       mul neg 0 rmoveto show grestore } bind def
/ta  { 4 -2 roll moveto gsave rotate show } bind def
/tb  { 2 -1 roll 0 rmoveto show } bind def
/cl  { grestore gsave newpath 3 index 3 index moveto 1 index
       4 -1 roll lineto  exch 1 index lineto lineto
       closepath clip newpath } bind def
/rgb { setrgbcolor } bind def
/s   { scalefont setfont } bind def
% end   .ps.prolog
/sRGB { [ /CIEBasedABC
          << /DecodeLMN
               [ { dup 0.03928 le
                        {12.92321 div}
                        {0.055 add 1.055 div 2.4 exp }
                     ifelse
                 } bind dup dup
               ]
             /MatrixLMN [0.412457 0.212673 0.019334
                         0.357576 0.715152 0.119192
                         0.180437 0.072175 0.950301]
             /WhitePoint [0.9505 1.0 1.0890]
           >>
         ] setcolorspace } bind def
/srgb { setcolor } bind def
%%IncludeResource: font Helvetica
/Helvetica findfont
dup length dict begin
  {1 index /FID ne {def} {pop pop} ifelse} forall
  /Encoding ISOLatin1Encoding def
  currentdict
  end
/Font1 exch definefont pop
%%IncludeResource: font Helvetica-Bold
/Helvetica-Bold findfont
dup length dict begin
  {1 index /FID ne {def} {pop pop} ifelse} forall
  /Encoding ISOLatin1Encoding def
  currentdict
  end
/Font2 exch definefont pop
%%IncludeResource: font Helvetica-Oblique
/Helvetica-Oblique findfont
dup length dict begin
  {1 index /FID ne {def} {pop pop} ifelse} forall
  /Encoding ISOLatin1Encoding def
  currentdict
  end
/Font3 exch definefont pop
%%IncludeResource: font Helvetica-BoldOblique
/Helvetica-BoldOblique findfont
dup length dict begin
  {1 index /FID ne {def} {pop pop} ifelse} forall
  /Encoding ISOLatin1Encoding def
  currentdict
  end
/Font4 exch definefont pop
%%IncludeResource: font Symbol
/Symbol findfont
dup length dict begin
  {1 index /FID ne {def} {pop pop} ifelse} forall
  currentdict
  end
/Font5 exch definefont pop
%%EndProlog
%%Page: 1 1
bp
0.00 0.00 432.00 252.00 cl
0.00 0.00 432.00 252.00 cl
0.00 0.00 432.00 252.00 cl
0.00 0.00 432.00 252.00 cl
0.00 0.00 432.00 252.00 cl
0.00 0.00 432.00 252.00 cl
0.00 0.00 432.00 252.00 cl
0.00 0.00 432.00 252.00 cl
0.00 0.00 432.00 252.00 cl
0.00 0.00 432.00 252.00 cl
0.00 0.00 432.00 252.00 cl
0.00 0.00 432.00 252.00 cl
0.00 0.00 432.00 252.00 cl
0.00 0.00 432.00 252.00 cl
0.00 0.00 432.00 252.00 cl
0.00 0.00 432.00 252.00 cl
/bg { 1 1 1 srgb } def
1 1 1 srgb
1.07 setlinewidth
[] 0 setdash
1 setlinecap
1 setlinejoin
10.00 setmiterlimit
0.00 0.00 432.00 252.00 r p3
0.00 0.00 432.00 252.00 cl
28.69 32.79 351.34 246.52 cl
/bg { 1 1 1 srgb } def
28.69 32.79 322.65 213.73 r p2
0.9216 0.9216 0.9216 srgb
0.53 setlinewidth
[] 0 setdash
0 setlinecap
1 setlinejoin
10.00 setmiterlimit
np
28.69 67.39 m
322.65 0 l
o
np
28.69 117.14 m
322.65 0 l
o
np
28.69 166.90 m
322.65 0 l
o
np
28.69 216.66 m
322.65 0 l
o
np
32.53 32.79 m
0 213.73 l
o
np
42.37 32.79 m
0 213.73 l
o
np
62.06 32.79 m
0 213.73 l
o
np
81.75 32.79 m
0 213.73 l
o
np
101.43 32.79 m
0 213.73 l
o
np
121.12 32.79 m
0 213.73 l
o
np
140.80 32.79 m
0 213.73 l
o
np
160.49 32.79 m
0 213.73 l
o
np
180.17 32.79 m
0 213.73 l
o
np
199.86 32.79 m
0 213.73 l
o
np
219.55 32.79 m
0 213.73 l
o
np
239.23 32.79 m
0 213.73 l
o
np
258.92 32.79 m
0 213.73 l
o
np
278.60 32.79 m
0 213.73 l
o
np
298.29 32.79 m
0 213.73 l
o
np
317.97 32.79 m
0 213.73 l
o
np
337.66 32.79 m
0 213.73 l
o
np
347.50 32.79 m
0 213.73 l
o
1.07 setlinewidth
[] 0 setdash
np
28.69 42.51 m
322.65 0 l
o
np
28.69 92.26 m
322.65 0 l
o
np
28.69 142.02 m
322.65 0 l
o
np
28.69 191.78 m
322.65 0 l
o
np
28.69 241.54 m
322.65 0 l
o
np
52.22 32.79 m
0 213.73 l
o
np
71.90 32.79 m
0 213.73 l
o
np
91.59 32.79 m
0 213.73 l
o
np
111.27 32.79 m
0 213.73 l
o
np
130.96 32.79 m
0 213.73 l
o
np
150.65 32.79 m
0 213.73 l
o
np
170.33 32.79 m
0 213.73 l
o
np
190.02 32.79 m
0 213.73 l
o
np
209.70 32.79 m
0 213.73 l
o
np
229.39 32.79 m
0 213.73 l
o
np
249.07 32.79 m
0 213.73 l
o
np
268.76 32.79 m
0 213.73 l
o
np
288.45 32.79 m
0 213.73 l
o
np
308.13 32.79 m
0 213.73 l
o
np
327.82 32.79 m
0 213.73 l
o
/bg { 0 0.7490 0.7686 srgb } def
52.22 42.51 8.86 186.34 r p2
/bg { 0.9725 0.4627 0.4275 srgb } def
43.36 42.51 8.86 186.91 r p2
/bg { 0 0.7490 0.7686 srgb } def
71.90 42.51 8.86 187.70 r p2
/bg { 0.9725 0.4627 0.4275 srgb } def
63.04 42.51 8.86 152.78 r p2
/bg { 0 0.7490 0.7686 srgb } def
91.59 42.51 8.86 187.79 r p2
/bg { 0.9725 0.4627 0.4275 srgb } def
82.73 42.51 8.86 132.50 r p2
/bg { 0 0.7490 0.7686 srgb } def
111.27 42.51 8.86 188.09 r p2
/bg { 0.9725 0.4627 0.4275 srgb } def
102.42 42.51 8.86 167.31 r p2
/bg { 0 0.7490 0.7686 srgb } def
130.96 42.51 8.86 186.84 r p2
/bg { 0.9725 0.4627 0.4275 srgb } def
122.10 42.51 8.86 102.42 r p2
/bg { 0 0.7490 0.7686 srgb } def
150.65 42.51 8.86 186.84 r p2
/bg { 0.9725 0.4627 0.4275 srgb } def
141.79 42.51 8.86 187.28 r p2
/bg { 0 0.7490 0.7686 srgb } def
170.33 42.51 8.86 187.89 r p2
/bg { 0.9725 0.4627 0.4275 srgb } def
161.47 42.51 8.86 186.37 r p2
/bg { 0 0.7490 0.7686 srgb } def
190.02 42.51 8.86 187.17 r p2
/bg { 0.9725 0.4627 0.4275 srgb } def
181.16 42.51 8.86 187.63 r p2
/bg { 0 0.7490 0.7686 srgb } def
209.70 42.51 8.86 188.56 r p2
/bg { 0.9725 0.4627 0.4275 srgb } def
200.84 42.51 8.86 157.50 r p2
/bg { 0 0.7490 0.7686 srgb } def
229.39 42.51 8.86 188.77 r p2
/bg { 0.9725 0.4627 0.4275 srgb } def
220.53 42.51 8.86 187.23 r p2
/bg { 0 0.7490 0.7686 srgb } def
249.07 42.51 8.86 188.23 r p2
/bg { 0.9725 0.4627 0.4275 srgb } def
240.22 42.51 8.86 188.27 r p2
/bg { 0 0.7490 0.7686 srgb } def
268.76 42.51 8.86 188.95 r p2
/bg { 0.9725 0.4627 0.4275 srgb } def
259.90 42.51 8.86 188.56 r p2
/bg { 0 0.7490 0.7686 srgb } def
288.45 42.51 8.86 183.83 r p2
/bg { 0.9725 0.4627 0.4275 srgb } def
279.59 42.51 8.86 180.90 r p2
/bg { 0 0.7490 0.7686 srgb } def
308.13 42.51 8.86 188.25 r p2
/bg { 0.9725 0.4627 0.4275 srgb } def
299.27 42.51 8.86 186.23 r p2
/bg { 0 0.7490 0.7686 srgb } def
327.82 42.51 8.86 189.74 r p2
/bg { 0.9725 0.4627 0.4275 srgb } def
318.96 42.51 8.86 188.35 r p2
0 0 0 srgb
0.43 setlinewidth
[] 0 setdash
np
54.43 231.99 m
4.43 0 l
o
np
56.65 231.99 m
0 -6.30 l
o
np
54.43 225.69 m
4.43 0 l
o
np
45.57 232.40 m
4.43 0 l
o
np
47.79 232.40 m
0 -5.96 l
o
np
45.57 226.44 m
4.43 0 l
o
np
74.12 232.38 m
4.43 0 l
o
np
76.33 232.38 m
0 -4.34 l
o
np
74.12 228.04 m
4.43 0 l
o
np
65.26 196.86 m
4.43 0 l
o
np
67.47 196.86 m
0 -3.15 l
o
np
65.26 193.71 m
4.43 0 l
o
np
93.80 232.46 m
4.43 0 l
o
np
96.02 232.46 m
0 -4.33 l
o
np
93.80 228.13 m
4.43 0 l
o
np
84.94 176.18 m
4.43 0 l
o
np
87.16 176.18 m
0 -2.35 l
o
np
84.94 173.83 m
4.43 0 l
o
np
113.49 232.87 m
4.43 0 l
o
np
115.70 232.87 m
0 -4.56 l
o
np
113.49 228.31 m
4.43 0 l
o
np
104.63 228.21 m
4.43 0 l
o
np
106.85 228.21 m
0 -36.80 l
o
np
104.63 191.41 m
4.43 0 l
o
np
133.17 231.28 m
4.43 0 l
o
np
135.39 231.28 m
0 -3.87 l
o
np
133.17 227.41 m
4.43 0 l
o
np
124.32 145.98 m
4.43 0 l
o
np
126.53 145.98 m
0 -2.11 l
o
np
124.32 143.87 m
4.43 0 l
o
np
152.86 231.04 m
4.43 0 l
o
np
155.08 231.04 m
0 -3.38 l
o
np
152.86 227.66 m
4.43 0 l
o
np
144.00 231.70 m
4.43 0 l
o
np
146.22 231.70 m
0 -3.81 l
o
np
144.00 227.89 m
4.43 0 l
o
np
172.55 233.52 m
4.43 0 l
o
np
174.76 233.52 m
0 -6.26 l
o
np
172.55 227.26 m
4.43 0 l
o
np
163.69 231.36 m
4.43 0 l
o
np
165.90 231.36 m
0 -4.97 l
o
np
163.69 226.39 m
4.43 0 l
o
np
192.23 232.47 m
4.43 0 l
o
np
194.45 232.47 m
0 -5.58 l
o
np
192.23 226.89 m
4.43 0 l
o
np
183.37 232.01 m
4.43 0 l
o
np
185.59 232.01 m
0 -3.75 l
o
np
183.37 228.26 m
4.43 0 l
o
np
211.92 233.68 m
4.43 0 l
o
np
214.13 233.68 m
0 -5.22 l
o
np
211.92 228.46 m
4.43 0 l
o
np
203.06 228.74 m
4.43 0 l
o
np
205.27 228.74 m
0 -57.47 l
o
np
203.06 171.27 m
4.43 0 l
o
np
231.60 233.33 m
4.43 0 l
o
np
233.82 233.33 m
0 -4.11 l
o
np
231.60 229.22 m
4.43 0 l
o
np
222.75 232.27 m
4.42 0 l
o
np
224.96 232.27 m
0 -5.07 l
o
np
222.75 227.20 m
4.42 0 l
o
np
251.29 232.91 m
4.43 0 l
o
np
253.50 232.91 m
0 -4.34 l
o
np
251.29 228.57 m
4.43 0 l
o
np
242.43 232.98 m
4.43 0 l
o
np
244.65 232.98 m
0 -4.41 l
o
np
242.43 228.57 m
4.43 0 l
o
np
270.98 233.34 m
4.42 0 l
o
np
273.19 233.34 m
0 -3.76 l
o
np
270.98 229.58 m
4.42 0 l
o
np
262.12 232.74 m
4.43 0 l
o
np
264.33 232.74 m
0 -3.36 l
o
np
262.12 229.38 m
4.43 0 l
o
np
290.66 235.11 m
4.43 0 l
o
np
292.88 235.11 m
0 -17.55 l
o
np
290.66 217.56 m
4.43 0 l
o
np
281.80 236.81 m
4.43 0 l
o
np
284.02 236.81 m
0 -26.80 l
o
np
281.80 210.01 m
4.43 0 l
o
np
310.35 232.66 m
4.43 0 l
o
np
312.56 232.66 m
0 -3.82 l
o
np
310.35 228.84 m
4.43 0 l
o
np
301.49 230.36 m
4.43 0 l
o
np
303.70 230.36 m
0 -3.25 l
o
np
301.49 227.11 m
4.43 0 l
o
np
330.03 234.53 m
4.43 0 l
o
np
332.25 234.53 m
0 -4.57 l
o
np
330.03 229.96 m
4.43 0 l
o
np
321.17 233.43 m
4.43 0 l
o
np
323.39 233.43 m
0 -5.15 l
o
np
321.17 228.28 m
4.43 0 l
o
0.2000 0.2000 0.2000 srgb
1.07 setlinewidth
[] 0 setdash
1 setlinecap
28.69 32.79 322.65 213.73 r p1
0.00 0.00 432.00 252.00 cl
0.00 0.00 432.00 252.00 cl
0.00 0.00 432.00 252.00 cl
0.00 0.00 432.00 252.00 cl
0.00 0.00 432.00 252.00 cl
0.00 0.00 432.00 252.00 cl
0.00 0.00 432.00 252.00 cl
0.00 0.00 432.00 252.00 cl
0.00 0.00 432.00 252.00 cl
0.00 0.00 432.00 252.00 cl
0.00 0.00 432.00 252.00 cl
0.00 0.00 432.00 252.00 cl
0.00 0.00 432.00 252.00 cl
0.00 0.00 432.00 252.00 cl
0.00 0.00 432.00 252.00 cl
0.00 0.00 432.00 252.00 cl
/Font1 findfont 9 s
0.3020 0.3020 0.3020 srgb
23.76 39.27 (0) 1 0 t
23.76 89.03 (1) 1 0 t
23.76 138.79 (2) 1 0 t
23.76 188.55 (3) 1 0 t
23.76 238.31 (4) 1 0 t
0.00 0.00 432.00 252.00 cl
0.00 0.00 432.00 252.00 cl
0.2000 0.2000 0.2000 srgb
1.07 setlinewidth
[] 0 setdash
0 setlinecap
1 setlinejoin
10.00 setmiterlimit
np
25.95 42.51 m
2.74 0 l
o
np
25.95 92.26 m
2.74 0 l
o
np
25.95 142.02 m
2.74 0 l
o
np
25.95 191.78 m
2.74 0 l
o
np
25.95 241.54 m
2.74 0 l
o
0.00 0.00 432.00 252.00 cl
0.00 0.00 432.00 252.00 cl
0.00 0.00 432.00 252.00 cl
0.00 0.00 432.00 252.00 cl
0.00 0.00 432.00 252.00 cl
0.00 0.00 432.00 252.00 cl
0.00 0.00 432.00 252.00 cl
0.00 0.00 432.00 252.00 cl
0.00 0.00 432.00 252.00 cl
0.00 0.00 432.00 252.00 cl
0.2000 0.2000 0.2000 srgb
1.07 setlinewidth
[] 0 setdash
0 setlinecap
1 setlinejoin
10.00 setmiterlimit
np
52.22 30.05 m
0 2.74 l
o
np
71.90 30.05 m
0 2.74 l
o
np
91.59 30.05 m
0 2.74 l
o
np
111.27 30.05 m
0 2.74 l
o
np
130.96 30.05 m
0 2.74 l
o
np
150.65 30.05 m
0 2.74 l
o
np
170.33 30.05 m
0 2.74 l
o
np
190.02 30.05 m
0 2.74 l
o
np
209.70 30.05 m
0 2.74 l
o
np
229.39 30.05 m
0 2.74 l
o
np
249.07 30.05 m
0 2.74 l
o
np
268.76 30.05 m
0 2.74 l
o
np
288.45 30.05 m
0 2.74 l
o
np
308.13 30.05 m
0 2.74 l
o
np
327.82 30.05 m
0 2.74 l
o
0.00 0.00 432.00 252.00 cl
0.00 0.00 432.00 252.00 cl
/Font1 findfont 9 s
0.3020 0.3020 0.3020 srgb
52.22 21.40 (1) .5 0 t
71.90 21.40 (2) .5 0 t
91.59 21.40 (3) .5 0 t
111.27 21.40 (4) .5 0 t
130.96 21.40 (5) .5 0 t
150.65 21.40 (6) .5 0 t
170.33 21.40 (7) .5 0 t
190.02 21.40 (8) .5 0 t
209.70 21.40 (9) .5 0 t
229.39 21.40 (10) .5 0 t
249.07 21.40 (11) .5 0 t
268.76 21.40 (12) .5 0 t
288.45 21.40 (13) .5 0 t
308.13 21.40 (14) .5 0 t
327.82 21.40 (15) .5 0 t
0.00 0.00 432.00 252.00 cl
0.00 0.00 432.00 252.00 cl
0.00 0.00 432.00 252.00 cl
0.00 0.00 432.00 252.00 cl
0.00 0.00 432.00 252.00 cl
0.00 0.00 432.00 252.00 cl
/Font1 findfont 11 s
0 0 0 srgb
101.38 8.12 (Number of VNFs in f) 0 ta
-0.330 (orw) tb
-0.165 (arding chain) tb gr
0.00 0.00 432.00 252.00 cl
0.00 0.00 432.00 252.00 cl
/Font1 findfont 11 s
0 0 0 srgb
13.38 139.66 (Mean throughput [GiB/s]) .5 90 t
0.00 0.00 432.00 252.00 cl
0.00 0.00 432.00 252.00 cl
0.00 0.00 432.00 252.00 cl
0.00 0.00 432.00 252.00 cl
0.00 0.00 432.00 252.00 cl
0.00 0.00 432.00 252.00 cl
0.00 0.00 432.00 252.00 cl
0.00 0.00 432.00 252.00 cl
/bg { 1 1 1 srgb } def
362.30 108.89 64.22 61.54 r p2
0.00 0.00 432.00 252.00 cl
0.00 0.00 432.00 252.00 cl
0.00 0.00 432.00 252.00 cl
0.00 0.00 432.00 252.00 cl
0.00 0.00 432.00 252.00 cl
0.00 0.00 432.00 252.00 cl
0.00 0.00 432.00 252.00 cl
/bg { 1 1 1 srgb } def
367.78 131.65 17.28 17.28 r p2
0.00 0.00 432.00 252.00 cl
0.00 0.00 432.00 252.00 cl
/bg { 0.9725 0.4627 0.4275 srgb } def
368.49 132.36 15.86 15.86 r p2
0.00 0.00 432.00 252.00 cl
0.00 0.00 432.00 252.00 cl
/bg { 1 1 1 srgb } def
367.78 114.37 17.28 17.28 r p2
0.00 0.00 432.00 252.00 cl
0.00 0.00 432.00 252.00 cl
/bg { 0 0.7490 0.7686 srgb } def
368.49 115.08 15.86 15.86 r p2
0.00 0.00 432.00 252.00 cl
0.00 0.00 432.00 252.00 cl
0.00 0.00 432.00 252.00 cl
0.00 0.00 432.00 252.00 cl
/Font1 findfont 9 s
0 0 0 srgb
390.54 137.06 (VNFFG) 0 0 t
0.00 0.00 432.00 252.00 cl
0.00 0.00 432.00 252.00 cl
0.00 0.00 432.00 252.00 cl
0.00 0.00 432.00 252.00 cl
0.00 0.00 432.00 252.00 cl
/Font1 findfont 9 s
0 0 0 srgb
390.54 119.78 (Direct) 0 0 t
0.00 0.00 432.00 252.00 cl
0.00 0.00 432.00 252.00 cl
0.00 0.00 432.00 252.00 cl
0.00 0.00 432.00 252.00 cl
0.00 0.00 432.00 252.00 cl
0.00 0.00 432.00 252.00 cl
0.00 0.00 432.00 252.00 cl
0.00 0.00 432.00 252.00 cl
0.00 0.00 432.00 252.00 cl
0.00 0.00 432.00 252.00 cl
0.00 0.00 432.00 252.00 cl
0.00 0.00 432.00 252.00 cl
0.00 0.00 432.00 252.00 cl
ep
%%Trailer
%%Pages: 1
%%EOF
