%!PS-Adobe-3.0 EPSF-3.0
%%DocumentNeededResources: font Helvetica
%%+ font Helvetica-Bold
%%+ font Helvetica-Oblique
%%+ font Helvetica-BoldOblique
%%+ font Symbol
%%Title: R Graphics Output
%%Creator: R Software
%%Pages: (atend)
%%BoundingBox: 0 0 432 252
%%EndComments
%%BeginProlog
/bp  { gs sRGB gs } def
% begin .ps.prolog
/gs  { gsave } bind def
/gr  { grestore } bind def
/ep  { showpage gr gr } bind def
/m   { moveto } bind def
/l  { rlineto } bind def
/np  { newpath } bind def
/cp  { closepath } bind def
/f   { fill } bind def
/o   { stroke } bind def
/c   { newpath 0 360 arc } bind def
/r   { 4 2 roll moveto 1 copy 3 -1 roll exch 0 exch rlineto 0 rlineto -1 mul 0 exch rlineto closepath } bind def
/p1  { stroke } bind def
/p2  { gsave bg fill grestore newpath } bind def
/p3  { gsave bg fill grestore stroke } bind def
/p6  { gsave bg eofill grestore newpath } bind def
/p7  { gsave bg eofill grestore stroke } bind def
/t   { 5 -2 roll moveto gsave rotate
       1 index stringwidth pop
       mul neg 0 rmoveto show grestore } bind def
/ta  { 4 -2 roll moveto gsave rotate show } bind def
/tb  { 2 -1 roll 0 rmoveto show } bind def
/cl  { grestore gsave newpath 3 index 3 index moveto 1 index
       4 -1 roll lineto  exch 1 index lineto lineto
       closepath clip newpath } bind def
/rgb { setrgbcolor } bind def
/s   { scalefont setfont } bind def
% end   .ps.prolog
/sRGB { [ /CIEBasedABC
          << /DecodeLMN
               [ { dup 0.03928 le
                        {12.92321 div}
                        {0.055 add 1.055 div 2.4 exp }
                     ifelse
                 } bind dup dup
               ]
             /MatrixLMN [0.412457 0.212673 0.019334
                         0.357576 0.715152 0.119192
                         0.180437 0.072175 0.950301]
             /WhitePoint [0.9505 1.0 1.0890]
           >>
         ] setcolorspace } bind def
/srgb { setcolor } bind def
%%IncludeResource: font Helvetica
/Helvetica findfont
dup length dict begin
  {1 index /FID ne {def} {pop pop} ifelse} forall
  /Encoding ISOLatin1Encoding def
  currentdict
  end
/Font1 exch definefont pop
%%IncludeResource: font Helvetica-Bold
/Helvetica-Bold findfont
dup length dict begin
  {1 index /FID ne {def} {pop pop} ifelse} forall
  /Encoding ISOLatin1Encoding def
  currentdict
  end
/Font2 exch definefont pop
%%IncludeResource: font Helvetica-Oblique
/Helvetica-Oblique findfont
dup length dict begin
  {1 index /FID ne {def} {pop pop} ifelse} forall
  /Encoding ISOLatin1Encoding def
  currentdict
  end
/Font3 exch definefont pop
%%IncludeResource: font Helvetica-BoldOblique
/Helvetica-BoldOblique findfont
dup length dict begin
  {1 index /FID ne {def} {pop pop} ifelse} forall
  /Encoding ISOLatin1Encoding def
  currentdict
  end
/Font4 exch definefont pop
%%IncludeResource: font Symbol
/Symbol findfont
dup length dict begin
  {1 index /FID ne {def} {pop pop} ifelse} forall
  currentdict
  end
/Font5 exch definefont pop
%%EndProlog
%%Page: 1 1
bp
0.00 0.00 432.00 252.00 cl
0.00 0.00 432.00 252.00 cl
0.00 0.00 432.00 252.00 cl
0.00 0.00 432.00 252.00 cl
0.00 0.00 432.00 252.00 cl
0.00 0.00 432.00 252.00 cl
0.00 0.00 432.00 252.00 cl
0.00 0.00 432.00 252.00 cl
0.00 0.00 432.00 252.00 cl
0.00 0.00 432.00 252.00 cl
/bg { 1 1 1 srgb } def
1 1 1 srgb
1.07 setlinewidth
[] 0 setdash
1 setlinecap
1 setlinejoin
10.00 setmiterlimit
0.00 0.00 432.00 252.00 r p3
0.00 0.00 432.00 252.00 cl
38.70 32.79 426.52 246.52 cl
/bg { 1 1 1 srgb } def
38.70 32.79 387.82 213.73 r p2
0.9216 0.9216 0.9216 srgb
0.53 setlinewidth
[] 0 setdash
0 setlinecap
1 setlinejoin
10.00 setmiterlimit
np
38.70 55.79 m
387.82 0 l
o
np
38.70 82.36 m
387.82 0 l
o
np
38.70 108.92 m
387.82 0 l
o
np
38.70 135.49 m
387.82 0 l
o
np
38.70 162.06 m
387.82 0 l
o
np
38.70 188.62 m
387.82 0 l
o
np
38.70 215.19 m
387.82 0 l
o
np
38.70 241.76 m
387.82 0 l
o
np
48.98 32.79 m
0 213.73 l
o
np
73.47 32.79 m
0 213.73 l
o
np
97.95 32.79 m
0 213.73 l
o
np
122.43 32.79 m
0 213.73 l
o
np
146.92 32.79 m
0 213.73 l
o
np
171.40 32.79 m
0 213.73 l
o
np
195.89 32.79 m
0 213.73 l
o
np
220.37 32.79 m
0 213.73 l
o
np
244.85 32.79 m
0 213.73 l
o
np
269.34 32.79 m
0 213.73 l
o
np
293.82 32.79 m
0 213.73 l
o
np
318.30 32.79 m
0 213.73 l
o
np
342.79 32.79 m
0 213.73 l
o
np
367.27 32.79 m
0 213.73 l
o
np
391.75 32.79 m
0 213.73 l
o
np
416.24 32.79 m
0 213.73 l
o
1.07 setlinewidth
[] 0 setdash
np
38.70 42.51 m
387.82 0 l
o
np
38.70 69.07 m
387.82 0 l
o
np
38.70 95.64 m
387.82 0 l
o
np
38.70 122.21 m
387.82 0 l
o
np
38.70 148.77 m
387.82 0 l
o
np
38.70 175.34 m
387.82 0 l
o
np
38.70 201.91 m
387.82 0 l
o
np
38.70 228.47 m
387.82 0 l
o
np
61.23 32.79 m
0 213.73 l
o
np
85.71 32.79 m
0 213.73 l
o
np
110.19 32.79 m
0 213.73 l
o
np
134.68 32.79 m
0 213.73 l
o
np
159.16 32.79 m
0 213.73 l
o
np
183.64 32.79 m
0 213.73 l
o
np
208.13 32.79 m
0 213.73 l
o
np
232.61 32.79 m
0 213.73 l
o
np
257.09 32.79 m
0 213.73 l
o
np
281.58 32.79 m
0 213.73 l
o
np
306.06 32.79 m
0 213.73 l
o
np
330.54 32.79 m
0 213.73 l
o
np
355.03 32.79 m
0 213.73 l
o
np
379.51 32.79 m
0 213.73 l
o
np
404.00 32.79 m
0 213.73 l
o
/bg { 0.9725 0.4627 0.4275 srgb } def
56.33 42.51 9.79 58.88 r p2
80.81 42.51 9.79 68.33 r p2
105.30 42.51 9.79 77.06 r p2
129.78 42.51 9.79 85.64 r p2
154.26 42.51 9.79 94.55 r p2
178.75 42.51 9.79 102.31 r p2
203.23 42.51 9.79 110.63 r p2
227.71 42.51 9.79 119.40 r p2
252.20 42.51 9.79 128.63 r p2
276.68 42.51 9.79 138.58 r p2
301.16 42.51 9.79 149.45 r p2
325.65 42.51 9.79 160.17 r p2
350.13 42.51 9.79 170.78 r p2
374.62 42.51 9.79 180.60 r p2
399.10 42.51 9.79 191.35 r p2
0 0 0 srgb
0.43 setlinewidth
[] 0 setdash
np
58.78 104.90 m
4.89 0 l
o
np
61.23 104.90 m
0 -7.02 l
o
np
58.78 97.88 m
4.89 0 l
o
np
83.26 114.01 m
4.90 0 l
o
np
85.71 114.01 m
0 -6.35 l
o
np
83.26 107.66 m
4.90 0 l
o
np
107.74 122.63 m
4.90 0 l
o
np
110.19 122.63 m
0 -6.14 l
o
np
107.74 116.49 m
4.90 0 l
o
np
132.23 130.99 m
4.89 0 l
o
np
134.68 130.99 m
0 -5.70 l
o
np
132.23 125.29 m
4.89 0 l
o
np
156.71 139.75 m
4.90 0 l
o
np
159.16 139.75 m
0 -5.38 l
o
np
156.71 134.37 m
4.90 0 l
o
np
181.20 146.62 m
4.89 0 l
o
np
183.64 146.62 m
0 -3.61 l
o
np
181.20 143.01 m
4.89 0 l
o
np
205.68 154.66 m
4.90 0 l
o
np
208.13 154.66 m
0 -3.04 l
o
np
205.68 151.62 m
4.90 0 l
o
np
230.16 163.30 m
4.90 0 l
o
np
232.61 163.30 m
0 -2.78 l
o
np
230.16 160.52 m
4.90 0 l
o
np
254.65 172.52 m
4.89 0 l
o
np
257.09 172.52 m
0 -2.77 l
o
np
254.65 169.75 m
4.89 0 l
o
np
279.13 182.53 m
4.90 0 l
o
np
281.58 182.53 m
0 -2.90 l
o
np
279.13 179.63 m
4.90 0 l
o
np
303.61 193.89 m
4.90 0 l
o
np
306.06 193.89 m
0 -3.87 l
o
np
303.61 190.02 m
4.90 0 l
o
np
328.10 204.46 m
4.89 0 l
o
np
330.54 204.46 m
0 -3.56 l
o
np
328.10 200.90 m
4.89 0 l
o
np
352.58 215.43 m
4.90 0 l
o
np
355.03 215.43 m
0 -4.30 l
o
np
352.58 211.13 m
4.90 0 l
o
np
377.06 225.27 m
4.90 0 l
o
np
379.51 225.27 m
0 -4.32 l
o
np
377.06 220.95 m
4.90 0 l
o
np
401.55 236.81 m
4.89 0 l
o
np
404.00 236.81 m
0 -5.91 l
o
np
401.55 230.90 m
4.89 0 l
o
0.2000 0.2000 0.2000 srgb
1.07 setlinewidth
[] 0 setdash
1 setlinecap
38.70 32.79 387.82 213.73 r p1
0.00 0.00 432.00 252.00 cl
0.00 0.00 432.00 252.00 cl
0.00 0.00 432.00 252.00 cl
0.00 0.00 432.00 252.00 cl
0.00 0.00 432.00 252.00 cl
0.00 0.00 432.00 252.00 cl
0.00 0.00 432.00 252.00 cl
0.00 0.00 432.00 252.00 cl
0.00 0.00 432.00 252.00 cl
0.00 0.00 432.00 252.00 cl
0.00 0.00 432.00 252.00 cl
0.00 0.00 432.00 252.00 cl
0.00 0.00 432.00 252.00 cl
0.00 0.00 432.00 252.00 cl
0.00 0.00 432.00 252.00 cl
0.00 0.00 432.00 252.00 cl
/Font1 findfont 9 s
0.3020 0.3020 0.3020 srgb
33.77 39.27 (0) 1 0 t
33.77 65.84 (100) 1 0 t
33.77 92.41 (200) 1 0 t
33.77 118.97 (300) 1 0 t
33.77 145.54 (400) 1 0 t
33.77 172.11 (500) 1 0 t
33.77 198.67 (600) 1 0 t
33.77 225.24 (700) 1 0 t
0.00 0.00 432.00 252.00 cl
0.00 0.00 432.00 252.00 cl
0.2000 0.2000 0.2000 srgb
1.07 setlinewidth
[] 0 setdash
0 setlinecap
1 setlinejoin
10.00 setmiterlimit
np
35.96 42.51 m
2.74 0 l
o
np
35.96 69.07 m
2.74 0 l
o
np
35.96 95.64 m
2.74 0 l
o
np
35.96 122.21 m
2.74 0 l
o
np
35.96 148.77 m
2.74 0 l
o
np
35.96 175.34 m
2.74 0 l
o
np
35.96 201.91 m
2.74 0 l
o
np
35.96 228.47 m
2.74 0 l
o
0.00 0.00 432.00 252.00 cl
0.00 0.00 432.00 252.00 cl
0.00 0.00 432.00 252.00 cl
0.00 0.00 432.00 252.00 cl
0.00 0.00 432.00 252.00 cl
0.00 0.00 432.00 252.00 cl
0.00 0.00 432.00 252.00 cl
0.00 0.00 432.00 252.00 cl
0.00 0.00 432.00 252.00 cl
0.00 0.00 432.00 252.00 cl
0.2000 0.2000 0.2000 srgb
1.07 setlinewidth
[] 0 setdash
0 setlinecap
1 setlinejoin
10.00 setmiterlimit
np
61.23 30.05 m
0 2.74 l
o
np
85.71 30.05 m
0 2.74 l
o
np
110.19 30.05 m
0 2.74 l
o
np
134.68 30.05 m
0 2.74 l
o
np
159.16 30.05 m
0 2.74 l
o
np
183.64 30.05 m
0 2.74 l
o
np
208.13 30.05 m
0 2.74 l
o
np
232.61 30.05 m
0 2.74 l
o
np
257.09 30.05 m
0 2.74 l
o
np
281.58 30.05 m
0 2.74 l
o
np
306.06 30.05 m
0 2.74 l
o
np
330.54 30.05 m
0 2.74 l
o
np
355.03 30.05 m
0 2.74 l
o
np
379.51 30.05 m
0 2.74 l
o
np
404.00 30.05 m
0 2.74 l
o
0.00 0.00 432.00 252.00 cl
0.00 0.00 432.00 252.00 cl
/Font1 findfont 9 s
0.3020 0.3020 0.3020 srgb
61.23 21.40 (0) .5 0 t
85.71 21.40 (1) .5 0 t
110.19 21.40 (2) .5 0 t
134.68 21.40 (3) .5 0 t
159.16 21.40 (4) .5 0 t
183.64 21.40 (5) .5 0 t
208.13 21.40 (6) .5 0 t
232.61 21.40 (7) .5 0 t
257.09 21.40 (8) .5 0 t
281.58 21.40 (9) .5 0 t
306.06 21.40 (10) .5 0 t
330.54 21.40 (11) .5 0 t
355.03 21.40 (12) .5 0 t
379.51 21.40 (13) .5 0 t
404.00 21.40 (14) .5 0 t
0.00 0.00 432.00 252.00 cl
0.00 0.00 432.00 252.00 cl
0.00 0.00 432.00 252.00 cl
0.00 0.00 432.00 252.00 cl
0.00 0.00 432.00 252.00 cl
0.00 0.00 432.00 252.00 cl
/Font1 findfont 11 s
0 0 0 srgb
232.61 8.12 (Number of NSs) .5 0 t
0.00 0.00 432.00 252.00 cl
0.00 0.00 432.00 252.00 cl
/Font1 findfont 11 s
0 0 0 srgb
13.38 139.66 (Mean RAM usage [MiB]) .5 90 t
0.00 0.00 432.00 252.00 cl
0.00 0.00 432.00 252.00 cl
0.00 0.00 432.00 252.00 cl
0.00 0.00 432.00 252.00 cl
0.00 0.00 432.00 252.00 cl
0.00 0.00 432.00 252.00 cl
0.00 0.00 432.00 252.00 cl
0.00 0.00 432.00 252.00 cl
0.00 0.00 432.00 252.00 cl
0.00 0.00 432.00 252.00 cl
0.00 0.00 432.00 252.00 cl
0.00 0.00 432.00 252.00 cl
ep
%%Trailer
%%Pages: 1
%%EOF
