%!PS-Adobe-3.0 EPSF-3.0
%%DocumentNeededResources: font Helvetica
%%+ font Helvetica-Bold
%%+ font Helvetica-Oblique
%%+ font Helvetica-BoldOblique
%%+ font Symbol
%%Title: R Graphics Output
%%Creator: R Software
%%Pages: (atend)
%%BoundingBox: 0 0 432 252
%%EndComments
%%BeginProlog
/bp  { gs sRGB gs } def
% begin .ps.prolog
/gs  { gsave } bind def
/gr  { grestore } bind def
/ep  { showpage gr gr } bind def
/m   { moveto } bind def
/l  { rlineto } bind def
/np  { newpath } bind def
/cp  { closepath } bind def
/f   { fill } bind def
/o   { stroke } bind def
/c   { newpath 0 360 arc } bind def
/r   { 4 2 roll moveto 1 copy 3 -1 roll exch 0 exch rlineto 0 rlineto -1 mul 0 exch rlineto closepath } bind def
/p1  { stroke } bind def
/p2  { gsave bg fill grestore newpath } bind def
/p3  { gsave bg fill grestore stroke } bind def
/p6  { gsave bg eofill grestore newpath } bind def
/p7  { gsave bg eofill grestore stroke } bind def
/t   { 5 -2 roll moveto gsave rotate
       1 index stringwidth pop
       mul neg 0 rmoveto show grestore } bind def
/ta  { 4 -2 roll moveto gsave rotate show } bind def
/tb  { 2 -1 roll 0 rmoveto show } bind def
/cl  { grestore gsave newpath 3 index 3 index moveto 1 index
       4 -1 roll lineto  exch 1 index lineto lineto
       closepath clip newpath } bind def
/rgb { setrgbcolor } bind def
/s   { scalefont setfont } bind def
% end   .ps.prolog
/sRGB { [ /CIEBasedABC
          << /DecodeLMN
               [ { dup 0.03928 le
                        {12.92321 div}
                        {0.055 add 1.055 div 2.4 exp }
                     ifelse
                 } bind dup dup
               ]
             /MatrixLMN [0.412457 0.212673 0.019334
                         0.357576 0.715152 0.119192
                         0.180437 0.072175 0.950301]
             /WhitePoint [0.9505 1.0 1.0890]
           >>
         ] setcolorspace } bind def
/srgb { setcolor } bind def
%%IncludeResource: font Helvetica
/Helvetica findfont
dup length dict begin
  {1 index /FID ne {def} {pop pop} ifelse} forall
  /Encoding ISOLatin1Encoding def
  currentdict
  end
/Font1 exch definefont pop
%%IncludeResource: font Helvetica-Bold
/Helvetica-Bold findfont
dup length dict begin
  {1 index /FID ne {def} {pop pop} ifelse} forall
  /Encoding ISOLatin1Encoding def
  currentdict
  end
/Font2 exch definefont pop
%%IncludeResource: font Helvetica-Oblique
/Helvetica-Oblique findfont
dup length dict begin
  {1 index /FID ne {def} {pop pop} ifelse} forall
  /Encoding ISOLatin1Encoding def
  currentdict
  end
/Font3 exch definefont pop
%%IncludeResource: font Helvetica-BoldOblique
/Helvetica-BoldOblique findfont
dup length dict begin
  {1 index /FID ne {def} {pop pop} ifelse} forall
  /Encoding ISOLatin1Encoding def
  currentdict
  end
/Font4 exch definefont pop
%%IncludeResource: font Symbol
/Symbol findfont
dup length dict begin
  {1 index /FID ne {def} {pop pop} ifelse} forall
  currentdict
  end
/Font5 exch definefont pop
%%EndProlog
%%Page: 1 1
bp
0.00 0.00 432.00 252.00 cl
0.00 0.00 432.00 252.00 cl
0.00 0.00 432.00 252.00 cl
0.00 0.00 432.00 252.00 cl
0.00 0.00 432.00 252.00 cl
0.00 0.00 432.00 252.00 cl
0.00 0.00 432.00 252.00 cl
0.00 0.00 432.00 252.00 cl
0.00 0.00 432.00 252.00 cl
0.00 0.00 432.00 252.00 cl
0.00 0.00 432.00 252.00 cl
0.00 0.00 432.00 252.00 cl
0.00 0.00 432.00 252.00 cl
0.00 0.00 432.00 252.00 cl
0.00 0.00 432.00 252.00 cl
0.00 0.00 432.00 252.00 cl
0.00 0.00 432.00 252.00 cl
0.00 0.00 432.00 252.00 cl
/bg { 1 1 1 srgb } def
1 1 1 srgb
1.07 setlinewidth
[] 0 setdash
1 setlinecap
1 setlinejoin
10.00 setmiterlimit
0.00 0.00 432.00 252.00 r p3
0.00 0.00 432.00 252.00 cl
38.70 32.79 334.10 246.52 cl
/bg { 1 1 1 srgb } def
38.70 32.79 295.40 213.73 r p2
0.9216 0.9216 0.9216 srgb
0.53 setlinewidth
[] 0 setdash
0 setlinecap
1 setlinejoin
10.00 setmiterlimit
np
38.70 36.03 m
295.40 0 l
o
np
38.70 48.98 m
295.40 0 l
o
np
38.70 61.93 m
295.40 0 l
o
np
38.70 74.87 m
295.40 0 l
o
np
38.70 87.82 m
295.40 0 l
o
np
38.70 100.77 m
295.40 0 l
o
np
38.70 113.71 m
295.40 0 l
o
np
38.70 126.66 m
295.40 0 l
o
np
38.70 139.61 m
295.40 0 l
o
np
38.70 152.55 m
295.40 0 l
o
np
38.70 165.50 m
295.40 0 l
o
np
38.70 178.45 m
295.40 0 l
o
np
38.70 191.40 m
295.40 0 l
o
np
38.70 204.34 m
295.40 0 l
o
np
38.70 217.29 m
295.40 0 l
o
np
38.70 230.24 m
295.40 0 l
o
np
38.70 243.18 m
295.40 0 l
o
np
41.50 32.79 m
0 213.73 l
o
np
51.16 32.79 m
0 213.73 l
o
np
70.48 32.79 m
0 213.73 l
o
np
89.80 32.79 m
0 213.73 l
o
np
109.12 32.79 m
0 213.73 l
o
np
128.44 32.79 m
0 213.73 l
o
np
147.76 32.79 m
0 213.73 l
o
np
167.08 32.79 m
0 213.73 l
o
np
186.40 32.79 m
0 213.73 l
o
np
205.72 32.79 m
0 213.73 l
o
np
225.04 32.79 m
0 213.73 l
o
np
244.36 32.79 m
0 213.73 l
o
np
263.68 32.79 m
0 213.73 l
o
np
283.00 32.79 m
0 213.73 l
o
np
302.32 32.79 m
0 213.73 l
o
np
321.64 32.79 m
0 213.73 l
o
np
331.30 32.79 m
0 213.73 l
o
1.07 setlinewidth
[] 0 setdash
np
38.70 42.51 m
295.40 0 l
o
np
38.70 55.45 m
295.40 0 l
o
np
38.70 68.40 m
295.40 0 l
o
np
38.70 81.35 m
295.40 0 l
o
np
38.70 94.29 m
295.40 0 l
o
np
38.70 107.24 m
295.40 0 l
o
np
38.70 120.19 m
295.40 0 l
o
np
38.70 133.13 m
295.40 0 l
o
np
38.70 146.08 m
295.40 0 l
o
np
38.70 159.03 m
295.40 0 l
o
np
38.70 171.97 m
295.40 0 l
o
np
38.70 184.92 m
295.40 0 l
o
np
38.70 197.87 m
295.40 0 l
o
np
38.70 210.82 m
295.40 0 l
o
np
38.70 223.76 m
295.40 0 l
o
np
38.70 236.71 m
295.40 0 l
o
np
60.82 32.79 m
0 213.73 l
o
np
80.14 32.79 m
0 213.73 l
o
np
99.46 32.79 m
0 213.73 l
o
np
118.78 32.79 m
0 213.73 l
o
np
138.10 32.79 m
0 213.73 l
o
np
157.42 32.79 m
0 213.73 l
o
np
176.74 32.79 m
0 213.73 l
o
np
196.06 32.79 m
0 213.73 l
o
np
215.38 32.79 m
0 213.73 l
o
np
234.70 32.79 m
0 213.73 l
o
np
254.02 32.79 m
0 213.73 l
o
np
273.34 32.79 m
0 213.73 l
o
np
292.66 32.79 m
0 213.73 l
o
np
311.98 32.79 m
0 213.73 l
o
/bg { 0.3804 0.6118 1 srgb } def
63.72 42.51 5.80 1.55 r p2
/bg { 0 0.7294 0.2196 srgb } def
57.92 42.51 5.80 1.95 r p2
/bg { 0.9725 0.4627 0.4275 srgb } def
52.13 42.51 5.80 11.54 r p2
/bg { 0.3804 0.6118 1 srgb } def
83.04 42.51 5.80 3.03 r p2
/bg { 0 0.7294 0.2196 srgb } def
77.24 42.51 5.80 4.85 r p2
/bg { 0.9725 0.4627 0.4275 srgb } def
71.45 42.51 5.80 25.38 r p2
/bg { 0.3804 0.6118 1 srgb } def
102.36 42.51 5.80 4.27 r p2
/bg { 0 0.7294 0.2196 srgb } def
96.56 42.51 5.80 7.81 r p2
/bg { 0.9725 0.4627 0.4275 srgb } def
90.77 42.51 5.80 39.57 r p2
/bg { 0.3804 0.6118 1 srgb } def
121.68 42.51 5.80 5.68 r p2
/bg { 0 0.7294 0.2196 srgb } def
115.88 42.51 5.80 10.72 r p2
/bg { 0.9725 0.4627 0.4275 srgb } def
110.09 42.51 5.80 53.25 r p2
/bg { 0.3804 0.6118 1 srgb } def
141.00 42.51 5.80 7.22 r p2
/bg { 0 0.7294 0.2196 srgb } def
135.20 42.51 5.80 15.60 r p2
/bg { 0.9725 0.4627 0.4275 srgb } def
129.41 42.51 5.80 67.06 r p2
/bg { 0.3804 0.6118 1 srgb } def
160.32 42.51 5.80 8.69 r p2
/bg { 0 0.7294 0.2196 srgb } def
154.52 42.51 5.80 18.93 r p2
/bg { 0.9725 0.4627 0.4275 srgb } def
148.73 42.51 5.80 81.43 r p2
/bg { 0.3804 0.6118 1 srgb } def
179.64 42.51 5.80 9.91 r p2
/bg { 0 0.7294 0.2196 srgb } def
173.84 42.51 5.80 22.38 r p2
/bg { 0.9725 0.4627 0.4275 srgb } def
168.05 42.51 5.80 94.67 r p2
/bg { 0.3804 0.6118 1 srgb } def
198.96 42.51 5.80 11.48 r p2
/bg { 0 0.7294 0.2196 srgb } def
193.16 42.51 5.80 25.35 r p2
/bg { 0.9725 0.4627 0.4275 srgb } def
187.37 42.51 5.80 109.30 r p2
/bg { 0.3804 0.6118 1 srgb } def
218.28 42.51 5.80 13.06 r p2
/bg { 0 0.7294 0.2196 srgb } def
212.48 42.51 5.80 28.50 r p2
/bg { 0.9725 0.4627 0.4275 srgb } def
206.69 42.51 5.80 123.08 r p2
/bg { 0.3804 0.6118 1 srgb } def
237.60 42.51 5.80 14.26 r p2
/bg { 0 0.7294 0.2196 srgb } def
231.80 42.51 5.80 32.15 r p2
/bg { 0.9725 0.4627 0.4275 srgb } def
226.00 42.51 5.80 136.74 r p2
/bg { 0.3804 0.6118 1 srgb } def
256.92 42.51 5.80 16.15 r p2
/bg { 0 0.7294 0.2196 srgb } def
251.12 42.51 5.80 35.78 r p2
/bg { 0.9725 0.4627 0.4275 srgb } def
245.32 42.51 5.80 150.61 r p2
/bg { 0.3804 0.6118 1 srgb } def
276.24 42.51 5.80 17.73 r p2
/bg { 0 0.7294 0.2196 srgb } def
270.44 42.51 5.80 39.43 r p2
/bg { 0.9725 0.4627 0.4275 srgb } def
264.64 42.51 5.80 164.74 r p2
/bg { 0.3804 0.6118 1 srgb } def
295.56 42.51 5.80 18.85 r p2
/bg { 0 0.7294 0.2196 srgb } def
289.76 42.51 5.80 42.81 r p2
/bg { 0.9725 0.4627 0.4275 srgb } def
283.96 42.51 5.80 179.10 r p2
/bg { 0.3804 0.6118 1 srgb } def
314.88 42.51 5.80 20.09 r p2
/bg { 0 0.7294 0.2196 srgb } def
309.08 42.51 5.80 48.13 r p2
/bg { 0.9725 0.4627 0.4275 srgb } def
303.28 42.51 5.80 193.40 r p2
0 0 0 srgb
0.43 setlinewidth
[] 0 setdash
np
65.17 44.15 m
2.90 0 l
o
np
66.62 44.15 m
0 -0.20 l
o
np
65.17 43.95 m
2.90 0 l
o
np
59.37 44.52 m
2.90 0 l
o
np
60.82 44.52 m
0 -0.13 l
o
np
59.37 44.39 m
2.90 0 l
o
np
53.58 54.16 m
2.89 0 l
o
np
55.03 54.16 m
0 -0.23 l
o
np
53.58 53.93 m
2.89 0 l
o
np
84.49 45.55 m
2.90 0 l
o
np
85.94 45.55 m
0 -0.02 l
o
np
84.49 45.53 m
2.90 0 l
o
np
78.69 47.48 m
2.90 0 l
o
np
80.14 47.48 m
0 -0.25 l
o
np
78.69 47.23 m
2.90 0 l
o
np
72.90 68.05 m
2.89 0 l
o
np
74.35 68.05 m
0 -0.33 l
o
np
72.90 67.72 m
2.89 0 l
o
np
103.81 46.80 m
2.90 0 l
o
np
105.26 46.80 m
0 -0.03 l
o
np
103.81 46.77 m
2.90 0 l
o
np
98.01 50.52 m
2.90 0 l
o
np
99.46 50.52 m
0 -0.41 l
o
np
98.01 50.11 m
2.90 0 l
o
np
92.22 82.16 m
2.89 0 l
o
np
93.67 82.16 m
0 -0.17 l
o
np
92.22 81.99 m
2.89 0 l
o
np
123.13 48.22 m
2.90 0 l
o
np
124.58 48.22 m
0 -0.06 l
o
np
123.13 48.16 m
2.90 0 l
o
np
117.33 53.47 m
2.90 0 l
o
np
118.78 53.47 m
0 -0.48 l
o
np
117.33 52.99 m
2.90 0 l
o
np
111.54 95.94 m
2.89 0 l
o
np
112.98 95.94 m
0 -0.36 l
o
np
111.54 95.58 m
2.89 0 l
o
np
142.45 49.74 m
2.90 0 l
o
np
143.90 49.74 m
0 -0.02 l
o
np
142.45 49.72 m
2.90 0 l
o
np
136.65 58.76 m
2.90 0 l
o
np
138.10 58.76 m
0 -1.30 l
o
np
136.65 57.46 m
2.90 0 l
o
np
130.86 109.72 m
2.89 0 l
o
np
132.30 109.72 m
0 -0.31 l
o
np
130.86 109.41 m
2.89 0 l
o
np
161.77 51.45 m
2.89 0 l
o
np
163.22 51.45 m
0 -0.50 l
o
np
161.77 50.95 m
2.89 0 l
o
np
155.97 61.91 m
2.90 0 l
o
np
157.42 61.91 m
0 -0.95 l
o
np
155.97 60.96 m
2.90 0 l
o
np
150.18 124.08 m
2.89 0 l
o
np
151.62 124.08 m
0 -0.28 l
o
np
150.18 123.80 m
2.89 0 l
o
np
181.09 52.42 m
2.89 0 l
o
np
182.54 52.42 m
0 -0.01 l
o
np
181.09 52.41 m
2.89 0 l
o
np
175.29 65.23 m
2.90 0 l
o
np
176.74 65.23 m
0 -0.69 l
o
np
175.29 64.54 m
2.90 0 l
o
np
169.49 137.45 m
2.90 0 l
o
np
170.94 137.45 m
0 -0.55 l
o
np
169.49 136.90 m
2.90 0 l
o
np
200.41 54.34 m
2.89 0 l
o
np
201.86 54.34 m
0 -0.70 l
o
np
200.41 53.64 m
2.89 0 l
o
np
194.61 67.87 m
2.90 0 l
o
np
196.06 67.87 m
0 -0.04 l
o
np
194.61 67.83 m
2.90 0 l
o
np
188.81 152.05 m
2.90 0 l
o
np
190.26 152.05 m
0 -0.48 l
o
np
188.81 151.57 m
2.90 0 l
o
np
219.73 55.62 m
2.89 0 l
o
np
221.17 55.62 m
0 -0.12 l
o
np
219.73 55.50 m
2.89 0 l
o
np
213.93 71.39 m
2.90 0 l
o
np
215.38 71.39 m
0 -0.77 l
o
np
213.93 70.62 m
2.90 0 l
o
np
208.13 165.67 m
2.90 0 l
o
np
209.58 165.67 m
0 -0.17 l
o
np
208.13 165.50 m
2.90 0 l
o
np
239.05 57.02 m
2.89 0 l
o
np
240.49 57.02 m
0 -0.51 l
o
np
239.05 56.51 m
2.89 0 l
o
np
233.25 74.67 m
2.90 0 l
o
np
234.70 74.67 m
0 -0.03 l
o
np
233.25 74.64 m
2.90 0 l
o
np
227.45 179.44 m
2.90 0 l
o
np
228.90 179.44 m
0 -0.40 l
o
np
227.45 179.04 m
2.90 0 l
o
np
258.37 59.07 m
2.89 0 l
o
np
259.81 59.07 m
0 -0.83 l
o
np
258.37 58.24 m
2.89 0 l
o
np
252.57 78.30 m
2.90 0 l
o
np
254.02 78.30 m
0 -0.04 l
o
np
252.57 78.26 m
2.90 0 l
o
np
246.77 193.13 m
2.90 0 l
o
np
248.22 193.13 m
0 -0.03 l
o
np
246.77 193.10 m
2.90 0 l
o
np
277.68 60.32 m
2.90 0 l
o
np
279.13 60.32 m
0 -0.16 l
o
np
277.68 60.16 m
2.90 0 l
o
np
271.89 82.70 m
2.90 0 l
o
np
273.34 82.70 m
0 -1.53 l
o
np
271.89 81.17 m
2.90 0 l
o
np
266.09 207.69 m
2.90 0 l
o
np
267.54 207.69 m
0 -0.89 l
o
np
266.09 206.80 m
2.90 0 l
o
np
297.00 61.43 m
2.90 0 l
o
np
298.45 61.43 m
0 -0.15 l
o
np
297.00 61.28 m
2.90 0 l
o
np
291.21 86.21 m
2.90 0 l
o
np
292.66 86.21 m
0 -1.78 l
o
np
291.21 84.43 m
2.90 0 l
o
np
285.41 222.12 m
2.90 0 l
o
np
286.86 222.12 m
0 -1.03 l
o
np
285.41 221.09 m
2.90 0 l
o
np
316.32 62.68 m
2.90 0 l
o
np
317.77 62.68 m
0 -0.18 l
o
np
316.32 62.50 m
2.90 0 l
o
np
310.53 93.93 m
2.90 0 l
o
np
311.98 93.93 m
0 -6.59 l
o
np
310.53 87.34 m
2.90 0 l
o
np
304.73 236.81 m
2.90 0 l
o
np
306.18 236.81 m
0 -1.81 l
o
np
304.73 235.00 m
2.90 0 l
o
0.2000 0.2000 0.2000 srgb
1.07 setlinewidth
[] 0 setdash
1 setlinecap
38.70 32.79 295.40 213.73 r p1
0.00 0.00 432.00 252.00 cl
0.00 0.00 432.00 252.00 cl
0.00 0.00 432.00 252.00 cl
0.00 0.00 432.00 252.00 cl
0.00 0.00 432.00 252.00 cl
0.00 0.00 432.00 252.00 cl
0.00 0.00 432.00 252.00 cl
0.00 0.00 432.00 252.00 cl
0.00 0.00 432.00 252.00 cl
0.00 0.00 432.00 252.00 cl
0.00 0.00 432.00 252.00 cl
0.00 0.00 432.00 252.00 cl
0.00 0.00 432.00 252.00 cl
0.00 0.00 432.00 252.00 cl
0.00 0.00 432.00 252.00 cl
0.00 0.00 432.00 252.00 cl
/Font1 findfont 9 s
0.3020 0.3020 0.3020 srgb
33.77 39.27 (0) 1 0 t
33.77 52.22 (50) 1 0 t
33.77 65.17 (100) 1 0 t
33.77 78.12 (150) 1 0 t
33.77 91.06 (200) 1 0 t
33.77 104.01 (250) 1 0 t
33.77 116.96 (300) 1 0 t
33.77 129.90 (350) 1 0 t
33.77 142.85 (400) 1 0 t
33.77 155.80 (450) 1 0 t
33.77 168.74 (500) 1 0 t
33.77 181.69 (550) 1 0 t
33.77 194.64 (600) 1 0 t
33.77 207.58 (650) 1 0 t
33.77 220.53 (700) 1 0 t
33.77 233.48 (750) 1 0 t
0.00 0.00 432.00 252.00 cl
0.00 0.00 432.00 252.00 cl
0.2000 0.2000 0.2000 srgb
1.07 setlinewidth
[] 0 setdash
0 setlinecap
1 setlinejoin
10.00 setmiterlimit
np
35.96 42.51 m
2.74 0 l
o
np
35.96 55.45 m
2.74 0 l
o
np
35.96 68.40 m
2.74 0 l
o
np
35.96 81.35 m
2.74 0 l
o
np
35.96 94.29 m
2.74 0 l
o
np
35.96 107.24 m
2.74 0 l
o
np
35.96 120.19 m
2.74 0 l
o
np
35.96 133.13 m
2.74 0 l
o
np
35.96 146.08 m
2.74 0 l
o
np
35.96 159.03 m
2.74 0 l
o
np
35.96 171.97 m
2.74 0 l
o
np
35.96 184.92 m
2.74 0 l
o
np
35.96 197.87 m
2.74 0 l
o
np
35.96 210.82 m
2.74 0 l
o
np
35.96 223.76 m
2.74 0 l
o
np
35.96 236.71 m
2.74 0 l
o
0.00 0.00 432.00 252.00 cl
0.00 0.00 432.00 252.00 cl
0.00 0.00 432.00 252.00 cl
0.00 0.00 432.00 252.00 cl
0.00 0.00 432.00 252.00 cl
0.00 0.00 432.00 252.00 cl
0.00 0.00 432.00 252.00 cl
0.00 0.00 432.00 252.00 cl
0.00 0.00 432.00 252.00 cl
0.00 0.00 432.00 252.00 cl
0.2000 0.2000 0.2000 srgb
1.07 setlinewidth
[] 0 setdash
0 setlinecap
1 setlinejoin
10.00 setmiterlimit
np
60.82 30.05 m
0 2.74 l
o
np
80.14 30.05 m
0 2.74 l
o
np
99.46 30.05 m
0 2.74 l
o
np
118.78 30.05 m
0 2.74 l
o
np
138.10 30.05 m
0 2.74 l
o
np
157.42 30.05 m
0 2.74 l
o
np
176.74 30.05 m
0 2.74 l
o
np
196.06 30.05 m
0 2.74 l
o
np
215.38 30.05 m
0 2.74 l
o
np
234.70 30.05 m
0 2.74 l
o
np
254.02 30.05 m
0 2.74 l
o
np
273.34 30.05 m
0 2.74 l
o
np
292.66 30.05 m
0 2.74 l
o
np
311.98 30.05 m
0 2.74 l
o
0.00 0.00 432.00 252.00 cl
0.00 0.00 432.00 252.00 cl
/Font1 findfont 9 s
0.3020 0.3020 0.3020 srgb
60.82 21.40 (0) .5 0 t
80.14 21.40 (10) .5 0 t
99.46 21.40 (20) .5 0 t
118.78 21.40 (30) .5 0 t
138.10 21.40 (40) .5 0 t
157.42 21.40 (50) .5 0 t
176.74 21.40 (60) .5 0 t
196.06 21.40 (70) .5 0 t
215.38 21.40 (80) .5 0 t
234.70 21.40 (90) .5 0 t
254.02 21.40 (100) .5 0 t
273.34 21.40 (110) .5 0 t
292.66 21.40 (120) .5 0 t
311.98 21.40 (130) .5 0 t
0.00 0.00 432.00 252.00 cl
0.00 0.00 432.00 252.00 cl
0.00 0.00 432.00 252.00 cl
0.00 0.00 432.00 252.00 cl
0.00 0.00 432.00 252.00 cl
0.00 0.00 432.00 252.00 cl
/Font1 findfont 11 s
0 0 0 srgb
126.80 8.12 (Em) 0 ta
-0.110 (ulated link dela) tb
-0.330 (y [ms]) tb gr
0.00 0.00 432.00 252.00 cl
0.00 0.00 432.00 252.00 cl
/Font1 findfont 11 s
0 0 0 srgb
13.38 88.30 (Mean star) 90 ta
0.440 (tup time [s]) tb gr
0.00 0.00 432.00 252.00 cl
0.00 0.00 432.00 252.00 cl
0.00 0.00 432.00 252.00 cl
0.00 0.00 432.00 252.00 cl
0.00 0.00 432.00 252.00 cl
0.00 0.00 432.00 252.00 cl
0.00 0.00 432.00 252.00 cl
0.00 0.00 432.00 252.00 cl
/bg { 1 1 1 srgb } def
345.06 100.25 81.46 78.82 r p2
0.00 0.00 432.00 252.00 cl
0.00 0.00 432.00 252.00 cl
0.00 0.00 432.00 252.00 cl
0.00 0.00 432.00 252.00 cl
0.00 0.00 432.00 252.00 cl
0.00 0.00 432.00 252.00 cl
0.00 0.00 432.00 252.00 cl
/bg { 1 1 1 srgb } def
350.54 140.29 17.28 17.28 r p2
0.00 0.00 432.00 252.00 cl
0.00 0.00 432.00 252.00 cl
/bg { 0.9725 0.4627 0.4275 srgb } def
351.25 141.00 15.86 15.86 r p2
0.00 0.00 432.00 252.00 cl
0.00 0.00 432.00 252.00 cl
/bg { 1 1 1 srgb } def
350.54 123.01 17.28 17.28 r p2
0.00 0.00 432.00 252.00 cl
0.00 0.00 432.00 252.00 cl
/bg { 0 0.7294 0.2196 srgb } def
351.25 123.72 15.86 15.86 r p2
0.00 0.00 432.00 252.00 cl
0.00 0.00 432.00 252.00 cl
/bg { 1 1 1 srgb } def
350.54 105.73 17.28 17.28 r p2
0.00 0.00 432.00 252.00 cl
0.00 0.00 432.00 252.00 cl
/bg { 0.3804 0.6118 1 srgb } def
351.25 106.44 15.86 15.86 r p2
0.00 0.00 432.00 252.00 cl
0.00 0.00 432.00 252.00 cl
0.00 0.00 432.00 252.00 cl
0.00 0.00 432.00 252.00 cl
/Font1 findfont 9 s
0 0 0 srgb
373.30 145.70 (Star) 0 ta
0.360 (tup) tb gr
0.00 0.00 432.00 252.00 cl
0.00 0.00 432.00 252.00 cl
0.00 0.00 432.00 252.00 cl
0.00 0.00 432.00 252.00 cl
0.00 0.00 432.00 252.00 cl
/Font1 findfont 9 s
0 0 0 srgb
373.30 128.42 (Deplo) 0 ta
-0.270 (yment) tb gr
0.00 0.00 432.00 252.00 cl
0.00 0.00 432.00 252.00 cl
0.00 0.00 432.00 252.00 cl
0.00 0.00 432.00 252.00 cl
0.00 0.00 432.00 252.00 cl
/Font1 findfont 9 s
0 0 0 srgb
373.30 111.14 (Deletion) 0 0 t
0.00 0.00 432.00 252.00 cl
0.00 0.00 432.00 252.00 cl
0.00 0.00 432.00 252.00 cl
0.00 0.00 432.00 252.00 cl
0.00 0.00 432.00 252.00 cl
0.00 0.00 432.00 252.00 cl
0.00 0.00 432.00 252.00 cl
0.00 0.00 432.00 252.00 cl
0.00 0.00 432.00 252.00 cl
0.00 0.00 432.00 252.00 cl
0.00 0.00 432.00 252.00 cl
0.00 0.00 432.00 252.00 cl
0.00 0.00 432.00 252.00 cl
ep
%%Trailer
%%Pages: 1
%%EOF
