%!PS-Adobe-3.0 EPSF-3.0
%%DocumentNeededResources: font Helvetica
%%+ font Helvetica-Bold
%%+ font Helvetica-Oblique
%%+ font Helvetica-BoldOblique
%%+ font Symbol
%%Title: R Graphics Output
%%Creator: R Software
%%Pages: (atend)
%%BoundingBox: 0 0 432 252
%%EndComments
%%BeginProlog
/bp  { gs sRGB gs } def
% begin .ps.prolog
/gs  { gsave } bind def
/gr  { grestore } bind def
/ep  { showpage gr gr } bind def
/m   { moveto } bind def
/l  { rlineto } bind def
/np  { newpath } bind def
/cp  { closepath } bind def
/f   { fill } bind def
/o   { stroke } bind def
/c   { newpath 0 360 arc } bind def
/r   { 4 2 roll moveto 1 copy 3 -1 roll exch 0 exch rlineto 0 rlineto -1 mul 0 exch rlineto closepath } bind def
/p1  { stroke } bind def
/p2  { gsave bg fill grestore newpath } bind def
/p3  { gsave bg fill grestore stroke } bind def
/p6  { gsave bg eofill grestore newpath } bind def
/p7  { gsave bg eofill grestore stroke } bind def
/t   { 5 -2 roll moveto gsave rotate
       1 index stringwidth pop
       mul neg 0 rmoveto show grestore } bind def
/ta  { 4 -2 roll moveto gsave rotate show } bind def
/tb  { 2 -1 roll 0 rmoveto show } bind def
/cl  { grestore gsave newpath 3 index 3 index moveto 1 index
       4 -1 roll lineto  exch 1 index lineto lineto
       closepath clip newpath } bind def
/rgb { setrgbcolor } bind def
/s   { scalefont setfont } bind def
% end   .ps.prolog
/sRGB { [ /CIEBasedABC
          << /DecodeLMN
               [ { dup 0.03928 le
                        {12.92321 div}
                        {0.055 add 1.055 div 2.4 exp }
                     ifelse
                 } bind dup dup
               ]
             /MatrixLMN [0.412457 0.212673 0.019334
                         0.357576 0.715152 0.119192
                         0.180437 0.072175 0.950301]
             /WhitePoint [0.9505 1.0 1.0890]
           >>
         ] setcolorspace } bind def
/srgb { setcolor } bind def
%%IncludeResource: font Helvetica
/Helvetica findfont
dup length dict begin
  {1 index /FID ne {def} {pop pop} ifelse} forall
  /Encoding ISOLatin1Encoding def
  currentdict
  end
/Font1 exch definefont pop
%%IncludeResource: font Helvetica-Bold
/Helvetica-Bold findfont
dup length dict begin
  {1 index /FID ne {def} {pop pop} ifelse} forall
  /Encoding ISOLatin1Encoding def
  currentdict
  end
/Font2 exch definefont pop
%%IncludeResource: font Helvetica-Oblique
/Helvetica-Oblique findfont
dup length dict begin
  {1 index /FID ne {def} {pop pop} ifelse} forall
  /Encoding ISOLatin1Encoding def
  currentdict
  end
/Font3 exch definefont pop
%%IncludeResource: font Helvetica-BoldOblique
/Helvetica-BoldOblique findfont
dup length dict begin
  {1 index /FID ne {def} {pop pop} ifelse} forall
  /Encoding ISOLatin1Encoding def
  currentdict
  end
/Font4 exch definefont pop
%%IncludeResource: font Symbol
/Symbol findfont
dup length dict begin
  {1 index /FID ne {def} {pop pop} ifelse} forall
  currentdict
  end
/Font5 exch definefont pop
%%EndProlog
%%Page: 1 1
bp
0.00 0.00 432.00 252.00 cl
0.00 0.00 432.00 252.00 cl
0.00 0.00 432.00 252.00 cl
0.00 0.00 432.00 252.00 cl
0.00 0.00 432.00 252.00 cl
0.00 0.00 432.00 252.00 cl
0.00 0.00 432.00 252.00 cl
0.00 0.00 432.00 252.00 cl
0.00 0.00 432.00 252.00 cl
0.00 0.00 432.00 252.00 cl
/bg { 1 1 1 srgb } def
1 1 1 srgb
1.07 setlinewidth
[] 0 setdash
1 setlinecap
1 setlinejoin
10.00 setmiterlimit
0.00 0.00 432.00 252.00 r p3
0.00 0.00 432.00 252.00 cl
28.69 32.79 426.52 246.52 cl
/bg { 1 1 1 srgb } def
28.69 32.79 397.83 213.73 r p2
0.9216 0.9216 0.9216 srgb
0.53 setlinewidth
[] 0 setdash
0 setlinecap
1 setlinejoin
10.00 setmiterlimit
np
28.69 79.98 m
397.83 0 l
o
np
28.69 139.83 m
397.83 0 l
o
np
28.69 199.68 m
397.83 0 l
o
np
70.36 32.79 m
0 213.73 l
o
np
130.84 32.79 m
0 213.73 l
o
np
191.32 32.79 m
0 213.73 l
o
np
251.80 32.79 m
0 213.73 l
o
np
312.28 32.79 m
0 213.73 l
o
np
372.76 32.79 m
0 213.73 l
o
1.07 setlinewidth
[] 0 setdash
np
28.69 50.06 m
397.83 0 l
o
np
28.69 109.91 m
397.83 0 l
o
np
28.69 169.75 m
397.83 0 l
o
np
28.69 229.60 m
397.83 0 l
o
np
40.12 32.79 m
0 213.73 l
o
np
100.60 32.79 m
0 213.73 l
o
np
161.08 32.79 m
0 213.73 l
o
np
221.56 32.79 m
0 213.73 l
o
np
282.04 32.79 m
0 213.73 l
o
np
342.52 32.79 m
0 213.73 l
o
np
402.99 32.79 m
0 213.73 l
o
/bg { 0.9725 0.4627 0.4275 srgb } def
46.78 50.06 10.89 0.00 r p2
58.87 50.06 10.89 0.00 r p2
70.97 50.06 10.89 0.00 r p2
83.06 50.06 10.89 0.00 r p2
95.16 50.06 10.89 0.00 r p2
107.25 50.06 10.89 0.00 r p2
119.35 50.06 10.89 0.00 r p2
131.45 50.06 10.89 0.00 r p2
143.54 50.06 10.89 0.00 r p2
155.64 50.06 10.89 0.00 r p2
167.73 50.06 10.89 0.00 r p2
179.83 50.06 10.89 0.00 r p2
191.92 50.06 10.89 0.00 r p2
204.02 50.06 10.89 0.00 r p2
216.12 50.06 10.89 2.99 r p2
228.21 50.06 10.89 0.00 r p2
240.31 50.06 10.89 2.99 r p2
252.40 50.06 10.89 2.99 r p2
264.50 50.06 10.89 8.98 r p2
276.59 50.06 10.89 2.99 r p2
288.69 50.06 10.89 2.99 r p2
300.79 50.06 10.89 5.98 r p2
312.88 50.06 10.89 0.00 r p2
324.98 50.06 10.89 14.96 r p2
337.07 50.06 10.89 17.95 r p2
349.17 50.06 10.89 32.92 r p2
361.26 50.06 10.89 26.93 r p2
373.36 50.06 10.89 44.89 r p2
385.46 50.06 10.89 71.82 r p2
397.55 50.06 10.89 98.75 r p2
0 0 0 srgb
0.43 setlinewidth
[] 0 setdash
np
49.50 50.06 m
5.44 0 l
o
np
52.22 50.06 m
0 0 l
o
np
49.50 50.06 m
5.44 0 l
o
np
61.59 50.06 m
5.45 0 l
o
np
64.31 50.06 m
0 0 l
o
np
61.59 50.06 m
5.45 0 l
o
np
73.69 50.06 m
5.44 0 l
o
np
76.41 50.06 m
0 0 l
o
np
73.69 50.06 m
5.44 0 l
o
np
85.78 50.06 m
5.45 0 l
o
np
88.51 50.06 m
0 0 l
o
np
85.78 50.06 m
5.45 0 l
o
np
97.88 50.06 m
5.44 0 l
o
np
100.60 50.06 m
0 0 l
o
np
97.88 50.06 m
5.44 0 l
o
np
109.98 50.06 m
5.44 0 l
o
np
112.70 50.06 m
0 0 l
o
np
109.98 50.06 m
5.44 0 l
o
np
122.07 50.06 m
5.44 0 l
o
np
124.79 50.06 m
0 0 l
o
np
122.07 50.06 m
5.44 0 l
o
np
134.17 50.06 m
5.44 0 l
o
np
136.89 50.06 m
0 0 l
o
np
134.17 50.06 m
5.44 0 l
o
np
146.26 50.06 m
5.45 0 l
o
np
148.98 50.06 m
0 0 l
o
np
146.26 50.06 m
5.45 0 l
o
np
158.36 50.06 m
5.44 0 l
o
np
161.08 50.06 m
0 0 l
o
np
158.36 50.06 m
5.44 0 l
o
np
170.45 50.06 m
5.45 0 l
o
np
173.18 50.06 m
0 0 l
o
np
170.45 50.06 m
5.45 0 l
o
np
182.55 50.06 m
5.44 0 l
o
np
185.27 50.06 m
0 0 l
o
np
182.55 50.06 m
5.44 0 l
o
np
194.65 50.06 m
5.44 0 l
o
np
197.37 50.06 m
0 0 l
o
np
194.65 50.06 m
5.44 0 l
o
np
206.74 50.06 m
5.44 0 l
o
np
209.46 50.06 m
0 0 l
o
np
206.74 50.06 m
5.44 0 l
o
np
218.84 59.82 m
5.44 0 l
o
np
221.56 59.82 m
0 -13.54 l
o
np
218.84 46.28 m
5.44 0 l
o
np
230.93 50.06 m
5.45 0 l
o
np
233.65 50.06 m
0 0 l
o
np
230.93 50.06 m
5.45 0 l
o
np
243.03 59.82 m
5.44 0 l
o
np
245.75 59.82 m
0 -13.54 l
o
np
243.03 46.28 m
5.44 0 l
o
np
255.12 59.82 m
5.45 0 l
o
np
257.85 59.82 m
0 -13.54 l
o
np
255.12 46.28 m
5.45 0 l
o
np
267.22 73.48 m
5.44 0 l
o
np
269.94 73.48 m
0 -28.89 l
o
np
267.22 44.59 m
5.44 0 l
o
np
279.32 59.82 m
5.44 0 l
o
np
282.04 59.82 m
0 -13.54 l
o
np
279.32 46.28 m
5.44 0 l
o
np
291.41 59.82 m
5.44 0 l
o
np
294.13 59.82 m
0 -13.54 l
o
np
291.41 46.28 m
5.44 0 l
o
np
303.51 69.58 m
5.44 0 l
o
np
306.23 69.58 m
0 -27.07 l
o
np
303.51 42.51 m
5.44 0 l
o
np
315.60 50.06 m
5.45 0 l
o
np
318.32 50.06 m
0 0 l
o
np
315.60 50.06 m
5.45 0 l
o
np
327.70 83.21 m
5.44 0 l
o
np
330.42 83.21 m
0 -36.38 l
o
np
327.70 46.83 m
5.44 0 l
o
np
339.79 86.06 m
5.45 0 l
o
np
342.52 86.06 m
0 -36.10 l
o
np
339.79 49.96 m
5.45 0 l
o
np
351.89 118.58 m
5.44 0 l
o
np
354.61 118.58 m
0 -71.21 l
o
np
351.89 47.37 m
5.44 0 l
o
np
363.99 102.62 m
5.44 0 l
o
np
366.71 102.62 m
0 -51.26 l
o
np
363.99 51.36 m
5.44 0 l
o
np
376.08 131.68 m
5.44 0 l
o
np
378.80 131.68 m
0 -73.47 l
o
np
376.08 58.21 m
5.44 0 l
o
np
388.18 174.50 m
5.44 0 l
o
np
390.90 174.50 m
0 -105.25 l
o
np
388.18 69.25 m
5.44 0 l
o
np
400.27 236.81 m
5.45 0 l
o
np
402.99 236.81 m
0 -176.00 l
o
np
400.27 60.81 m
5.45 0 l
o
0.2000 0.2000 0.2000 srgb
1.07 setlinewidth
[] 0 setdash
1 setlinecap
28.69 32.79 397.83 213.73 r p1
0.00 0.00 432.00 252.00 cl
0.00 0.00 432.00 252.00 cl
0.00 0.00 432.00 252.00 cl
0.00 0.00 432.00 252.00 cl
0.00 0.00 432.00 252.00 cl
0.00 0.00 432.00 252.00 cl
0.00 0.00 432.00 252.00 cl
0.00 0.00 432.00 252.00 cl
0.00 0.00 432.00 252.00 cl
0.00 0.00 432.00 252.00 cl
0.00 0.00 432.00 252.00 cl
0.00 0.00 432.00 252.00 cl
0.00 0.00 432.00 252.00 cl
0.00 0.00 432.00 252.00 cl
0.00 0.00 432.00 252.00 cl
0.00 0.00 432.00 252.00 cl
/Font1 findfont 9 s
0.3020 0.3020 0.3020 srgb
23.76 46.83 (0) 1 0 t
23.76 106.68 (2) 1 0 t
23.76 166.52 (4) 1 0 t
23.76 226.37 (6) 1 0 t
0.00 0.00 432.00 252.00 cl
0.00 0.00 432.00 252.00 cl
0.2000 0.2000 0.2000 srgb
1.07 setlinewidth
[] 0 setdash
0 setlinecap
1 setlinejoin
10.00 setmiterlimit
np
25.95 50.06 m
2.74 0 l
o
np
25.95 109.91 m
2.74 0 l
o
np
25.95 169.75 m
2.74 0 l
o
np
25.95 229.60 m
2.74 0 l
o
0.00 0.00 432.00 252.00 cl
0.00 0.00 432.00 252.00 cl
0.00 0.00 432.00 252.00 cl
0.00 0.00 432.00 252.00 cl
0.00 0.00 432.00 252.00 cl
0.00 0.00 432.00 252.00 cl
0.00 0.00 432.00 252.00 cl
0.00 0.00 432.00 252.00 cl
0.00 0.00 432.00 252.00 cl
0.00 0.00 432.00 252.00 cl
0.2000 0.2000 0.2000 srgb
1.07 setlinewidth
[] 0 setdash
0 setlinecap
1 setlinejoin
10.00 setmiterlimit
np
40.12 30.05 m
0 2.74 l
o
np
100.60 30.05 m
0 2.74 l
o
np
161.08 30.05 m
0 2.74 l
o
np
221.56 30.05 m
0 2.74 l
o
np
282.04 30.05 m
0 2.74 l
o
np
342.52 30.05 m
0 2.74 l
o
np
402.99 30.05 m
0 2.74 l
o
0.00 0.00 432.00 252.00 cl
0.00 0.00 432.00 252.00 cl
/Font1 findfont 9 s
0.3020 0.3020 0.3020 srgb
40.12 21.40 (0) .5 0 t
100.60 21.40 (5) .5 0 t
161.08 21.40 (10) .5 0 t
221.56 21.40 (15) .5 0 t
282.04 21.40 (20) .5 0 t
342.52 21.40 (25) .5 0 t
402.99 21.40 (30) .5 0 t
0.00 0.00 432.00 252.00 cl
0.00 0.00 432.00 252.00 cl
0.00 0.00 432.00 252.00 cl
0.00 0.00 432.00 252.00 cl
0.00 0.00 432.00 252.00 cl
0.00 0.00 432.00 252.00 cl
/Font1 findfont 11 s
0 0 0 srgb
142.94 8.12 (Number of par) 0 ta
-0.110 (allelly deplo) tb
-0.330 (y) tb
-0.220 (ed NSs) tb gr
0.00 0.00 432.00 252.00 cl
0.00 0.00 432.00 252.00 cl
/Font1 findfont 11 s
0 0 0 srgb
13.38 52.23 (Mean n) 90 ta
-0.110 (umber of f) tb
-0.330 (ailed deplo) tb
-0.330 (yments) tb gr
0.00 0.00 432.00 252.00 cl
0.00 0.00 432.00 252.00 cl
0.00 0.00 432.00 252.00 cl
0.00 0.00 432.00 252.00 cl
0.00 0.00 432.00 252.00 cl
0.00 0.00 432.00 252.00 cl
0.00 0.00 432.00 252.00 cl
0.00 0.00 432.00 252.00 cl
0.00 0.00 432.00 252.00 cl
0.00 0.00 432.00 252.00 cl
0.00 0.00 432.00 252.00 cl
0.00 0.00 432.00 252.00 cl
ep
%%Trailer
%%Pages: 1
%%EOF
