%!PS-Adobe-3.0 EPSF-3.0
%%DocumentNeededResources: font Helvetica
%%+ font Helvetica-Bold
%%+ font Helvetica-Oblique
%%+ font Helvetica-BoldOblique
%%+ font Symbol
%%Title: R Graphics Output
%%Creator: R Software
%%Pages: (atend)
%%BoundingBox: 0 0 432 252
%%EndComments
%%BeginProlog
/bp  { gs sRGB gs } def
% begin .ps.prolog
/gs  { gsave } bind def
/gr  { grestore } bind def
/ep  { showpage gr gr } bind def
/m   { moveto } bind def
/l  { rlineto } bind def
/np  { newpath } bind def
/cp  { closepath } bind def
/f   { fill } bind def
/o   { stroke } bind def
/c   { newpath 0 360 arc } bind def
/r   { 4 2 roll moveto 1 copy 3 -1 roll exch 0 exch rlineto 0 rlineto -1 mul 0 exch rlineto closepath } bind def
/p1  { stroke } bind def
/p2  { gsave bg fill grestore newpath } bind def
/p3  { gsave bg fill grestore stroke } bind def
/p6  { gsave bg eofill grestore newpath } bind def
/p7  { gsave bg eofill grestore stroke } bind def
/t   { 5 -2 roll moveto gsave rotate
       1 index stringwidth pop
       mul neg 0 rmoveto show grestore } bind def
/ta  { 4 -2 roll moveto gsave rotate show } bind def
/tb  { 2 -1 roll 0 rmoveto show } bind def
/cl  { grestore gsave newpath 3 index 3 index moveto 1 index
       4 -1 roll lineto  exch 1 index lineto lineto
       closepath clip newpath } bind def
/rgb { setrgbcolor } bind def
/s   { scalefont setfont } bind def
% end   .ps.prolog
/sRGB { [ /CIEBasedABC
          << /DecodeLMN
               [ { dup 0.03928 le
                        {12.92321 div}
                        {0.055 add 1.055 div 2.4 exp }
                     ifelse
                 } bind dup dup
               ]
             /MatrixLMN [0.412457 0.212673 0.019334
                         0.357576 0.715152 0.119192
                         0.180437 0.072175 0.950301]
             /WhitePoint [0.9505 1.0 1.0890]
           >>
         ] setcolorspace } bind def
/srgb { setcolor } bind def
%%IncludeResource: font Helvetica
/Helvetica findfont
dup length dict begin
  {1 index /FID ne {def} {pop pop} ifelse} forall
  /Encoding ISOLatin1Encoding def
  currentdict
  end
/Font1 exch definefont pop
%%IncludeResource: font Helvetica-Bold
/Helvetica-Bold findfont
dup length dict begin
  {1 index /FID ne {def} {pop pop} ifelse} forall
  /Encoding ISOLatin1Encoding def
  currentdict
  end
/Font2 exch definefont pop
%%IncludeResource: font Helvetica-Oblique
/Helvetica-Oblique findfont
dup length dict begin
  {1 index /FID ne {def} {pop pop} ifelse} forall
  /Encoding ISOLatin1Encoding def
  currentdict
  end
/Font3 exch definefont pop
%%IncludeResource: font Helvetica-BoldOblique
/Helvetica-BoldOblique findfont
dup length dict begin
  {1 index /FID ne {def} {pop pop} ifelse} forall
  /Encoding ISOLatin1Encoding def
  currentdict
  end
/Font4 exch definefont pop
%%IncludeResource: font Symbol
/Symbol findfont
dup length dict begin
  {1 index /FID ne {def} {pop pop} ifelse} forall
  currentdict
  end
/Font5 exch definefont pop
%%EndProlog
%%Page: 1 1
bp
0.00 0.00 432.00 252.00 cl
0.00 0.00 432.00 252.00 cl
0.00 0.00 432.00 252.00 cl
0.00 0.00 432.00 252.00 cl
0.00 0.00 432.00 252.00 cl
0.00 0.00 432.00 252.00 cl
0.00 0.00 432.00 252.00 cl
0.00 0.00 432.00 252.00 cl
0.00 0.00 432.00 252.00 cl
0.00 0.00 432.00 252.00 cl
0.00 0.00 432.00 252.00 cl
0.00 0.00 432.00 252.00 cl
0.00 0.00 432.00 252.00 cl
0.00 0.00 432.00 252.00 cl
0.00 0.00 432.00 252.00 cl
0.00 0.00 432.00 252.00 cl
/bg { 1 1 1 srgb } def
1 1 1 srgb
1.07 setlinewidth
[] 0 setdash
1 setlinecap
1 setlinejoin
10.00 setmiterlimit
0.00 0.00 432.00 252.00 r p3
0.00 0.00 432.00 252.00 cl
28.69 32.79 351.34 246.52 cl
/bg { 1 1 1 srgb } def
28.69 32.79 322.65 213.73 r p2
0.9216 0.9216 0.9216 srgb
0.53 setlinewidth
[] 0 setdash
0 setlinecap
1 setlinejoin
10.00 setmiterlimit
np
28.69 68.71 m
322.65 0 l
o
np
28.69 121.13 m
322.65 0 l
o
np
28.69 173.54 m
322.65 0 l
o
np
28.69 225.96 m
322.65 0 l
o
np
32.53 32.79 m
0 213.73 l
o
np
42.37 32.79 m
0 213.73 l
o
np
62.06 32.79 m
0 213.73 l
o
np
81.75 32.79 m
0 213.73 l
o
np
101.43 32.79 m
0 213.73 l
o
np
121.12 32.79 m
0 213.73 l
o
np
140.80 32.79 m
0 213.73 l
o
np
160.49 32.79 m
0 213.73 l
o
np
180.17 32.79 m
0 213.73 l
o
np
199.86 32.79 m
0 213.73 l
o
np
219.55 32.79 m
0 213.73 l
o
np
239.23 32.79 m
0 213.73 l
o
np
258.92 32.79 m
0 213.73 l
o
np
278.60 32.79 m
0 213.73 l
o
np
298.29 32.79 m
0 213.73 l
o
np
317.97 32.79 m
0 213.73 l
o
np
337.66 32.79 m
0 213.73 l
o
np
347.50 32.79 m
0 213.73 l
o
1.07 setlinewidth
[] 0 setdash
np
28.69 42.51 m
322.65 0 l
o
np
28.69 94.92 m
322.65 0 l
o
np
28.69 147.34 m
322.65 0 l
o
np
28.69 199.75 m
322.65 0 l
o
np
52.22 32.79 m
0 213.73 l
o
np
71.90 32.79 m
0 213.73 l
o
np
91.59 32.79 m
0 213.73 l
o
np
111.27 32.79 m
0 213.73 l
o
np
130.96 32.79 m
0 213.73 l
o
np
150.65 32.79 m
0 213.73 l
o
np
170.33 32.79 m
0 213.73 l
o
np
190.02 32.79 m
0 213.73 l
o
np
209.70 32.79 m
0 213.73 l
o
np
229.39 32.79 m
0 213.73 l
o
np
249.07 32.79 m
0 213.73 l
o
np
268.76 32.79 m
0 213.73 l
o
np
288.45 32.79 m
0 213.73 l
o
np
308.13 32.79 m
0 213.73 l
o
np
327.82 32.79 m
0 213.73 l
o
/bg { 0 0.7490 0.7686 srgb } def
52.22 42.51 8.86 189.11 r p2
/bg { 0.9725 0.4627 0.4275 srgb } def
43.36 42.51 8.86 190.45 r p2
/bg { 0 0.7490 0.7686 srgb } def
71.90 42.51 8.86 189.58 r p2
/bg { 0.9725 0.4627 0.4275 srgb } def
63.04 42.51 8.86 152.20 r p2
/bg { 0 0.7490 0.7686 srgb } def
91.59 42.51 8.86 189.77 r p2
/bg { 0.9725 0.4627 0.4275 srgb } def
82.73 42.51 8.86 129.15 r p2
/bg { 0 0.7490 0.7686 srgb } def
111.27 42.51 8.86 190.38 r p2
/bg { 0.9725 0.4627 0.4275 srgb } def
102.42 42.51 8.86 110.65 r p2
/bg { 0 0.7490 0.7686 srgb } def
130.96 42.51 8.86 189.83 r p2
/bg { 0.9725 0.4627 0.4275 srgb } def
122.10 42.51 8.86 98.90 r p2
/bg { 0 0.7490 0.7686 srgb } def
150.65 42.51 8.86 188.03 r p2
/bg { 0.9725 0.4627 0.4275 srgb } def
141.79 42.51 8.86 90.49 r p2
/bg { 0 0.7490 0.7686 srgb } def
170.33 42.51 8.86 187.70 r p2
/bg { 0.9725 0.4627 0.4275 srgb } def
161.47 42.51 8.86 83.49 r p2
/bg { 0 0.7490 0.7686 srgb } def
190.02 42.51 8.86 186.66 r p2
/bg { 0.9725 0.4627 0.4275 srgb } def
181.16 42.51 8.86 77.79 r p2
/bg { 0 0.7490 0.7686 srgb } def
209.70 42.51 8.86 189.76 r p2
/bg { 0.9725 0.4627 0.4275 srgb } def
200.84 42.51 8.86 73.06 r p2
/bg { 0 0.7490 0.7686 srgb } def
229.39 42.51 8.86 186.69 r p2
/bg { 0.9725 0.4627 0.4275 srgb } def
220.53 42.51 8.86 67.36 r p2
/bg { 0 0.7490 0.7686 srgb } def
249.07 42.51 8.86 190.53 r p2
/bg { 0.9725 0.4627 0.4275 srgb } def
240.22 42.51 8.86 63.79 r p2
/bg { 0 0.7490 0.7686 srgb } def
268.76 42.51 8.86 189.72 r p2
/bg { 0.9725 0.4627 0.4275 srgb } def
259.90 42.51 8.86 59.78 r p2
/bg { 0 0.7490 0.7686 srgb } def
288.45 42.51 8.86 191.51 r p2
/bg { 0.9725 0.4627 0.4275 srgb } def
279.59 42.51 8.86 55.95 r p2
/bg { 0 0.7490 0.7686 srgb } def
308.13 42.51 8.86 191.08 r p2
/bg { 0.9725 0.4627 0.4275 srgb } def
299.27 42.51 8.86 53.07 r p2
/bg { 0 0.7490 0.7686 srgb } def
327.82 42.51 8.86 192.20 r p2
/bg { 0.9725 0.4627 0.4275 srgb } def
318.96 42.51 8.86 50.31 r p2
0 0 0 srgb
0.43 setlinewidth
[] 0 setdash
np
54.43 232.73 m
4.43 0 l
o
np
56.65 232.73 m
0 -2.24 l
o
np
54.43 230.49 m
4.43 0 l
o
np
45.57 235.33 m
4.43 0 l
o
np
47.79 235.33 m
0 -4.75 l
o
np
45.57 230.58 m
4.43 0 l
o
np
74.12 234.71 m
4.43 0 l
o
np
76.33 234.71 m
0 -5.25 l
o
np
74.12 229.46 m
4.43 0 l
o
np
65.26 196.21 m
4.43 0 l
o
np
67.47 196.21 m
0 -3.01 l
o
np
65.26 193.20 m
4.43 0 l
o
np
93.80 233.55 m
4.43 0 l
o
np
96.02 233.55 m
0 -2.55 l
o
np
93.80 231.00 m
4.43 0 l
o
np
84.94 172.94 m
4.43 0 l
o
np
87.16 172.94 m
0 -2.57 l
o
np
84.94 170.37 m
4.43 0 l
o
np
113.49 235.43 m
4.43 0 l
o
np
115.70 235.43 m
0 -5.10 l
o
np
113.49 230.33 m
4.43 0 l
o
np
104.63 154.39 m
4.43 0 l
o
np
106.85 154.39 m
0 -2.47 l
o
np
104.63 151.92 m
4.43 0 l
o
np
133.17 234.12 m
4.43 0 l
o
np
135.39 234.12 m
0 -3.57 l
o
np
133.17 230.55 m
4.43 0 l
o
np
124.32 142.23 m
4.43 0 l
o
np
126.53 142.23 m
0 -1.66 l
o
np
124.32 140.57 m
4.43 0 l
o
np
152.86 232.56 m
4.43 0 l
o
np
155.08 232.56 m
0 -4.05 l
o
np
152.86 228.51 m
4.43 0 l
o
np
144.00 134.02 m
4.43 0 l
o
np
146.22 134.02 m
0 -2.05 l
o
np
144.00 131.97 m
4.43 0 l
o
np
172.55 232.70 m
4.43 0 l
o
np
174.76 232.70 m
0 -4.98 l
o
np
172.55 227.72 m
4.43 0 l
o
np
163.69 126.61 m
4.43 0 l
o
np
165.90 126.61 m
0 -1.22 l
o
np
163.69 125.39 m
4.43 0 l
o
np
192.23 231.98 m
4.43 0 l
o
np
194.45 231.98 m
0 -5.63 l
o
np
192.23 226.35 m
4.43 0 l
o
np
183.37 121.06 m
4.43 0 l
o
np
185.59 121.06 m
0 -1.53 l
o
np
183.37 119.53 m
4.43 0 l
o
np
211.92 234.75 m
4.43 0 l
o
np
214.13 234.75 m
0 -4.96 l
o
np
211.92 229.79 m
4.43 0 l
o
np
203.06 116.24 m
4.43 0 l
o
np
205.27 116.24 m
0 -1.36 l
o
np
203.06 114.88 m
4.43 0 l
o
np
231.60 231.68 m
4.43 0 l
o
np
233.82 231.68 m
0 -4.97 l
o
np
231.60 226.71 m
4.43 0 l
o
np
222.75 110.47 m
4.42 0 l
o
np
224.96 110.47 m
0 -1.21 l
o
np
222.75 109.26 m
4.42 0 l
o
np
251.29 235.79 m
4.43 0 l
o
np
253.50 235.79 m
0 -5.51 l
o
np
251.29 230.28 m
4.43 0 l
o
np
242.43 106.93 m
4.43 0 l
o
np
244.65 106.93 m
0 -1.26 l
o
np
242.43 105.67 m
4.43 0 l
o
np
270.98 234.01 m
4.42 0 l
o
np
273.19 234.01 m
0 -3.57 l
o
np
270.98 230.44 m
4.42 0 l
o
np
262.12 103.13 m
4.43 0 l
o
np
264.33 103.13 m
0 -1.69 l
o
np
262.12 101.44 m
4.43 0 l
o
np
290.66 236.56 m
4.43 0 l
o
np
292.88 236.56 m
0 -5.08 l
o
np
290.66 231.48 m
4.43 0 l
o
np
281.80 99.08 m
4.43 0 l
o
np
284.02 99.08 m
0 -1.24 l
o
np
281.80 97.84 m
4.43 0 l
o
np
310.35 235.60 m
4.43 0 l
o
np
312.56 235.60 m
0 -4.02 l
o
np
310.35 231.58 m
4.43 0 l
o
np
301.49 96.26 m
4.43 0 l
o
np
303.70 96.26 m
0 -1.38 l
o
np
301.49 94.88 m
4.43 0 l
o
np
330.03 236.81 m
4.43 0 l
o
np
332.25 236.81 m
0 -4.21 l
o
np
330.03 232.60 m
4.43 0 l
o
np
321.17 93.31 m
4.43 0 l
o
np
323.39 93.31 m
0 -1.00 l
o
np
321.17 92.31 m
4.43 0 l
o
0.2000 0.2000 0.2000 srgb
1.07 setlinewidth
[] 0 setdash
1 setlinecap
28.69 32.79 322.65 213.73 r p1
0.00 0.00 432.00 252.00 cl
0.00 0.00 432.00 252.00 cl
0.00 0.00 432.00 252.00 cl
0.00 0.00 432.00 252.00 cl
0.00 0.00 432.00 252.00 cl
0.00 0.00 432.00 252.00 cl
0.00 0.00 432.00 252.00 cl
0.00 0.00 432.00 252.00 cl
0.00 0.00 432.00 252.00 cl
0.00 0.00 432.00 252.00 cl
0.00 0.00 432.00 252.00 cl
0.00 0.00 432.00 252.00 cl
0.00 0.00 432.00 252.00 cl
0.00 0.00 432.00 252.00 cl
0.00 0.00 432.00 252.00 cl
0.00 0.00 432.00 252.00 cl
/Font1 findfont 9 s
0.3020 0.3020 0.3020 srgb
23.76 39.27 (0) 1 0 t
23.76 91.69 (1) 1 0 t
23.76 144.10 (2) 1 0 t
23.76 196.52 (3) 1 0 t
0.00 0.00 432.00 252.00 cl
0.00 0.00 432.00 252.00 cl
0.2000 0.2000 0.2000 srgb
1.07 setlinewidth
[] 0 setdash
0 setlinecap
1 setlinejoin
10.00 setmiterlimit
np
25.95 42.51 m
2.74 0 l
o
np
25.95 94.92 m
2.74 0 l
o
np
25.95 147.34 m
2.74 0 l
o
np
25.95 199.75 m
2.74 0 l
o
0.00 0.00 432.00 252.00 cl
0.00 0.00 432.00 252.00 cl
0.00 0.00 432.00 252.00 cl
0.00 0.00 432.00 252.00 cl
0.00 0.00 432.00 252.00 cl
0.00 0.00 432.00 252.00 cl
0.00 0.00 432.00 252.00 cl
0.00 0.00 432.00 252.00 cl
0.00 0.00 432.00 252.00 cl
0.00 0.00 432.00 252.00 cl
0.2000 0.2000 0.2000 srgb
1.07 setlinewidth
[] 0 setdash
0 setlinecap
1 setlinejoin
10.00 setmiterlimit
np
52.22 30.05 m
0 2.74 l
o
np
71.90 30.05 m
0 2.74 l
o
np
91.59 30.05 m
0 2.74 l
o
np
111.27 30.05 m
0 2.74 l
o
np
130.96 30.05 m
0 2.74 l
o
np
150.65 30.05 m
0 2.74 l
o
np
170.33 30.05 m
0 2.74 l
o
np
190.02 30.05 m
0 2.74 l
o
np
209.70 30.05 m
0 2.74 l
o
np
229.39 30.05 m
0 2.74 l
o
np
249.07 30.05 m
0 2.74 l
o
np
268.76 30.05 m
0 2.74 l
o
np
288.45 30.05 m
0 2.74 l
o
np
308.13 30.05 m
0 2.74 l
o
np
327.82 30.05 m
0 2.74 l
o
0.00 0.00 432.00 252.00 cl
0.00 0.00 432.00 252.00 cl
/Font1 findfont 9 s
0.3020 0.3020 0.3020 srgb
52.22 21.40 (1) .5 0 t
71.90 21.40 (2) .5 0 t
91.59 21.40 (3) .5 0 t
111.27 21.40 (4) .5 0 t
130.96 21.40 (5) .5 0 t
150.65 21.40 (6) .5 0 t
170.33 21.40 (7) .5 0 t
190.02 21.40 (8) .5 0 t
209.70 21.40 (9) .5 0 t
229.39 21.40 (10) .5 0 t
249.07 21.40 (11) .5 0 t
268.76 21.40 (12) .5 0 t
288.45 21.40 (13) .5 0 t
308.13 21.40 (14) .5 0 t
327.82 21.40 (15) .5 0 t
0.00 0.00 432.00 252.00 cl
0.00 0.00 432.00 252.00 cl
0.00 0.00 432.00 252.00 cl
0.00 0.00 432.00 252.00 cl
0.00 0.00 432.00 252.00 cl
0.00 0.00 432.00 252.00 cl
/Font1 findfont 11 s
0 0 0 srgb
101.38 8.12 (Number of VNFs in f) 0 ta
-0.330 (orw) tb
-0.165 (arding chain) tb gr
0.00 0.00 432.00 252.00 cl
0.00 0.00 432.00 252.00 cl
/Font1 findfont 11 s
0 0 0 srgb
13.38 139.66 (Mean throughput [GiB/s]) .5 90 t
0.00 0.00 432.00 252.00 cl
0.00 0.00 432.00 252.00 cl
0.00 0.00 432.00 252.00 cl
0.00 0.00 432.00 252.00 cl
0.00 0.00 432.00 252.00 cl
0.00 0.00 432.00 252.00 cl
0.00 0.00 432.00 252.00 cl
0.00 0.00 432.00 252.00 cl
/bg { 1 1 1 srgb } def
362.30 108.89 64.22 61.54 r p2
0.00 0.00 432.00 252.00 cl
0.00 0.00 432.00 252.00 cl
0.00 0.00 432.00 252.00 cl
0.00 0.00 432.00 252.00 cl
0.00 0.00 432.00 252.00 cl
0.00 0.00 432.00 252.00 cl
0.00 0.00 432.00 252.00 cl
/bg { 1 1 1 srgb } def
367.78 131.65 17.28 17.28 r p2
0.00 0.00 432.00 252.00 cl
0.00 0.00 432.00 252.00 cl
/bg { 0.9725 0.4627 0.4275 srgb } def
368.49 132.36 15.86 15.86 r p2
0.00 0.00 432.00 252.00 cl
0.00 0.00 432.00 252.00 cl
/bg { 1 1 1 srgb } def
367.78 114.37 17.28 17.28 r p2
0.00 0.00 432.00 252.00 cl
0.00 0.00 432.00 252.00 cl
/bg { 0 0.7490 0.7686 srgb } def
368.49 115.08 15.86 15.86 r p2
0.00 0.00 432.00 252.00 cl
0.00 0.00 432.00 252.00 cl
0.00 0.00 432.00 252.00 cl
0.00 0.00 432.00 252.00 cl
/Font1 findfont 9 s
0 0 0 srgb
390.54 137.06 (VNFFG) 0 0 t
0.00 0.00 432.00 252.00 cl
0.00 0.00 432.00 252.00 cl
0.00 0.00 432.00 252.00 cl
0.00 0.00 432.00 252.00 cl
0.00 0.00 432.00 252.00 cl
/Font1 findfont 9 s
0 0 0 srgb
390.54 119.78 (Direct) 0 0 t
0.00 0.00 432.00 252.00 cl
0.00 0.00 432.00 252.00 cl
0.00 0.00 432.00 252.00 cl
0.00 0.00 432.00 252.00 cl
0.00 0.00 432.00 252.00 cl
0.00 0.00 432.00 252.00 cl
0.00 0.00 432.00 252.00 cl
0.00 0.00 432.00 252.00 cl
0.00 0.00 432.00 252.00 cl
0.00 0.00 432.00 252.00 cl
0.00 0.00 432.00 252.00 cl
0.00 0.00 432.00 252.00 cl
0.00 0.00 432.00 252.00 cl
ep
%%Trailer
%%Pages: 1
%%EOF
