n,start,onboard,ns_start,num_failed,ns_delete,stop
1,44.50806999206543,1.8407740592956543,7.597408056259155,0,5.4438629150390625,4.075723886489868
2,45.50532293319702,1.844264030456543,14.420626163482666,0,5.594183921813965,4.13060188293457
3,73.14042615890503,1.7848339080810547,13.79253602027893,0,5.90733003616333,4.9413840770721436
4,72.86373090744019,1.7999241352081299,19.983381986618042,0,11.7255699634552,4.373549938201904
5,55.149627923965454,1.856658935546875,24.447723150253296,0,10.891732931137085,10.21515703201294
6,72.77205610275269,1.8377289772033691,31.345645904541016,0,11.36722207069397,4.166083097457886
7,59.09645199775696,1.8307979106903076,37.082136154174805,0,11.624598979949951,3.972970962524414
8,48.803449869155884,1.8367831707000732,42.02568984031677,0,16.67089295387268,4.053542137145996
9,43.76756286621094,1.7765159606933594,53.84937000274658,0,17.24469304084778,4.7792840003967285
10,46.861907958984375,1.9908809661865234,58.66894006729126,0,17.429255962371826,4.631999969482422
11,43.964011907577515,1.875096082687378,70.82829999923706,0,16.661816120147705,4.184423923492432
12,44.693390130996704,1.810992956161499,81.49538898468018,0,27.584995985031128,3.9534239768981934
13,44.108471155166626,1.8557589054107666,94.7186689376831,0,32.15588116645813,4.0876829624176025
14,42.094852924346924,1.8867111206054688,101.80068683624268,0,32.85916209220886,3.9368128776550293
15,43.57325601577759,1.8757929801940918,124.00675106048584,0,38.320716857910156,4.129251003265381
16,44.07490801811218,1.8040330410003662,129.2245569229126,0,37.15153503417969,4.334630012512207
17,42.28187417984009,1.9148368835449219,132.19093108177185,1,37.884039878845215,4.376450061798096
18,42.437402963638306,1.997215986251831,190.27099990844727,0,47.918745040893555,4.1029651165008545
19,44.13449788093567,1.8134689331054688,198.0985610485077,0,54.410948038101196,4.168301105499268
20,43.8390748500824,1.9354159832000732,222.7960832118988,0,53.96769595146179,4.376245021820068
21,45.767030000686646,1.9239490032196045,245.2337040901184,0,53.041558027267456,4.6743998527526855
22,46.278215169906616,1.872398853302002,230.19629096984863,2,58.96221709251404,4.173973083496094
23,43.434818983078,1.8293418884277344,309.8957140445709,0,57.56821608543396,4.519857883453369
24,43.10446310043335,1.9284610748291016,301.9205207824707,2,53.35287117958069,4.142412900924683
25,45.20496106147766,2.4101829528808594,366.9707169532776,0,63.23450207710266,4.427989959716797
26,45.2944769859314,1.9935450553894043,259.47638297080994,5,58.03644800186157,4.199461936950684
27,44.21617102622986,1.8647727966308594,431.5386610031128,0,73.01714611053467,4.170897960662842
28,43.44396615028381,2.004356861114502,428.0740180015564,1,84.65675806999207,4.606199026107788
29,43.417726039886475,1.9953851699829102,499.8961420059204,0,84.05476093292236,4.093842029571533
30,44.44816303253174,2.024725914001465,395.9127049446106,4,63.29604411125183,4.59463906288147
