n,start,onboard,ns_start,num_failed,ns_delete,stop
1,41.228816986083984,1.7412350177764893,8.64033317565918,0,6.392650842666626,4.376543998718262
2,42.04964590072632,1.8858931064605713,13.248213052749634,0,5.543976783752441,4.038413047790527
3,41.20158505439758,1.7871630191802979,13.55738115310669,0,5.803821802139282,3.9324440956115723
4,41.36210107803345,1.8191590309143066,19.610456943511963,0,6.086139917373657,4.4167211055755615
5,41.23133301734924,1.8584098815917969,24.785080194473267,0,11.93883490562439,3.953900098800659
6,41.50077509880066,1.798231840133667,31.02405309677124,0,11.127388954162598,4.107969045639038
7,41.22377800941467,1.841878890991211,36.613256216049194,0,11.398659944534302,3.8952150344848633
8,42.41980695724487,1.7984309196472168,41.520910024642944,0,11.917939186096191,4.0628578662872314
9,42.217156171798706,1.8073928356170654,48.5743350982666,0,16.97278094291687,4.448828935623169
10,42.42569303512573,1.7421648502349854,58.39473605155945,0,17.424031019210815,3.8984079360961914
11,41.45082688331604,1.7586140632629395,66.04662990570068,0,16.5159809589386,3.693195104598999
12,42.39077591896057,1.837162971496582,76.657231092453,0,18.29290199279785,3.9129440784454346
13,41.564202070236206,1.8025398254394531,87.6245481967926,0,27.002365827560425,3.8663840293884277
14,41.3842670917511,1.7589988708496094,96.73655414581299,0,33.25167798995972,3.9943370819091797
15,41.60641407966614,1.7829649448394775,122.35604810714722,0,37.76894497871399,3.956268072128296
16,41.62664008140564,1.8275361061096191,124.51663184165955,0,42.98970818519592,4.060225963592529
17,41.90236020088196,1.8473567962646484,170.9675271511078,0,44.01015591621399,3.9112839698791504
18,42.90516901016235,1.844817876815796,186.5848891735077,0,53.81690692901611,4.588804006576538
19,45.988372802734375,1.9350321292877197,219.96232986450195,0,48.88626217842102,4.301208019256592
20,42.18648600578308,1.914529800415039,199.37877297401428,1,48.352632999420166,4.157900094985962
21,42.08687710762024,1.910125970840454,245.79559898376465,0,53.1934289932251,4.3382508754730225
22,42.36736607551575,1.8575570583343506,303.78412103652954,0,52.61148190498352,4.257556915283203
23,43.538727045059204,1.9525389671325684,314.5298318862915,0,57.60691213607788,4.12037992477417
24,42.954808950424194,1.9106981754302979,327.8953900337219,0,58.57627487182617,4.102976083755493
25,42.97378087043762,1.98797607421875,391.03606700897217,0,73.57380294799805,4.136035919189453
26,43.893866777420044,1.8408010005950928,379.94272923469543,0,63.37183690071106,4.078449010848999
27,43.434401988983154,2.01788592338562,331.86478304862976,3,58.75559997558594,4.3090150356292725
28,44.09193682670593,1.9447720050811768,446.3986871242523,0,68.4342679977417,4.349174976348877
29,43.25949001312256,1.9900288581848145,411.93299412727356,2,68.79117798805237,4.42904806137085
30,44.49704909324646,1.9390368461608887,415.6832752227783,3,68.73071193695068,4.138082981109619
