n,start,onboard,ns_start,num_failed,ns_delete,stop
1,41.16399788856506,1.7523741722106934,6.551333904266357,0,6.4050891399383545,3.9672977924346924
2,42.0631160736084,1.7418959140777588,13.177150964736938,0,5.593416213989258,3.858553886413574
3,42.06153392791748,1.7632930278778076,14.608154058456421,0,5.90336799621582,3.846118927001953
4,41.15869402885437,1.8779218196868896,19.60110116004944,0,6.026373863220215,4.465284109115601
5,42.404643058776855,1.7667808532714844,24.695011138916016,0,10.994504928588867,3.880523920059204
6,41.28527307510376,1.8507258892059326,30.273689031600952,0,11.118925094604492,4.430069923400879
7,42.39364218711853,1.7670238018035889,37.98753619194031,0,11.356988906860352,4.045837879180908
8,42.50053787231445,1.781205177307129,41.71494197845459,0,16.680261850357056,3.9629759788513184
9,41.284374952316284,1.855884075164795,53.51447105407715,0,16.931511878967285,3.8100860118865967
10,41.334887981414795,1.7712790966033936,57.456230878829956,0,17.409110069274902,3.970974922180176
11,41.4175968170166,1.8178579807281494,69.68721914291382,0,16.552422046661377,4.143298864364624
12,41.57472205162048,1.783195972442627,75.40970611572266,0,18.249194860458374,4.402059078216553
13,41.45707702636719,1.8152790069580078,86.55573892593384,0,32.10505390167236,3.9618771076202393
14,42.565582036972046,1.849579095840454,96.48358488082886,0,33.07104516029358,4.2167439460754395
15,41.54507112503052,1.7636439800262451,93.88483500480652,1,37.73503589630127,4.159536123275757
16,41.72642111778259,1.779883861541748,125.2053279876709,0,38.58602714538574,3.8659508228302
17,41.76268410682678,1.8346028327941895,169.84544396400452,0,43.76142907142639,4.088108062744141
18,43.909668922424316,1.8040580749511719,180.22220396995544,0,47.641136169433594,3.876368999481201
19,41.77252006530762,1.8200349807739258,186.93212389945984,0,53.01679801940918,3.880542039871216
20,41.82300281524658,1.8485400676727295,191.89946603775024,0,54.02413511276245,3.931635856628418
21,43.09671497344971,1.8654301166534424,237.39895391464233,0,53.46568298339844,3.9832589626312256
22,43.36472415924072,1.8248488903045654,264.03485107421875,0,59.0393328666687,3.95694899559021
23,42.042405128479004,1.895932912826538,312.1645770072937,0,63.1824369430542,4.083733081817627
24,42.11381411552429,1.9231719970703125,325.5616898536682,0,63.41138815879822,4.2314817905426025
25,42.36789894104004,1.9425702095031738,368.7269468307495,0,63.16964101791382,4.100731134414673
26,42.39963889122009,1.9185550212860107,366.18729615211487,1,68.701504945755,4.26842999458313
27,43.53204298019409,1.9096989631652832,470.5769090652466,0,63.46903896331787,4.1566760540008545
28,42.64395189285278,1.9536831378936768,406.7276678085327,2,73.98923516273499,4.4634668827056885
29,43.93723487854004,1.9343020915985107,386.5538709163666,3,63.201608180999756,4.058456897735596
30,42.90946817398071,1.912294864654541,183.9860291481018,13,48.16950988769531,4.0490851402282715
