n,start,onboard,ns_start,num_failed,ns_delete,stop
1,41.396064043045044,1.777155876159668,7.56843900680542,0,6.413860082626343,3.980013847351074
2,41.15115189552307,1.806730031967163,14.345997095108032,0,5.548061847686768,3.8564929962158203
3,41.1910719871521,1.7964959144592285,13.560127019882202,0,5.808579921722412,3.8989529609680176
4,41.12636399269104,1.7754838466644287,18.720427989959717,0,6.045166015625,4.082906007766724
5,41.14652991294861,1.7593638896942139,24.91769313812256,0,10.92690396308899,3.8900389671325684
6,41.04251313209534,1.7705450057983398,30.94113779067993,0,11.138355016708374,3.9502880573272705
7,42.35755205154419,1.7435779571533203,36.63120102882385,0,11.395395994186401,3.8429059982299805
8,41.126214027404785,1.7576570510864258,41.70738101005554,0,16.590170860290527,3.8475770950317383
9,41.3820960521698,1.8007450103759766,52.57565689086914,0,16.93497920036316,3.8262908458709717
10,41.3847291469574,1.8031048774719238,57.8078670501709,0,16.425792932510376,3.973018169403076
11,41.35312604904175,1.8173530101776123,68.4835319519043,0,16.62242102622986,3.9344260692596436
12,41.46306085586548,1.7954881191253662,75.7218029499054,0,22.412940979003906,3.9608969688415527
13,41.56982898712158,1.8274250030517578,90.37149500846863,0,26.80280089378357,3.9429070949554443
14,41.36781406402588,1.7739019393920898,96.69248795509338,0,32.88274097442627,3.830897092819214
15,43.95283603668213,1.7876601219177246,122.2309319972992,0,38.29796886444092,3.829270124435425
16,41.44203305244446,1.7705328464508057,128.64002418518066,0,38.64609885215759,3.844771146774292
17,41.7727530002594,1.8124589920043945,171.575364112854,0,48.26084589958191,4.561110019683838
18,41.677590131759644,1.7764708995819092,181.4020459651947,0,49.17721605300903,4.146368980407715
19,41.91317892074585,1.8570141792297363,186.19638395309448,0,48.28144693374634,3.8035731315612793
20,42.740753173828125,1.8891680240631104,196.42220282554626,0,53.964070081710815,4.2883288860321045
21,42.03595781326294,1.8237581253051758,254.7537009716034,0,53.987147092819214,4.268313884735107
22,41.813040018081665,1.8656539916992188,276.0937349796295,0,58.36607313156128,3.989198923110962
23,42.28480386734009,1.854485034942627,300.76361203193665,0,63.484107971191406,3.934880018234253
24,42.10205411911011,1.916024923324585,324.09256291389465,0,62.729496002197266,4.045094013214111
25,42.60740518569946,1.945659875869751,359.594850063324,0,63.07589888572693,3.976483106613159
26,42.24149799346924,1.9460389614105225,376.77171516418457,1,63.27182602882385,4.404155969619751
27,42.41805100440979,1.9386241436004639,421.1354489326477,0,72.97739100456238,4.195874929428101
28,43.906314849853516,1.8984441757202148,471.4991569519043,1,73.25615000724792,4.057514905929565
29,42.45376396179199,1.9196889400482178,487.9058530330658,0,84.28279209136963,4.164386034011841
30,43.975950956344604,1.9769070148468018,324.4273478984833,7,53.52423405647278,4.172493934631348
