<?xml version="1.0" encoding="UTF-8" standalone="no"?>
<!-- Created with Inkscape (http://www.inkscape.org/) -->

<svg
   xmlns:dc="http://purl.org/dc/elements/1.1/"
   xmlns:cc="http://creativecommons.org/ns#"
   xmlns:rdf="http://www.w3.org/1999/02/22-rdf-syntax-ns#"
   xmlns:svg="http://www.w3.org/2000/svg"
   xmlns="http://www.w3.org/2000/svg"
   xmlns:xlink="http://www.w3.org/1999/xlink"
   xmlns:sodipodi="http://sodipodi.sourceforge.net/DTD/sodipodi-0.dtd"
   xmlns:inkscape="http://www.inkscape.org/namespaces/inkscape"
   width="271.37109mm"
   height="145.62419mm"
   viewBox="0 0 271.37112 145.62419"
   version="1.1"
   id="svg8"
   inkscape:version="0.92.3 (2405546, 2018-03-11)"
   sodipodi:docname="isolated-environment-merged.svg">
  <defs
     id="defs2">
    <marker
       inkscape:isstock="true"
       style="overflow:visible"
       id="marker97212"
       refX="0"
       refY="0"
       orient="auto"
       inkscape:stockid="Arrow1Mend">
      <path
         transform="matrix(-0.4,0,0,-0.4,-4,0)"
         style="fill:#000000;fill-opacity:1;fill-rule:evenodd;stroke:#000000;stroke-width:1.00000003pt;stroke-opacity:1"
         d="M 0,0 5,-5 -12.5,0 5,5 Z"
         id="path97210"
         inkscape:connector-curvature="0" />
    </marker>
    <marker
       inkscape:stockid="StopM"
       orient="auto"
       refY="0"
       refX="0"
       id="StopM"
       style="overflow:visible"
       inkscape:isstock="true">
      <path
         id="path200966"
         d="M 0,5.65 V -5.65"
         style="fill:none;fill-opacity:0.75;fill-rule:evenodd;stroke:#000000;stroke-width:1.00000003pt;stroke-opacity:1"
         transform="scale(0.4)"
         inkscape:connector-curvature="0" />
    </marker>
    <marker
       inkscape:stockid="Arrow1Mend"
       orient="auto"
       refY="0"
       refX="0"
       id="marker96127"
       style="overflow:visible"
       inkscape:isstock="true"
       inkscape:collect="always">
      <path
         inkscape:connector-curvature="0"
         id="path96125"
         d="M 0,0 5,-5 -12.5,0 5,5 Z"
         style="fill:#000000;fill-opacity:1;fill-rule:evenodd;stroke:#000000;stroke-width:1.00000003pt;stroke-opacity:1"
         transform="matrix(-0.4,0,0,-0.4,-4,0)" />
    </marker>
    <marker
       inkscape:stockid="Arrow1Mend"
       orient="auto"
       refY="0"
       refX="0"
       id="marker96075"
       style="overflow:visible"
       inkscape:isstock="true">
      <path
         inkscape:connector-curvature="0"
         id="path96073"
         d="M 0,0 5,-5 -12.5,0 5,5 Z"
         style="fill:#000000;fill-opacity:1;fill-rule:evenodd;stroke:#000000;stroke-width:1.00000003pt;stroke-opacity:1"
         transform="matrix(-0.4,0,0,-0.4,-4,0)" />
    </marker>
    <marker
       inkscape:stockid="Arrow1Lend"
       orient="auto"
       refY="0"
       refX="0"
       id="Arrow1Lend"
       style="overflow:visible"
       inkscape:isstock="true">
      <path
         id="path103098"
         d="M 0,0 5,-5 -12.5,0 5,5 Z"
         style="fill:#000000;fill-opacity:1;fill-rule:evenodd;stroke:#000000;stroke-width:1.00000003pt;stroke-opacity:1"
         transform="matrix(-0.8,0,0,-0.8,-10,0)"
         inkscape:connector-curvature="0" />
    </marker>
    <symbol
       id="database">
      <title
         id="database-title">Database</title>
      <path
         style="stroke-width:0.26458332"
         inkscape:connector-curvature="0"
         d="M 118.53333,19.352419 V 31.447581 C 118.53333,42.106585 91.986894,50.8 59.266667,50.8 26.54644,50.8 0,42.106585 0,31.447581 V 19.352419 C 0,8.6934146 26.54644,0 59.266667,0 91.986894,0 118.53333,8.6934146 118.53333,19.352419 Z m 0,27.214248 v 27.214248 c 0,10.659004 -26.546436,19.352418 -59.266663,19.352418 C 26.54644,93.133333 0,84.439919 0,73.780915 V 46.566667 c 12.733073,8.769085 36.038367,12.851341 59.266667,12.851341 23.2283,0 46.533333,-4.082256 59.266663,-12.851341 z m 0,42.333333 v 27.21425 c 0,10.659 -26.546436,19.35242 -59.266663,19.35242 C 26.54644,135.46667 0,126.77325 0,116.11425 V 88.9 c 12.733073,8.769085 36.038367,12.85134 59.266667,12.85134 23.2283,0 46.533333,-4.082255 59.266663,-12.85134 z"
         id="path4485" />
    </symbol>
    <symbol
       id="server">
      <title
         id="server-title">Server</title>
      <path
         style="stroke-width:0.26458332"
         inkscape:connector-curvature="0"
         d="M 127,42.333333 H 8.4666667 C 3.7906854,42.333333 0,38.542648 0,33.866667 V 16.933333 C 0,12.257352 3.7906854,8.4666667 8.4666667,8.4666667 H 127 c 4.67598,0 8.46667,3.7906853 8.46667,8.4666663 v 16.933334 c 0,4.675981 -3.79069,8.466666 -8.46667,8.466666 z M 114.3,19.05 c -3.50705,0 -6.35,2.842948 -6.35,6.35 0,3.507052 2.84295,6.35 6.35,6.35 3.50705,0 6.35,-2.842948 6.35,-6.35 0,-3.507052 -2.84295,-6.35 -6.35,-6.35 z m -16.933333,0 c -3.507052,0 -6.35,2.842948 -6.35,6.35 0,3.507052 2.842948,6.35 6.35,6.35 3.507053,0 6.350003,-2.842948 6.350003,-6.35 0,-3.507052 -2.84295,-6.35 -6.350003,-6.35 z M 127,84.666667 H 8.4666667 C 3.7906854,84.666667 0,80.875981 0,76.2 V 59.266667 C 0,54.590685 3.7906854,50.8 8.4666667,50.8 H 127 c 4.67598,0 8.46667,3.790685 8.46667,8.466667 V 76.2 c 0,4.675981 -3.79069,8.466667 -8.46667,8.466667 z M 114.3,61.383333 c -3.50705,0 -6.35,2.842948 -6.35,6.35 0,3.507052 2.84295,6.35 6.35,6.35 3.50705,0 6.35,-2.842948 6.35,-6.35 0,-3.507052 -2.84295,-6.35 -6.35,-6.35 z m -16.933333,0 c -3.507052,0 -6.35,2.842948 -6.35,6.35 0,3.507052 2.842948,6.35 6.35,6.35 3.507053,0 6.350003,-2.842948 6.350003,-6.35 0,-3.507052 -2.84295,-6.35 -6.350003,-6.35 z M 127,127 H 8.4666667 C 3.7906854,127 0,123.20931 0,118.53333 V 101.6 C 0,96.924019 3.7906854,93.133333 8.4666667,93.133333 H 127 c 4.67598,0 8.46667,3.790686 8.46667,8.466667 v 16.93333 C 135.46667,123.20931 131.67598,127 127,127 Z m -12.7,-23.28333 c -3.50705,0 -6.35,2.84294 -6.35,6.35 0,3.50705 2.84295,6.35 6.35,6.35 3.50705,0 6.35,-2.84295 6.35,-6.35 0,-3.50706 -2.84295,-6.35 -6.35,-6.35 z m -16.933333,0 c -3.507052,0 -6.35,2.84294 -6.35,6.35 0,3.50705 2.842948,6.35 6.35,6.35 3.507053,0 6.350003,-2.84295 6.350003,-6.35 0,-3.50706 -2.84295,-6.35 -6.350003,-6.35 z"
         id="path5313" />
    </symbol>
    <symbol
       id="ic_cloud_queue_24px">
      <path
         style="stroke-width:0.26458332"
         inkscape:connector-curvature="0"
         d="M 5.1196875,2.6564167 A 1.9817292,1.9817292 0 0 0 3.175,1.0583333 c -0.7646458,0 -1.42875,0.4339167 -1.7594792,1.0689167 A 1.5859125,1.5859125 0 0 0 0,3.7041667 c 0,0.8757708 0.71172917,1.5875 1.5875,1.5875 H 5.0270833 C 5.7573333,5.2916667 6.35,4.699 6.35,3.96875 6.35,3.27025 5.8076042,2.7040417 5.1196875,2.6564167 Z M 5.0270833,4.7625 H 1.5875 c -0.5847292,0 -1.05833333,-0.4736042 -1.05833333,-1.0583333 0,-0.5847292 0.47360413,-1.0583334 1.05833333,-1.0583334 H 1.7753542 A 1.4552083,1.4552083 0 0 1 3.175,1.5875 c 0.8043333,0 1.4552083,0.650875 1.4552083,1.4552083 V 3.175 h 0.396875 c 0.4392084,0 0.79375,0.3545417 0.79375,0.79375 0,0.4392083 -0.3545416,0.79375 -0.79375,0.79375 z"
         id="path6028" />
    </symbol>
    <marker
       inkscape:isstock="true"
       style="overflow:visible"
       id="marker103599-6"
       refX="0"
       refY="0"
       orient="auto"
       inkscape:stockid="Arrow1Mend">
      <path
         inkscape:connector-curvature="0"
         transform="matrix(-0.4,0,0,-0.4,-4,0)"
         style="fill:#000000;fill-opacity:1;fill-rule:evenodd;stroke:#000000;stroke-width:1.00000003pt;stroke-opacity:1"
         d="M 0,0 5,-5 -12.5,0 5,5 Z"
         id="path103597-2" />
    </marker>
    <symbol
       id="child">
      <title
         id="child-title">Child</title>
      <path
         style="stroke-width:0.26458332"
         inkscape:connector-curvature="0"
         d="M 31.75,19.05 C 31.75,8.5288437 40.278844,0 50.8,0 61.321156,0 69.85,8.5288437 69.85,19.05 69.85,29.570892 61.321156,38.1 50.8,38.1 40.278844,38.1 31.75,29.570892 31.75,19.05 Z m 67.37006,0.363273 c -3.306233,-3.306498 -8.66722,-3.306498 -11.973454,0 L 64.226281,42.333333 H 37.373454 l -22.92006,-22.92006 c -3.306234,-3.306498 -8.6672211,-3.306498 -11.9734544,0 -3.30649793,3.306498 -3.30649793,8.667221 0,11.973719 L 27.516667,56.423454 V 127 c 0,4.67598 3.790685,8.46667 8.466666,8.46667 h 4.233334 c 4.675981,0 8.466666,-3.79069 8.466666,-8.46667 V 97.366667 h 4.233334 V 127 c 0,4.67598 3.790685,8.46667 8.466666,8.46667 h 4.233334 c 4.675981,0 8.466666,-3.79069 8.466666,-8.46667 V 56.423454 L 99.12006,31.386727 c 3.3065,-3.306498 3.3065,-8.666956 0,-11.973454 z"
         id="path4369" />
    </symbol>
    <symbol
       id="desktop">
      <title
         id="desktop-title">Desktop</title>
      <path
         style="stroke-width:0.26458332"
         inkscape:connector-curvature="0"
         d="M 139.7,0 H 12.7 C 5.6885417,0 0,5.6885417 0,12.7 v 84.666667 c 0,7.011453 5.6885417,12.700003 12.7,12.700003 h 50.8 l -4.233333,12.7 h -19.05 c -3.518959,0 -6.35,2.83104 -6.35,6.35 0,3.51895 2.831041,6.35 6.35,6.35 h 71.966663 c 3.51896,0 6.35,-2.83105 6.35,-6.35 0,-3.51896 -2.83104,-6.35 -6.35,-6.35 H 93.133333 L 88.9,110.06667 h 50.8 c 7.01146,0 12.7,-5.68855 12.7,-12.700003 V 12.7 C 152.4,5.6885417 146.71146,0 139.7,0 Z m -4.23333,93.133333 H 16.933333 v -76.2 H 135.46667 Z"
         id="path4493" />
    </symbol>
    <marker
       inkscape:stockid="Arrow1Mend"
       orient="auto"
       refY="0"
       refX="0"
       id="Arrow1Mend-5"
       style="overflow:visible"
       inkscape:isstock="true"
       inkscape:collect="always">
      <path
         id="path103104-0"
         d="M 0,0 5,-5 -12.5,0 5,5 Z"
         style="fill:#000000;fill-opacity:1;fill-rule:evenodd;stroke:#000000;stroke-width:1.00000003pt;stroke-opacity:1"
         transform="matrix(-0.4,0,0,-0.4,-4,0)"
         inkscape:connector-curvature="0" />
    </marker>
    <marker
       inkscape:stockid="StopM"
       orient="auto"
       refY="0"
       refX="0"
       id="StopM-3"
       style="overflow:visible"
       inkscape:isstock="true">
      <path
         id="path200966-6"
         d="M 0,5.65 V -5.65"
         style="fill:none;fill-opacity:0.75;fill-rule:evenodd;stroke:#000000;stroke-width:1.00000003pt;stroke-opacity:1"
         transform="scale(0.4)"
         inkscape:connector-curvature="0" />
    </marker>
  </defs>
  <sodipodi:namedview
     id="base"
     pagecolor="#ffffff"
     bordercolor="#666666"
     borderopacity="1.0"
     inkscape:pageopacity="0.0"
     inkscape:pageshadow="2"
     inkscape:zoom="0.98994949"
     inkscape:cx="268.60045"
     inkscape:cy="122.05059"
     inkscape:document-units="mm"
     inkscape:current-layer="layer1"
     showgrid="true"
     inkscape:snap-bbox="true"
     inkscape:snap-bbox-edge-midpoints="true"
     inkscape:bbox-nodes="true"
     inkscape:bbox-paths="true"
     inkscape:snap-grids="false"
     inkscape:object-paths="true"
     fit-margin-top="0"
     fit-margin-left="0"
     fit-margin-right="0"
     fit-margin-bottom="0"
     inkscape:window-width="2560"
     inkscape:window-height="1403"
     inkscape:window-x="0"
     inkscape:window-y="0"
     inkscape:window-maximized="1"
     showguides="true"
     inkscape:guide-bbox="true"
     inkscape:snap-bbox-midpoints="true">
    <inkscape:grid
       type="xygrid"
       id="grid103091"
       originx="5.7877537"
       originy="-169.33333" />
    <sodipodi:guide
       position="85.162752,19.871026"
       orientation="0,1"
       id="guide96044"
       inkscape:locked="false" />
  </sodipodi:namedview>
  <metadata
     id="metadata5">
    <rdf:RDF>
      <cc:Work
         rdf:about="">
        <dc:format>image/svg+xml</dc:format>
        <dc:type
           rdf:resource="http://purl.org/dc/dcmitype/StillImage" />
        <dc:title></dc:title>
      </cc:Work>
    </rdf:RDF>
  </metadata>
  <g
     inkscape:label="Layer 1"
     inkscape:groupmode="layer"
     id="layer1"
     transform="translate(5.7877604,17.957519)">
    <path
       style="fill:none;stroke:#000000;stroke-width:2;stroke-linecap:butt;stroke-linejoin:miter;stroke-miterlimit:4;stroke-dasharray:2.00000006, 4.00000011;stroke-dashoffset:0;stroke-opacity:1"
       d="M 79.374988,-15.208333 V 127.66667"
       id="path103824"
       inkscape:connector-curvature="0"
       sodipodi:nodetypes="cc" />
    <path
       style="fill:none;stroke:#000000;stroke-width:2;stroke-linecap:butt;stroke-linejoin:miter;stroke-miterlimit:4;stroke-dasharray:none;stroke-opacity:1;marker-end:url(#marker96127)"
       d="m 31.749992,74.74999 c 3.175063,16.150078 1.181177,25.135417 33.050015,33.04517"
       id="path95212"
       inkscape:connector-curvature="0"
       sodipodi:nodetypes="cc" />
    <circle
       id="path98581-92-5"
       cx="198.4375"
       cy="73.395515"
       r="7.5595236"
       style="fill:none;stroke:#000000;stroke-width:2.86500001;stroke-miterlimit:4;stroke-dasharray:none;stroke-opacity:1" />
    <path
       style="fill:none;stroke:#000000;stroke-width:2;stroke-linecap:butt;stroke-linejoin:miter;stroke-miterlimit:4;stroke-dasharray:none;stroke-opacity:1;marker-end:url(#StopM)"
       d="m 198.4375,65.461825 0,-29.076406"
       id="path103093-0-3"
       inkscape:connector-curvature="0"
       sodipodi:nodetypes="cc" />
    <path
       style="fill:none;stroke:#000000;stroke-width:2;stroke-linecap:butt;stroke-linejoin:miter;stroke-miterlimit:4;stroke-dasharray:none;stroke-dashoffset:0;stroke-opacity:1"
       d="M 264.58333,-7.2708414 H 131.23712 l 0,42.3333434 h 133.34621 z"
       id="path103824-5"
       inkscape:connector-curvature="0"
       sodipodi:nodetypes="ccccc" />
    <text
       xml:space="preserve"
       style="font-style:normal;font-weight:normal;font-size:10.58333302px;line-height:1.25;font-family:sans-serif;letter-spacing:0px;word-spacing:0px;fill:#000000;fill-opacity:1;stroke:none;stroke-width:0.26458332"
       x="206.83524"
       y="67.323212"
       id="text96195-6"><tspan
         sodipodi:role="line"
         id="tspan96193-2"
         x="206.83524"
         y="67.323212"
         style="stroke-width:0.26458332">OpenStack</tspan></text>
    <use
       id="use98346"
       style="opacity:1;fill:#000000;stroke:none"
       xlink:href="#server"
       x="0"
       y="0"
       width="100%"
       height="100%"
       transform="matrix(0.15935798,0,0,0.15935798,237.91448,-4.8355199)" />
    <circle
       id="path98581-3"
       cx="145.81946"
       cy="5.9583311"
       r="7.5595236"
       style="fill:none;stroke:#000000;stroke-width:2.86500001;stroke-miterlimit:4;stroke-dasharray:none;stroke-opacity:1" />
    <path
       style="fill:none;stroke:#000000;stroke-width:3;stroke-linecap:butt;stroke-linejoin:miter;stroke-miterlimit:4;stroke-dasharray:none;stroke-opacity:1;marker-end:url(#Arrow1Mend-5)"
       d="m 152.70243,5.9583273 77.12801,-2.1e-6"
       id="path103093-6"
       inkscape:connector-curvature="0"
       sodipodi:nodetypes="cc" />
    <path
       style="fill:none;stroke:#000000;stroke-width:3;stroke-linecap:butt;stroke-linejoin:miter;stroke-miterlimit:4;stroke-dasharray:3.00000008, 3.00000008;stroke-dashoffset:0;stroke-opacity:1"
       d="M 198.4375,16.541668 V 32.416669"
       id="path95291"
       inkscape:connector-curvature="0"
       sodipodi:nodetypes="cc" />
    <circle
       id="path98581-92-5-5"
       cx="79.374985"
       cy="107.79565"
       r="7.5595236"
       style="fill:none;stroke:#000000;stroke-width:2.86500001;stroke-miterlimit:4;stroke-dasharray:none;stroke-opacity:1" />
    <path
       style="fill:none;stroke:#000000;stroke-width:2;stroke-linecap:butt;stroke-linejoin:miter;stroke-miterlimit:4;stroke-dasharray:none;stroke-opacity:1"
       d="M 86.257988,107.79565 H 198.43749 V 85.333336"
       id="path103093-0-3-3"
       inkscape:connector-curvature="0"
       sodipodi:nodetypes="ccc" />
    <g
       transform="matrix(0.11050849,0,0,0.11050849,102.77707,65.910405)"
       style="fill:#000000;stroke:none"
       id="use298801-6">
      <title
         id="title97176">Wrench</title>
      <path
         style="stroke-width:0.26458332"
         inkscape:connector-curvature="0"
         d="m 127.30586,52.916667 c 2.46062,0 4.0005,2.686843 2.73182,4.795308 C 123.37389,68.78955 111.23586,76.2 97.366667,76.2 76.405846,76.2 59.398694,59.273546 59.26746,38.343681 59.135698,17.322006 76.344992,-2.6458333e-4 97.367196,0 c 13.854114,2.6458333e-4 25.981024,7.3948396 32.649584,18.452835 1.28005,2.122752 -0.23257,4.830498 -2.71145,4.830498 H 99.483333 L 88.9,38.1 99.483333,52.916667 Z M 81.890394,77.52371 28.907052,130.50705 c -6.612996,6.61273 -17.334177,6.613 -23.9474374,0 -6.6127313,-6.61299 -6.6127313,-17.33444 0,-23.94744 L 57.941369,53.578125 c 4.275666,10.90004 13.044752,19.667802 23.949025,23.945585 z M 27.516667,114.3 c 0,-3.50705 -2.842948,-6.35 -6.35,-6.35 -3.507052,0 -6.35,2.84295 -6.35,6.35 0,3.50705 2.842948,6.35 6.35,6.35 3.507052,0 6.35,-2.84295 6.35,-6.35 z"
         id="path97178" />
    </g>
    <text
       xml:space="preserve"
       style="font-style:normal;font-weight:normal;font-size:10.58333302px;line-height:1.25;font-family:sans-serif;letter-spacing:0px;word-spacing:0px;fill:#000000;fill-opacity:1;stroke:none;stroke-width:0.26458332"
       x="84.423767"
       y="125.29426"
       id="text96195-6-5"><tspan
         sodipodi:role="line"
         id="tspan96193-2-6"
         x="84.423767"
         y="125.29426"
         style="stroke-width:0.26458332">OSM Endpoint</tspan></text>
    <use
       id="use96256"
       transform="matrix(0.3331415,0,0,0.3331415,-3.0660363,35.979486)"
       xlink:href="#child"
       x="0"
       y="0"
       width="100%"
       height="100%" />
    <path
       id="path98581-92-5-1"
       style="fill:none;stroke:#000000;stroke-width:2.86500001;stroke-miterlimit:4;stroke-dasharray:none;stroke-opacity:1"
       sodipodi:type="arc"
       sodipodi:cx="198.4375"
       sodipodi:cy="73.395515"
       sodipodi:rx="11.568566"
       sodipodi:ry="11.568566"
       sodipodi:start="0.26179939"
       sodipodi:end="2.8797933"
       d="M 209.61188,76.389681 A 11.568566,11.568566 0 0 1 198.4375,84.964082 11.568566,11.568566 0 0 1 187.26312,76.38968"
       sodipodi:open="true" />
    <path
       id="path98581-92-5-1-2"
       style="fill:none;stroke:#000000;stroke-width:2.86500001;stroke-miterlimit:4;stroke-dasharray:none;stroke-opacity:1"
       sodipodi:type="arc"
       sodipodi:cx="108.47916"
       sodipodi:cy="73.395515"
       sodipodi:rx="11.568566"
       sodipodi:ry="11.568566"
       sodipodi:start="0.26179939"
       sodipodi:end="2.8797933"
       d="M 119.65353,76.389681 A 11.568566,11.568566 0 0 1 108.47916,84.964082 11.568566,11.568566 0 0 1 97.304779,76.38968"
       sodipodi:open="true" />
    <path
       style="fill:none;stroke:#000000;stroke-width:2;stroke-linecap:butt;stroke-linejoin:miter;stroke-miterlimit:4;stroke-dasharray:none;stroke-opacity:1;marker-end:url(#marker97212)"
       d="M 111.12499,64.166669 V 5.9583354 l 21.16667,0"
       id="path97202"
       inkscape:connector-curvature="0"
       sodipodi:nodetypes="ccc" />
    <path
       style="fill:none;stroke:#000000;stroke-width:2;stroke-linecap:butt;stroke-linejoin:miter;stroke-miterlimit:4;stroke-dasharray:none;stroke-opacity:1"
       d="M 108.47916,84.964082 V 107.79565"
       id="path97288"
       inkscape:connector-curvature="0"
       sodipodi:nodetypes="cc" />
    <text
       xml:space="preserve"
       style="font-style:normal;font-weight:normal;font-size:10.58333302px;line-height:1.25;font-family:sans-serif;letter-spacing:0px;word-spacing:0px;fill:#000000;fill-opacity:1;stroke:none;stroke-width:0.26458332"
       x="121.11404"
       y="67.25692"
       id="text96195-6-7"><tspan
         sodipodi:role="line"
         id="tspan96193-2-0"
         x="121.11404"
         y="67.25692"
         style="stroke-width:0.26458332">Juju</tspan></text>
    <text
       xml:space="preserve"
       style="font-style:normal;font-weight:normal;font-size:7.05555534px;line-height:1.25;font-family:sans-serif;letter-spacing:0px;word-spacing:0px;fill:#000000;fill-opacity:1;stroke:none;stroke-width:0.26458332"
       x="-97.861824"
       y="88.611809"
       id="text103818-3"
       transform="rotate(-90)"><tspan
         sodipodi:role="line"
         id="tspan103816-6"
         x="-97.861824"
         y="88.611809"
         style="font-size:7.05555534px;stroke-width:0.26458332">vim-emu</tspan></text>
  </g>
  <g
     inkscape:groupmode="layer"
     id="layer2"
     inkscape:label="Layer 2"
     style="display:inline" />
</svg>
