<?xml version="1.0" encoding="UTF-8" standalone="no"?>
<!-- Created with Inkscape (http://www.inkscape.org/) -->

<svg
   xmlns:dc="http://purl.org/dc/elements/1.1/"
   xmlns:cc="http://creativecommons.org/ns#"
   xmlns:rdf="http://www.w3.org/1999/02/22-rdf-syntax-ns#"
   xmlns:svg="http://www.w3.org/2000/svg"
   xmlns="http://www.w3.org/2000/svg"
   xmlns:xlink="http://www.w3.org/1999/xlink"
   xmlns:sodipodi="http://sodipodi.sourceforge.net/DTD/sodipodi-0.dtd"
   xmlns:inkscape="http://www.inkscape.org/namespaces/inkscape"
   width="231.27803mm"
   height="52.110863mm"
   viewBox="0 0 231.27806 52.110862"
   version="1.1"
   id="svg8"
   inkscape:version="0.92.3 (2405546, 2018-03-11)"
   sodipodi:docname="juju-charms.svg.2018_10_15_22_24_51.0.svg">
  <defs
     id="defs2">
    <marker
       inkscape:stockid="Arrow1Mend"
       orient="auto"
       refY="0"
       refX="0"
       id="marker96127"
       style="overflow:visible"
       inkscape:isstock="true">
      <path
         inkscape:connector-curvature="0"
         id="path96125"
         d="M 0,0 5,-5 -12.5,0 5,5 Z"
         style="fill:#000000;fill-opacity:1;fill-rule:evenodd;stroke:#000000;stroke-width:1.00000003pt;stroke-opacity:1"
         transform="matrix(-0.4,0,0,-0.4,-4,0)" />
    </marker>
    <marker
       inkscape:stockid="Arrow1Mend"
       orient="auto"
       refY="0"
       refX="0"
       id="marker96075"
       style="overflow:visible"
       inkscape:isstock="true">
      <path
         inkscape:connector-curvature="0"
         id="path96073"
         d="M 0,0 5,-5 -12.5,0 5,5 Z"
         style="fill:#000000;fill-opacity:1;fill-rule:evenodd;stroke:#000000;stroke-width:1.00000003pt;stroke-opacity:1"
         transform="matrix(-0.4,0,0,-0.4,-4,0)" />
    </marker>
    <marker
       inkscape:stockid="Arrow1Lend"
       orient="auto"
       refY="0"
       refX="0"
       id="Arrow1Lend"
       style="overflow:visible"
       inkscape:isstock="true">
      <path
         id="path103098"
         d="M 0,0 5,-5 -12.5,0 5,5 Z"
         style="fill:#000000;fill-opacity:1;fill-rule:evenodd;stroke:#000000;stroke-width:1.00000003pt;stroke-opacity:1"
         transform="matrix(-0.8,0,0,-0.8,-10,0)"
         inkscape:connector-curvature="0" />
    </marker>
    <symbol
       id="database">
      <title
         id="database-title">Database</title>
      <path
         style="stroke-width:0.26458332"
         inkscape:connector-curvature="0"
         d="M 118.53333,19.352419 V 31.447581 C 118.53333,42.106585 91.986894,50.8 59.266667,50.8 26.54644,50.8 0,42.106585 0,31.447581 V 19.352419 C 0,8.6934146 26.54644,0 59.266667,0 91.986894,0 118.53333,8.6934146 118.53333,19.352419 Z m 0,27.214248 v 27.214248 c 0,10.659004 -26.546436,19.352418 -59.266663,19.352418 C 26.54644,93.133333 0,84.439919 0,73.780915 V 46.566667 c 12.733073,8.769085 36.038367,12.851341 59.266667,12.851341 23.2283,0 46.533333,-4.082256 59.266663,-12.851341 z m 0,42.333333 v 27.21425 c 0,10.659 -26.546436,19.35242 -59.266663,19.35242 C 26.54644,135.46667 0,126.77325 0,116.11425 V 88.9 c 12.733073,8.769085 36.038367,12.85134 59.266667,12.85134 23.2283,0 46.533333,-4.082255 59.266663,-12.85134 z"
         id="path4485" />
    </symbol>
    <symbol
       id="server">
      <title
         id="server-title">Server</title>
      <path
         style="stroke-width:0.26458332"
         inkscape:connector-curvature="0"
         d="M 127,42.333333 H 8.4666667 C 3.7906854,42.333333 0,38.542648 0,33.866667 V 16.933333 C 0,12.257352 3.7906854,8.4666667 8.4666667,8.4666667 H 127 c 4.67598,0 8.46667,3.7906853 8.46667,8.4666663 v 16.933334 c 0,4.675981 -3.79069,8.466666 -8.46667,8.466666 z M 114.3,19.05 c -3.50705,0 -6.35,2.842948 -6.35,6.35 0,3.507052 2.84295,6.35 6.35,6.35 3.50705,0 6.35,-2.842948 6.35,-6.35 0,-3.507052 -2.84295,-6.35 -6.35,-6.35 z m -16.933333,0 c -3.507052,0 -6.35,2.842948 -6.35,6.35 0,3.507052 2.842948,6.35 6.35,6.35 3.507053,0 6.350003,-2.842948 6.350003,-6.35 0,-3.507052 -2.84295,-6.35 -6.350003,-6.35 z M 127,84.666667 H 8.4666667 C 3.7906854,84.666667 0,80.875981 0,76.2 V 59.266667 C 0,54.590685 3.7906854,50.8 8.4666667,50.8 H 127 c 4.67598,0 8.46667,3.790685 8.46667,8.466667 V 76.2 c 0,4.675981 -3.79069,8.466667 -8.46667,8.466667 z M 114.3,61.383333 c -3.50705,0 -6.35,2.842948 -6.35,6.35 0,3.507052 2.84295,6.35 6.35,6.35 3.50705,0 6.35,-2.842948 6.35,-6.35 0,-3.507052 -2.84295,-6.35 -6.35,-6.35 z m -16.933333,0 c -3.507052,0 -6.35,2.842948 -6.35,6.35 0,3.507052 2.842948,6.35 6.35,6.35 3.507053,0 6.350003,-2.842948 6.350003,-6.35 0,-3.507052 -2.84295,-6.35 -6.350003,-6.35 z M 127,127 H 8.4666667 C 3.7906854,127 0,123.20931 0,118.53333 V 101.6 C 0,96.924019 3.7906854,93.133333 8.4666667,93.133333 H 127 c 4.67598,0 8.46667,3.790686 8.46667,8.466667 v 16.93333 C 135.46667,123.20931 131.67598,127 127,127 Z m -12.7,-23.28333 c -3.50705,0 -6.35,2.84294 -6.35,6.35 0,3.50705 2.84295,6.35 6.35,6.35 3.50705,0 6.35,-2.84295 6.35,-6.35 0,-3.50706 -2.84295,-6.35 -6.35,-6.35 z m -16.933333,0 c -3.507052,0 -6.35,2.84294 -6.35,6.35 0,3.50705 2.842948,6.35 6.35,6.35 3.507053,0 6.350003,-2.84295 6.350003,-6.35 0,-3.50706 -2.84295,-6.35 -6.350003,-6.35 z"
         id="path5313" />
    </symbol>
    <symbol
       id="ic_cloud_queue_24px">
      <path
         style="stroke-width:0.26458332"
         inkscape:connector-curvature="0"
         d="M 5.1196875,2.6564167 A 1.9817292,1.9817292 0 0 0 3.175,1.0583333 c -0.7646458,0 -1.42875,0.4339167 -1.7594792,1.0689167 A 1.5859125,1.5859125 0 0 0 0,3.7041667 c 0,0.8757708 0.71172917,1.5875 1.5875,1.5875 H 5.0270833 C 5.7573333,5.2916667 6.35,4.699 6.35,3.96875 6.35,3.27025 5.8076042,2.7040417 5.1196875,2.6564167 Z M 5.0270833,4.7625 H 1.5875 c -0.5847292,0 -1.05833333,-0.4736042 -1.05833333,-1.0583333 0,-0.5847292 0.47360413,-1.0583334 1.05833333,-1.0583334 H 1.7753542 A 1.4552083,1.4552083 0 0 1 3.175,1.5875 c 0.8043333,0 1.4552083,0.650875 1.4552083,1.4552083 V 3.175 h 0.396875 c 0.4392084,0 0.79375,0.3545417 0.79375,0.79375 0,0.4392083 -0.3545416,0.79375 -0.79375,0.79375 z"
         id="path6028" />
    </symbol>
    <marker
       inkscape:isstock="true"
       style="overflow:visible"
       id="marker103599-6"
       refX="0"
       refY="0"
       orient="auto"
       inkscape:stockid="Arrow1Mend">
      <path
         inkscape:connector-curvature="0"
         transform="matrix(-0.4,0,0,-0.4,-4,0)"
         style="fill:#000000;fill-opacity:1;fill-rule:evenodd;stroke:#000000;stroke-width:1.00000003pt;stroke-opacity:1"
         d="M 0,0 5,-5 -12.5,0 5,5 Z"
         id="path103597-2" />
    </marker>
    <symbol
       id="child">
      <title
         id="child-title">Child</title>
      <path
         style="stroke-width:0.26458332"
         inkscape:connector-curvature="0"
         d="M 31.75,19.05 C 31.75,8.5288437 40.278844,0 50.8,0 61.321156,0 69.85,8.5288437 69.85,19.05 69.85,29.570892 61.321156,38.1 50.8,38.1 40.278844,38.1 31.75,29.570892 31.75,19.05 Z m 67.37006,0.363273 c -3.306233,-3.306498 -8.66722,-3.306498 -11.973454,0 L 64.226281,42.333333 H 37.373454 l -22.92006,-22.92006 c -3.306234,-3.306498 -8.6672211,-3.306498 -11.9734544,0 -3.30649793,3.306498 -3.30649793,8.667221 0,11.973719 L 27.516667,56.423454 V 127 c 0,4.67598 3.790685,8.46667 8.466666,8.46667 h 4.233334 c 4.675981,0 8.466666,-3.79069 8.466666,-8.46667 V 97.366667 h 4.233334 V 127 c 0,4.67598 3.790685,8.46667 8.466666,8.46667 h 4.233334 c 4.675981,0 8.466666,-3.79069 8.466666,-8.46667 V 56.423454 L 99.12006,31.386727 c 3.3065,-3.306498 3.3065,-8.666956 0,-11.973454 z"
         id="path4369" />
    </symbol>
    <symbol
       id="desktop">
      <title
         id="desktop-title">Desktop</title>
      <path
         style="stroke-width:0.26458332"
         inkscape:connector-curvature="0"
         d="M 139.7,0 H 12.7 C 5.6885417,0 0,5.6885417 0,12.7 v 84.666667 c 0,7.011453 5.6885417,12.700003 12.7,12.700003 h 50.8 l -4.233333,12.7 h -19.05 c -3.518959,0 -6.35,2.83104 -6.35,6.35 0,3.51895 2.831041,6.35 6.35,6.35 h 71.966663 c 3.51896,0 6.35,-2.83105 6.35,-6.35 0,-3.51896 -2.83104,-6.35 -6.35,-6.35 H 93.133333 L 88.9,110.06667 h 50.8 c 7.01146,0 12.7,-5.68855 12.7,-12.700003 V 12.7 C 152.4,5.6885417 146.71146,0 139.7,0 Z m -4.23333,93.133333 H 16.933333 v -76.2 H 135.46667 Z"
         id="path4493" />
    </symbol>
    <marker
       inkscape:stockid="Arrow1Mend"
       orient="auto"
       refY="0"
       refX="0"
       id="Arrow1Mend-1"
       style="overflow:visible"
       inkscape:isstock="true"
       inkscape:collect="always">
      <path
         inkscape:connector-curvature="0"
         id="path103104-2"
         d="M 0,0 5,-5 -12.5,0 5,5 Z"
         style="fill:#000000;fill-opacity:1;fill-rule:evenodd;stroke:#000000;stroke-width:1.00000003pt;stroke-opacity:1"
         transform="matrix(-0.4,0,0,-0.4,-4,0)" />
    </marker>
    <marker
       inkscape:stockid="Arrow1Mend"
       orient="auto"
       refY="0"
       refX="0"
       id="Arrow1Mend-1-3"
       style="overflow:visible"
       inkscape:isstock="true"
       inkscape:collect="always">
      <path
         inkscape:connector-curvature="0"
         id="path103104-2-6"
         d="M 0,0 5,-5 -12.5,0 5,5 Z"
         style="fill:#000000;fill-opacity:1;fill-rule:evenodd;stroke:#000000;stroke-width:1.00000003pt;stroke-opacity:1"
         transform="matrix(-0.4,0,0,-0.4,-4,0)" />
    </marker>
    <marker
       inkscape:stockid="Arrow1Mend"
       orient="auto"
       refY="0"
       refX="0"
       id="Arrow1Mend-1-3-5"
       style="overflow:visible"
       inkscape:isstock="true"
       inkscape:collect="always">
      <path
         inkscape:connector-curvature="0"
         id="path103104-2-6-3"
         d="M 0,0 5,-5 -12.5,0 5,5 Z"
         style="fill:#000000;fill-opacity:1;fill-rule:evenodd;stroke:#000000;stroke-width:1.00000003pt;stroke-opacity:1"
         transform="matrix(-0.4,0,0,-0.4,-4,0)" />
    </marker>
    <symbol
       id="align-left">
      <title
         id="align-left-title">align-left</title>
      <path
         style="stroke-width:0.26458332"
         inkscape:connector-curvature="0"
         d="M 76.2,11.641667 V 22.225 c 0,2.338123 -1.89521,4.233333 -4.233333,4.233333 H 4.2333333 C 1.8952104,26.458333 0,24.563123 0,22.225 V 11.641667 C 0,9.3035437 1.8952104,7.4083333 4.2333333,7.4083333 H 71.966667 C 74.30479,7.4083333 76.2,9.3035437 76.2,11.641667 Z M 0,45.508333 V 56.091667 C 0,58.42979 1.8952104,60.325 4.2333333,60.325 H 114.3 c 2.33812,0 4.23333,-1.89521 4.23333,-4.233333 V 45.508333 C 118.53333,43.17021 116.63812,41.275 114.3,41.275 H 4.2333333 C 1.8952104,41.275 0,43.17021 0,45.508333 Z M 4.2333333,128.05833 H 114.3 c 2.33812,0 4.23333,-1.89521 4.23333,-4.23333 v -10.58333 c 0,-2.33813 -1.89521,-4.23334 -4.23333,-4.23334 H 4.2333333 C 1.8952104,109.00833 0,110.90354 0,113.24167 V 123.825 c 0,2.33812 1.8952104,4.23333 4.2333333,4.23333 z M 71.966667,75.141667 H 4.2333333 C 1.8952104,75.141667 0,77.036877 0,79.375 v 10.583333 c 0,2.338123 1.8952104,4.233334 4.2333333,4.233334 H 71.966667 C 74.30479,94.191667 76.2,92.296456 76.2,89.958333 V 79.375 c 0,-2.338123 -1.89521,-4.233333 -4.233333,-4.233333 z"
         id="path4028" />
    </symbol>
  </defs>
  <sodipodi:namedview
     id="base"
     pagecolor="#ffffff"
     bordercolor="#666666"
     borderopacity="1.0"
     inkscape:pageopacity="0.0"
     inkscape:pageshadow="2"
     inkscape:zoom="0.70000001"
     inkscape:cx="309.34845"
     inkscape:cy="148.20685"
     inkscape:document-units="mm"
     inkscape:current-layer="layer1"
     showgrid="true"
     inkscape:snap-bbox="true"
     inkscape:snap-bbox-edge-midpoints="true"
     inkscape:bbox-nodes="true"
     inkscape:bbox-paths="true"
     inkscape:snap-grids="false"
     inkscape:object-paths="true"
     fit-margin-top="0"
     fit-margin-left="0"
     fit-margin-right="0"
     fit-margin-bottom="0"
     inkscape:window-width="1920"
     inkscape:window-height="1043"
     inkscape:window-x="0"
     inkscape:window-y="0"
     inkscape:window-maximized="1"
     showguides="true"
     inkscape:guide-bbox="true"
     inkscape:snap-text-baseline="true">
    <inkscape:grid
       type="xygrid"
       id="grid103091"
       originx="-22.708958"
       originy="-197.94271" />
    <sodipodi:guide
       position="183.66607,156.59897"
       orientation="1,0"
       id="guide106448"
       inkscape:locked="false" />
  </sodipodi:namedview>
  <metadata
     id="metadata5">
    <rdf:RDF>
      <cc:Work
         rdf:about="">
        <dc:format>image/svg+xml</dc:format>
        <dc:type
           rdf:resource="http://purl.org/dc/dcmitype/StillImage" />
        <dc:title></dc:title>
      </cc:Work>
    </rdf:RDF>
  </metadata>
  <g
     inkscape:label="Layer 1"
     inkscape:groupmode="layer"
     id="layer1"
     transform="translate(-22.708948,-46.946418)">
    <use
       id="use98346-0"
       style="fill:#000000;stroke:none"
       xlink:href="#server"
       x="0"
       y="0"
       width="100%"
       height="100%"
       transform="matrix(0.27743602,0,0,0.27743602,216.40364,58.601731)" />
    <path
       style="fill:none;stroke:#000000;stroke-width:2;stroke-linecap:butt;stroke-linejoin:miter;stroke-miterlimit:4;stroke-dasharray:none;stroke-opacity:1;marker-end:url(#Arrow1Mend-1)"
       d="M 119.06249,60.471116 H 206.375"
       id="path103093-3"
       inkscape:connector-curvature="0"
       sodipodi:nodetypes="cc" />
    <text
       xml:space="preserve"
       style="font-style:normal;font-weight:normal;font-size:10.58333302px;line-height:1.25;font-family:sans-serif;letter-spacing:0px;word-spacing:0px;fill:#000000;fill-opacity:1;stroke:none;stroke-width:0.26458332"
       x="126.00264"
       y="54.98727"
       id="text95238"><tspan
         sodipodi:role="line"
         id="tspan95236"
         x="126.00264"
         y="54.98727"
         style="stroke-width:0.26458332">initalize</tspan></text>
    <text
       xml:space="preserve"
       style="font-style:normal;font-weight:normal;font-size:10.58333302px;line-height:1.25;font-family:sans-serif;letter-spacing:0px;word-spacing:0px;fill:#000000;fill-opacity:1;stroke:none;stroke-width:0.26458332"
       x="126.03881"
       y="71.286018"
       id="text95242"><tspan
         sodipodi:role="line"
         id="tspan95240"
         x="126.03881"
         y="71.286018"
         style="stroke-width:0.26458332">reconfigure</tspan></text>
    <text
       xml:space="preserve"
       style="font-style:normal;font-weight:normal;font-size:10.58333302px;line-height:1.25;font-family:sans-serif;letter-spacing:0px;word-spacing:0px;fill:#000000;fill-opacity:1;stroke:none;stroke-width:0.26458332"
       x="126.42638"
       y="86.737274"
       id="text95246"><tspan
         sodipodi:role="line"
         id="tspan95244"
         x="126.42638"
         y="86.737274"
         style="stroke-width:0.26458332">scale</tspan></text>
    <path
       style="fill:none;stroke:#000000;stroke-width:2;stroke-linecap:butt;stroke-linejoin:miter;stroke-miterlimit:4;stroke-dasharray:none;stroke-opacity:1;marker-end:url(#Arrow1Mend-1-3)"
       d="M 119.06249,76.324958 H 206.375"
       id="path103093-3-7"
       inkscape:connector-curvature="0"
       sodipodi:nodetypes="cc" />
    <path
       style="fill:none;stroke:#000000;stroke-width:2;stroke-linecap:butt;stroke-linejoin:miter;stroke-miterlimit:4;stroke-dasharray:none;stroke-opacity:1;marker-end:url(#Arrow1Mend-1-3-5)"
       d="M 119.06249,92.178799 H 206.375"
       id="path103093-3-7-5"
       inkscape:connector-curvature="0"
       sodipodi:nodetypes="cc" />
    <g
       id="g97625"
       transform="translate(0,0.24642961)">
      <g
         transform="matrix(0.19392226,0,0,0.19392226,87.307123,59.716419)"
         style="fill:#000000;stroke:none"
         id="use298801">
        <title
           id="title95257">Wrench</title>
        <path
           style="stroke-width:0.26458332"
           inkscape:connector-curvature="0"
           d="m 127.30586,52.916667 c 2.46062,0 4.0005,2.686843 2.73182,4.795308 C 123.37389,68.78955 111.23586,76.2 97.366667,76.2 76.405846,76.2 59.398694,59.273546 59.26746,38.343681 59.135698,17.322006 76.344992,-2.6458333e-4 97.367196,0 c 13.854114,2.6458333e-4 25.981024,7.3948396 32.649584,18.452835 1.28005,2.122752 -0.23257,4.830498 -2.71145,4.830498 H 99.483333 L 88.9,38.1 99.483333,52.916667 Z M 81.890394,77.52371 28.907052,130.50705 c -6.612996,6.61273 -17.334177,6.613 -23.9474374,0 -6.6127313,-6.61299 -6.6127313,-17.33444 0,-23.94744 L 57.941369,53.578125 c 4.275666,10.90004 13.044752,19.667802 23.949025,23.945585 z M 27.516667,114.3 c 0,-3.50705 -2.842948,-6.35 -6.35,-6.35 -3.507052,0 -6.35,2.84295 -6.35,6.35 0,3.50705 2.842948,6.35 6.35,6.35 3.507052,0 6.35,-2.84295 6.35,-6.35 z"
           id="path95259" />
      </g>
      <use
         height="100%"
         width="100%"
         y="0"
         x="0"
         xlink:href="#align-left"
         style="fill:#000000;stroke:none"
         transform="matrix(0.15469339,0,0,0.15469339,99.992225,79.001073)"
         id="use96736" />
    </g>
    <path
       style="fill:none;stroke:#000000;stroke-width:2;stroke-linecap:butt;stroke-linejoin:miter;stroke-miterlimit:4;stroke-dasharray:none;stroke-opacity:1;marker-end:url(#marker96127)"
       d="M 22.719283,70.092554 H 89.796711"
       id="path97701"
       inkscape:connector-curvature="0"
       sodipodi:nodetypes="cc" />
    <text
       xml:space="preserve"
       style="font-style:normal;font-weight:normal;font-size:10.58333302px;line-height:1.25;font-family:sans-serif;letter-spacing:0px;word-spacing:0px;fill:#000000;fill-opacity:1;stroke:none;stroke-width:0.26458332"
       x="22.13534"
       y="62.812893"
       id="text98095"><tspan
         sodipodi:role="line"
         x="22.13534"
         y="62.812893"
         style="stroke-width:0.26458332"
         id="tspan98097">set-comp-lvl</tspan></text>
  </g>
</svg>
