n,start,onboard,ns_start,num_failed,ns_delete,stop
14,44.717090129852295,1.838735818862915,52.98609805107117,0,21.99581503868103,4.681365966796875
14,44.70798182487488,1.9699461460113525,53.5317280292511,1,22.605679988861084,4.6508629322052
14,46.21801805496216,1.8454599380493164,50.647363901138306,0,22.12564706802368,4.340824127197266
14,44.53382897377014,1.8084449768066406,53.80462288856506,0,22.21290397644043,4.27029013633728
14,42.78534698486328,1.8252999782562256,48.19111609458923,0,22.04564905166626,4.112115859985352
14,43.74650311470032,1.818727970123291,51.30935502052307,0,22.2288179397583,4.10336709022522
14,44.7916522026062,1.8297929763793945,51.2877140045166,0,23.33536386489868,4.466026067733765
14,43.94182991981506,1.8791160583496094,54.34877800941467,0,22.503308057785034,4.38814377784729
14,44.86851906776428,1.8408169746398926,55.905779123306274,0,22.49440097808838,4.3400208950042725
14,45.12207388877869,1.9172921180725098,53.5754759311676,0,23.73527503013611,4.281397104263306
15,45.314698934555054,1.8606910705566406,57.91740798950195,0,22.966973066329956,4.648063898086548
15,45.07281494140625,1.9628081321716309,62.28947687149048,0,22.827155113220215,4.526326894760132
15,44.018970012664795,1.8761558532714844,58.79808712005615,0,22.856639862060547,4.181223154067993
15,44.28686308860779,2.059551954269409,59.39060306549072,0,23.011064052581787,4.941956043243408
15,45.52040100097656,1.89323091506958,51.371082067489624,2,22.895932912826538,4.016003131866455
15,44.49501395225525,1.8833651542663574,54.815218925476074,0,24.123528003692627,4.49086594581604
15,44.47291803359985,1.9221811294555664,60.42773103713989,0,28.73251700401306,4.6737189292907715
15,44.522595167160034,1.848707914352417,56.22935700416565,0,27.724793910980225,4.9094390869140625
15,46.21606707572937,2.1493260860443115,63.866719007492065,0,23.314879894256592,4.2969090938568115
15,44.93719792366028,1.9793951511383057,61.48379683494568,0,28.93612504005432,4.295439958572388
