other,zookeeper,kafka,mongo,nbi,ro_db,ro,lcm
10.02117109298706,0.014505863189697266,3.03714919090271,0.01302790641784668,2.0375099182128906,0.013261079788208008,22.174954891204834,3.0165810585021973
10.084362983703613,0.013661861419677734,3.041187047958374,0.012891054153442383,2.0413899421691895,0.014724016189575195,22.161736011505127,3.015501022338867
9.888868808746338,0.013039112091064453,3.0384860038757324,0.013913869857788086,2.030457019805908,0.013534069061279297,22.16365694999695,3.016417980194092
9.967120885848999,0.013458013534545898,3.0396130084991455,0.014098167419433594,2.0331578254699707,0.014801979064941406,22.168495178222656,3.0162198543548584
9.9114408493042,0.014381170272827148,3.038254976272583,0.013331890106201172,2.033255100250244,0.016664981842041016,22.180428981781006,3.016205072402954
10.179289102554321,0.018237829208374023,3.049571990966797,0.01430511474609375,2.037076950073242,0.014261007308959961,22.179264068603516,3.0159928798675537
10.02710485458374,0.012952089309692383,3.041574001312256,0.013796091079711914,2.035554885864258,0.014852046966552734,22.17658805847168,3.0171709060668945
9.937676191329956,0.014394998550415039,3.0410518646240234,0.013195037841796875,2.03310489654541,0.013720035552978516,22.18312406539917,3.0160210132598877
9.980545997619629,0.019767045974731445,3.0436089038848877,0.013813018798828125,2.035426139831543,0.015146017074584961,22.195772886276245,3.0157430171966553
10.198925971984863,0.014117956161499023,3.0458061695098877,0.015001058578491211,2.0392379760742188,0.014073848724365234,22.195889949798584,3.0165750980377197
9.958329916000366,0.014009952545166016,3.0453929901123047,0.014172077178955078,2.034303903579712,0.013424158096313477,22.193607807159424,3.017073154449463
10.019525051116943,0.013414859771728516,3.0468080043792725,0.01330709457397461,2.035991907119751,0.01676797866821289,22.20468521118164,3.0163259506225586
10.037719964981079,0.014127969741821289,3.042668104171753,0.013247966766357422,2.0371689796447754,0.013575077056884766,22.199774980545044,3.014725923538208
10.940814018249512,0.016297101974487305,3.0458598136901855,0.023019075393676758,2.0381999015808105,0.01481008529663086,22.211899042129517,3.016526937484741
10.058083057403564,0.01339411735534668,3.0525238513946533,0.022433996200561523,2.079831123352051,0.014384984970092773,22.219101905822754,3.0168960094451904
