other,zookeeper,kafka,mongo,nbi,ro_db,ro,lcm
9.950741052627563,0.013837814331054688,3.0347280502319336,0.014300107955932617,2.0315909385681152,0.013865947723388672,22.167859077453613,3.0161380767822266
9.943177938461304,0.014032125473022461,3.040313959121704,0.015091896057128906,2.034256935119629,0.014291048049926758,23.167088985443115,3.017369031906128
9.849236965179443,0.014492988586425781,3.037961006164551,0.01404714584350586,2.029852867126465,0.012990951538085938,22.16364312171936,3.0183019638061523
9.962090015411377,0.013463020324707031,3.0389750003814697,0.014023065567016602,2.032291889190674,0.014252185821533203,22.177300930023193,3.0158638954162598
9.727665901184082,0.013531923294067383,3.0382490158081055,0.01287698745727539,2.0301601886749268,0.015590906143188477,22.191091060638428,3.0160648822784424
10.105846166610718,0.013463973999023438,3.0394790172576904,0.013054847717285156,2.032086133956909,0.014297962188720703,22.18890404701233,3.016871929168701
10.028796195983887,0.01384592056274414,3.0397369861602783,0.013319015502929688,2.0357859134674072,0.01470804214477539,22.190685033798218,3.015652894973755
10.080481052398682,0.014373064041137695,3.040174961090088,0.013339996337890625,2.03460693359375,0.01594710350036621,22.186306953430176,3.014462947845459
9.921011924743652,0.013119220733642578,3.0442819595336914,0.013643026351928711,2.036620855331421,0.01345205307006836,22.193142890930176,3.014526128768921
9.967462062835693,0.0141448974609375,3.0425140857696533,0.013356924057006836,2.037795066833496,0.015539884567260742,22.205429077148438,3.01609206199646
9.97730302810669,0.013297080993652344,3.0484228134155273,0.013775110244750977,2.0355539321899414,0.014104127883911133,22.204368829727173,3.014345169067383
10.335621118545532,0.013495922088623047,3.0429511070251465,0.014404058456420898,2.038911819458008,0.01478719711303711,22.199980974197388,3.015997886657715
9.990687847137451,0.013375043869018555,3.042786121368408,0.01345682144165039,2.0403220653533936,0.015279054641723633,22.20499086380005,3.016719102859497
10.074955940246582,0.013844966888427734,3.0482940673828125,0.01343393325805664,2.040437936782837,0.013461112976074219,22.21579599380493,3.0165748596191406
10.052677154541016,0.014253854751586914,3.051248073577881,0.014988899230957031,2.0382230281829834,0.013550043106079102,23.25246810913086,3.0196359157562256
