n,deploy,vnffg_iperf_rtt,vnffg_iperf_bps,normal_iperf_rtt,normal_iperf_bps,delete
1,7.726667165756226,35,32862511283.436012,36,32949332358.68756,6.4905641078948975
2,14.18274712562561,28,26018682294.576805,34,32319365958.022987,6.515354156494141
3,13.051971912384033,32,23120209013.401215,32,32892541801.187256,6.563869953155518
4,13.162238836288452,33,32504429820.725723,32,32993311226.559284,11.974886894226074
5,19.66792392730713,43,17661208156.32713,35,32178241837.88402,11.95711612701416
6,18.727339029312134,34,32655343609.26528,29,31524071233.395107,12.0122549533844
7,18.698516845703125,31,32405867705.458916,31,31592384842.903763,16.435565948486328
8,24.12813687324524,33,33183297955.90421,33,32130916446.632637,16.44129991531372
9,30.888264179229736,33,33093272341.248756,32,33221976376.148785,16.693087100982666
10,30.984443187713623,32,31970004838.124187,32,32829379071.273746,17.766643047332764
11,32.31346106529236,30,32966668629.225857,31,32013982861.654053,22.09252619743347
12,36.705179929733276,32,33583697253.261456,31,32459353645.825768,22.14294195175171
13,39.02981090545654,31,32055350777.645664,35,32640771045.156105,22.27341604232788
14,38.21258497238159,32,32514770199.253395,33,33598356898.406803,22.288604974746704
15,45.059844970703125,31,32240707279.691776,31,33171914322.613663,27.89613103866577
