n,deploy,vnffg_iperf_rtt,vnffg_iperf_bps,normal_iperf_rtt,normal_iperf_bps,delete
1,8.744128942489624,35,32903079238.125294,32,32189004045.196247,6.50881290435791
2,13.176661968231201,29,26619597581.561703,34,33416425198.92501,6.555155992507935
3,14.27294397354126,32,23024621626.921745,33,32234766802.771572,6.5804829597473145
4,14.2678542137146,34,32696638285.457233,32,31116343882.730476,11.883625984191895
5,19.728964805603027,43,17795525220.312595,35,32662444205.446476,11.991997003555298
6,19.82842206954956,30,31634577969.7597,33,32422547376.257687,11.992233991622925
7,19.809890031814575,34,33038070713.383385,30,33236583213.228638,16.439269065856934
8,25.683187007904053,31,32425972649.75316,34,32883813931.3796,16.524996995925903
9,31.008452892303467,31,31588259252.2908,34,33426467563.0509,17.556900024414062
10,30.91345715522766,50,31955616279.872887,33,32387319369.954796,22.030941009521484
11,36.617178201675415,33,32662758258.857487,34,33533296118.0577,22.096877098083496
12,36.84112882614136,34,32068673671.040394,34,32458884798.37643,22.182113885879517
13,38.047362089157104,31,31249945732.032677,32,30823376939.811165,22.476444005966187
14,42.66044497489929,31,31650205310.27508,32,32730909621.702534,27.88136100769043
15,43.77066206932068,33,33413031763.53489,43,33013540214.906837,33.76857590675354
