n,deploy,vnffg_iperf_rtt,vnffg_iperf_bps,normal_iperf_rtt,normal_iperf_bps,delete
1,8.709570169448853,34,31801820065.090508,36,32416003294.351997,6.4774169921875
2,13.163413047790527,29,26370741660.228737,35,32307887317.992966,6.505055904388428
3,13.143991947174072,33,22743009496.032272,35,33422384620.936962,6.545944929122925
4,19.599797010421753,40,19209726405.88736,37,32325773382.936634,6.589348077774048
5,18.673616886138916,43,17559253588.401455,36,32695004671.21215,11.986145973205566
6,19.665250062942505,30,31940806765.94686,33,32220454456.72885,12.0276620388031
7,19.73732590675354,32,32244477378.937172,35,32854699653.81,16.450777053833008
8,25.29205298423767,32,32027124984.297764,34,32586366458.49231,16.423229932785034
9,30.72887110710144,34,31895898103.1592,31,32509265694.92425,17.515679121017456
10,30.971426963806152,29,31516538597.28063,34,33527603005.547737,17.698270082473755
11,34.47173810005188,33,33166918560.187218,31,32179935922.612614,22.049744129180908
12,36.803410053253174,35,32214005096.444344,35,32994069753.9275,22.28041100502014
13,37.87322998046875,32,32754878482.16014,30,31966726242.238018,22.31035089492798
14,39.271353006362915,32,32248851835.584705,30,32688935485.41311,22.412452936172485
15,44.94448804855347,30,31436333328.56876,31,31910706931.785522,28.041638135910034
