n,deploy,vnffg_iperf_rtt,vnffg_iperf_bps,normal_iperf_rtt,normal_iperf_bps,delete
1,8.91140604019165,37,31575510947.2012,35,31076088834.90649,6.4832658767700195
2,14.068179845809937,33,24727407544.506306,36,31579381727.416843,6.544655084609985
3,13.074857950210571,35,21879532888.935097,37,30535667349.995945,6.594472885131836
4,20.75919198989868,45,18458138071.21453,35,31065683153.21591,6.571778059005737
5,20.692708015441895,48,16458904233.16889,36,31065205368.976215,11.999517917633057
6,19.937389135360718,51,14945936872.207474,36,30770506549.662563,12.036258935928345
7,21.032180070877075,46,13740720834.958149,36,31177907305.25091,12.119678020477295
8,25.645282983779907,46,12677014375.640924,35,30453437284.93912,16.43706488609314
9,30.90049409866333,44,12051917643.209476,35,31624844252.136307,16.46961498260498
10,30.88670802116394,51,11107863025.626194,36,32162423342.59761,16.59479522705078
11,37.54180884361267,53,10520957485.143927,34,31397408288.91823,16.682400941848755
12,36.89500403404236,56,9873261732.92491,34,31880964688.586594,23.236735105514526
13,37.15724301338196,57,9350431989.653217,34,30995443735.282475,22.349931955337524
14,44.6439368724823,60,9036402585.130014,35,31666190811.910263,22.354796886444092
15,43.75809597969055,68,8457513773.102181,36,32106259786.63357,23.58542513847351
