n,deploy,vnffg_iperf_rtt,vnffg_iperf_bps,normal_iperf_rtt,normal_iperf_bps,delete
1,7.651805877685547,37,29636131367.51262,39,30493975308.1565,6.487602949142456
2,12.987937927246094,33,23827913102.241524,39,30328162909.366787,6.538136005401611
3,13.022150039672852,37,21112824933.519924,38,31142176087.810455,6.54109001159668
4,14.164448976516724,45,17907096162.48738,37,29896599947.758957,6.5854270458221436
5,21.74167013168335,50,16231116848.369287,37,31349810877.246105,10.976430892944336
6,19.87513494491577,49,14817464806.115086,35,31688305150.156933,12.028744220733643
7,26.302581071853638,45,13554160939.591448,36,30446490157.170742,12.144965887069702
8,25.495791912078857,43,13243522352.196136,32,30269879226.569176,16.454495191574097
9,31.869889974594116,41,12190641224.958775,38,31802929713.5528,16.470006942749023
10,30.396186113357544,54,11209686507.509323,37,30455451370.523727,16.53948402404785
11,37.40478515625,56,10340323362.13296,39,31140600331.800385,16.745560884475708
12,37.08828592300415,55,9517251939.289185,36,30988841763.82565,22.156092882156372
13,36.69336199760437,55,9531341764.39037,35,32076508773.126034,22.512656927108765
14,42.3912398815155,60,8862587209.031998,32,31562767270.035774,22.463515996932983
15,44.83408713340759,70,8131492949.945344,30,31090398514.45804,23.613737106323242
