n,deploy,vnffg_iperf_rtt,vnffg_iperf_bps,normal_iperf_rtt,normal_iperf_bps,delete
1,7.650064945220947,36,30573900534.35318,41,30460313144.760227,6.4914140701293945
2,13.014361143112183,32,25662720665.1304,36,30929849790.603706,6.546541929244995
3,14.124880075454712,37,20921026037.598637,42,30775907224.79881,6.542489051818848
4,18.659669160842896,45,17680134562.04291,35,31026179621.70612,6.580411911010742
5,19.961066961288452,49,16378255069.517218,35,30110440585.95341,11.939570903778076
6,18.865049123764038,50,14603061095.540045,34,30729279112.626007,12.142220973968506
7,20.889872074127197,48,13721848022.909681,36,31327641885.350155,12.114691972732544
8,26.602052927017212,42,12351438729.5997,34,29626045408.266212,16.45298480987549
9,30.90349817276001,43,11671113865.842972,34,29867398385.30053,16.55359387397766
10,35.20276689529419,59,11069829599.695034,49,29779626861.672985,22.437769889831543
11,37.31698203086853,99,10130657364.981419,38,31223096939.018562,22.298266887664795
12,38.16087007522583,55,9679473214.66825,34,31221874177.878128,22.280938148498535
13,37.64933800697327,55,9276929756.006634,36,31017498410.477943,22.32736611366272
14,42.55810284614563,71,8300902326.596636,38,31549286115.65425,22.358851194381714
15,43.23795986175537,70,8240717042.922311,37,30818792524.291897,23.593643188476562
