<?xml version="1.0" encoding="UTF-8" standalone="no"?>
<!-- Created with Inkscape (http://www.inkscape.org/) -->

<svg
   xmlns:dc="http://purl.org/dc/elements/1.1/"
   xmlns:cc="http://creativecommons.org/ns#"
   xmlns:rdf="http://www.w3.org/1999/02/22-rdf-syntax-ns#"
   xmlns:svg="http://www.w3.org/2000/svg"
   xmlns="http://www.w3.org/2000/svg"
   xmlns:xlink="http://www.w3.org/1999/xlink"
   xmlns:sodipodi="http://sodipodi.sourceforge.net/DTD/sodipodi-0.dtd"
   xmlns:inkscape="http://www.inkscape.org/namespaces/inkscape"
   width="270.25525mm"
   height="147.52806mm"
   viewBox="0 0 270.25528 147.52806"
   version="1.1"
   id="svg8"
   inkscape:version="0.92.3 (2405546, 2018-03-11)"
   sodipodi:docname="architecture.svg">
  <defs
     id="defs2">
    <marker
       inkscape:stockid="Arrow2Send"
       orient="auto"
       refY="0.0"
       refX="0.0"
       id="marker301793"
       style="overflow:visible;"
       inkscape:isstock="true">
      <path
         id="path301791"
         style="fill-rule:evenodd;stroke-width:0.625;stroke-linejoin:round;stroke:#000000;stroke-opacity:1;fill:#000000;fill-opacity:1"
         d="M 8.7185878,4.0337352 L -2.2072895,0.016013256 L 8.7185884,-4.0017078 C 6.9730900,-1.6296469 6.9831476,1.6157441 8.7185878,4.0337352 z "
         transform="scale(0.3) rotate(180) translate(-2.3,0)" />
    </marker>
    <marker
       inkscape:isstock="true"
       style="overflow:visible;"
       id="marker301502"
       refX="0.0"
       refY="0.0"
       orient="auto"
       inkscape:stockid="Arrow2Send"
       inkscape:collect="always">
      <path
         transform="scale(0.3) rotate(180) translate(-2.3,0)"
         d="M 8.7185878,4.0337352 L -2.2072895,0.016013256 L 8.7185884,-4.0017078 C 6.9730900,-1.6296469 6.9831476,1.6157441 8.7185878,4.0337352 z "
         style="fill-rule:evenodd;stroke-width:0.625;stroke-linejoin:round;stroke:#000000;stroke-opacity:1;fill:#000000;fill-opacity:1"
         id="path301500" />
    </marker>
    <marker
       inkscape:isstock="true"
       style="overflow:visible"
       id="marker301025"
       refX="0"
       refY="0"
       orient="auto"
       inkscape:stockid="StopS">
      <path
         transform="scale(0.2)"
         style="fill:none;fill-opacity:0.75;fill-rule:evenodd;stroke:#000000;stroke-width:1.00000003pt;stroke-opacity:1"
         d="M 0,5.65 V -5.65"
         id="path301023"
         inkscape:connector-curvature="0" />
    </marker>
    <marker
       inkscape:stockid="Arrow2Send"
       orient="auto"
       refY="0.0"
       refX="0.0"
       id="Arrow2Send"
       style="overflow:visible;"
       inkscape:isstock="true"
       inkscape:collect="always">
      <path
         id="path200827"
         style="fill-rule:evenodd;stroke-width:0.625;stroke-linejoin:round;stroke:#000000;stroke-opacity:1;fill:#000000;fill-opacity:1"
         d="M 8.7185878,4.0337352 L -2.2072895,0.016013256 L 8.7185884,-4.0017078 C 6.9730900,-1.6296469 6.9831476,1.6157441 8.7185878,4.0337352 z "
         transform="scale(0.3) rotate(180) translate(-2.3,0)" />
    </marker>
    <marker
       inkscape:stockid="Arrow1Mend"
       orient="auto"
       refY="0"
       refX="0"
       id="marker96127"
       style="overflow:visible"
       inkscape:isstock="true">
      <path
         inkscape:connector-curvature="0"
         id="path96125"
         d="M 0,0 5,-5 -12.5,0 5,5 Z"
         style="fill:#000000;fill-opacity:1;fill-rule:evenodd;stroke:#000000;stroke-width:1.00000003pt;stroke-opacity:1"
         transform="matrix(-0.4,0,0,-0.4,-4,0)" />
    </marker>
    <marker
       inkscape:stockid="Arrow1Mend"
       orient="auto"
       refY="0"
       refX="0"
       id="marker96075"
       style="overflow:visible"
       inkscape:isstock="true">
      <path
         inkscape:connector-curvature="0"
         id="path96073"
         d="M 0,0 5,-5 -12.5,0 5,5 Z"
         style="fill:#000000;fill-opacity:1;fill-rule:evenodd;stroke:#000000;stroke-width:1.00000003pt;stroke-opacity:1"
         transform="matrix(-0.4,0,0,-0.4,-4,0)" />
    </marker>
    <marker
       inkscape:stockid="Arrow1Lend"
       orient="auto"
       refY="0"
       refX="0"
       id="Arrow1Lend"
       style="overflow:visible"
       inkscape:isstock="true">
      <path
         id="path103098"
         d="M 0,0 5,-5 -12.5,0 5,5 Z"
         style="fill:#000000;fill-opacity:1;fill-rule:evenodd;stroke:#000000;stroke-width:1.00000003pt;stroke-opacity:1"
         transform="matrix(-0.8,0,0,-0.8,-10,0)"
         inkscape:connector-curvature="0" />
    </marker>
    <symbol
       id="database">
      <title
         id="database-title">Database</title>
      <path
         style="stroke-width:0.26458332"
         inkscape:connector-curvature="0"
         d="M 118.53333,19.352419 V 31.447581 C 118.53333,42.106585 91.986894,50.8 59.266667,50.8 26.54644,50.8 0,42.106585 0,31.447581 V 19.352419 C 0,8.6934146 26.54644,0 59.266667,0 91.986894,0 118.53333,8.6934146 118.53333,19.352419 Z m 0,27.214248 v 27.214248 c 0,10.659004 -26.546436,19.352418 -59.266663,19.352418 C 26.54644,93.133333 0,84.439919 0,73.780915 V 46.566667 c 12.733073,8.769085 36.038367,12.851341 59.266667,12.851341 23.2283,0 46.533333,-4.082256 59.266663,-12.851341 z m 0,42.333333 v 27.21425 c 0,10.659 -26.546436,19.35242 -59.266663,19.35242 C 26.54644,135.46667 0,126.77325 0,116.11425 V 88.9 c 12.733073,8.769085 36.038367,12.85134 59.266667,12.85134 23.2283,0 46.533333,-4.082255 59.266663,-12.85134 z"
         id="path4485" />
    </symbol>
    <symbol
       id="server">
      <title
         id="server-title">Server</title>
      <path
         style="stroke-width:0.26458332"
         inkscape:connector-curvature="0"
         d="M 127,42.333333 H 8.4666667 C 3.7906854,42.333333 0,38.542648 0,33.866667 V 16.933333 C 0,12.257352 3.7906854,8.4666667 8.4666667,8.4666667 H 127 c 4.67598,0 8.46667,3.7906853 8.46667,8.4666663 v 16.933334 c 0,4.675981 -3.79069,8.466666 -8.46667,8.466666 z M 114.3,19.05 c -3.50705,0 -6.35,2.842948 -6.35,6.35 0,3.507052 2.84295,6.35 6.35,6.35 3.50705,0 6.35,-2.842948 6.35,-6.35 0,-3.507052 -2.84295,-6.35 -6.35,-6.35 z m -16.933333,0 c -3.507052,0 -6.35,2.842948 -6.35,6.35 0,3.507052 2.842948,6.35 6.35,6.35 3.507053,0 6.350003,-2.842948 6.350003,-6.35 0,-3.507052 -2.84295,-6.35 -6.350003,-6.35 z M 127,84.666667 H 8.4666667 C 3.7906854,84.666667 0,80.875981 0,76.2 V 59.266667 C 0,54.590685 3.7906854,50.8 8.4666667,50.8 H 127 c 4.67598,0 8.46667,3.790685 8.46667,8.466667 V 76.2 c 0,4.675981 -3.79069,8.466667 -8.46667,8.466667 z M 114.3,61.383333 c -3.50705,0 -6.35,2.842948 -6.35,6.35 0,3.507052 2.84295,6.35 6.35,6.35 3.50705,0 6.35,-2.842948 6.35,-6.35 0,-3.507052 -2.84295,-6.35 -6.35,-6.35 z m -16.933333,0 c -3.507052,0 -6.35,2.842948 -6.35,6.35 0,3.507052 2.842948,6.35 6.35,6.35 3.507053,0 6.350003,-2.842948 6.350003,-6.35 0,-3.507052 -2.84295,-6.35 -6.350003,-6.35 z M 127,127 H 8.4666667 C 3.7906854,127 0,123.20931 0,118.53333 V 101.6 C 0,96.924019 3.7906854,93.133333 8.4666667,93.133333 H 127 c 4.67598,0 8.46667,3.790686 8.46667,8.466667 v 16.93333 C 135.46667,123.20931 131.67598,127 127,127 Z m -12.7,-23.28333 c -3.50705,0 -6.35,2.84294 -6.35,6.35 0,3.50705 2.84295,6.35 6.35,6.35 3.50705,0 6.35,-2.84295 6.35,-6.35 0,-3.50706 -2.84295,-6.35 -6.35,-6.35 z m -16.933333,0 c -3.507052,0 -6.35,2.84294 -6.35,6.35 0,3.50705 2.842948,6.35 6.35,6.35 3.507053,0 6.350003,-2.84295 6.350003,-6.35 0,-3.50706 -2.84295,-6.35 -6.350003,-6.35 z"
         id="path5313" />
    </symbol>
    <symbol
       id="ic_cloud_queue_24px">
      <path
         style="stroke-width:0.26458332"
         inkscape:connector-curvature="0"
         d="M 5.1196875,2.6564167 A 1.9817292,1.9817292 0 0 0 3.175,1.0583333 c -0.7646458,0 -1.42875,0.4339167 -1.7594792,1.0689167 A 1.5859125,1.5859125 0 0 0 0,3.7041667 c 0,0.8757708 0.71172917,1.5875 1.5875,1.5875 H 5.0270833 C 5.7573333,5.2916667 6.35,4.699 6.35,3.96875 6.35,3.27025 5.8076042,2.7040417 5.1196875,2.6564167 Z M 5.0270833,4.7625 H 1.5875 c -0.5847292,0 -1.05833333,-0.4736042 -1.05833333,-1.0583333 0,-0.5847292 0.47360413,-1.0583334 1.05833333,-1.0583334 H 1.7753542 A 1.4552083,1.4552083 0 0 1 3.175,1.5875 c 0.8043333,0 1.4552083,0.650875 1.4552083,1.4552083 V 3.175 h 0.396875 c 0.4392084,0 0.79375,0.3545417 0.79375,0.79375 0,0.4392083 -0.3545416,0.79375 -0.79375,0.79375 z"
         id="path6028" />
    </symbol>
    <marker
       inkscape:isstock="true"
       style="overflow:visible"
       id="marker103599-6"
       refX="0"
       refY="0"
       orient="auto"
       inkscape:stockid="Arrow1Mend">
      <path
         inkscape:connector-curvature="0"
         transform="matrix(-0.4,0,0,-0.4,-4,0)"
         style="fill:#000000;fill-opacity:1;fill-rule:evenodd;stroke:#000000;stroke-width:1.00000003pt;stroke-opacity:1"
         d="M 0,0 5,-5 -12.5,0 5,5 Z"
         id="path103597-2" />
    </marker>
    <symbol
       id="child">
      <title
         id="child-title">Child</title>
      <path
         style="stroke-width:0.26458332"
         inkscape:connector-curvature="0"
         d="M 31.75,19.05 C 31.75,8.5288437 40.278844,0 50.8,0 61.321156,0 69.85,8.5288437 69.85,19.05 69.85,29.570892 61.321156,38.1 50.8,38.1 40.278844,38.1 31.75,29.570892 31.75,19.05 Z m 67.37006,0.363273 c -3.306233,-3.306498 -8.66722,-3.306498 -11.973454,0 L 64.226281,42.333333 H 37.373454 l -22.92006,-22.92006 c -3.306234,-3.306498 -8.6672211,-3.306498 -11.9734544,0 -3.30649793,3.306498 -3.30649793,8.667221 0,11.973719 L 27.516667,56.423454 V 127 c 0,4.67598 3.790685,8.46667 8.466666,8.46667 h 4.233334 c 4.675981,0 8.466666,-3.79069 8.466666,-8.46667 V 97.366667 h 4.233334 V 127 c 0,4.67598 3.790685,8.46667 8.466666,8.46667 h 4.233334 c 4.675981,0 8.466666,-3.79069 8.466666,-8.46667 V 56.423454 L 99.12006,31.386727 c 3.3065,-3.306498 3.3065,-8.666956 0,-11.973454 z"
         id="path4369" />
    </symbol>
    <symbol
       id="desktop">
      <title
         id="desktop-title">Desktop</title>
      <path
         style="stroke-width:0.26458332"
         inkscape:connector-curvature="0"
         d="M 139.7,0 H 12.7 C 5.6885417,0 0,5.6885417 0,12.7 v 84.666667 c 0,7.011453 5.6885417,12.700003 12.7,12.700003 h 50.8 l -4.233333,12.7 h -19.05 c -3.518959,0 -6.35,2.83104 -6.35,6.35 0,3.51895 2.831041,6.35 6.35,6.35 h 71.966663 c 3.51896,0 6.35,-2.83105 6.35,-6.35 0,-3.51896 -2.83104,-6.35 -6.35,-6.35 H 93.133333 L 88.9,110.06667 h 50.8 c 7.01146,0 12.7,-5.68855 12.7,-12.700003 V 12.7 C 152.4,5.6885417 146.71146,0 139.7,0 Z m -4.23333,93.133333 H 16.933333 v -76.2 H 135.46667 Z"
         id="path4493" />
    </symbol>
    <symbol
       id="gem">
      <title
         id="gem-title">Gem</title>
      <path
         style="stroke-width:0.26458332"
         inkscape:connector-curvature="0"
         d="M 128.45521,0 152.4,42.333333 H 125.65062 L 107.34146,0 Z M 94.588542,0 112.89771,42.333333 H 39.502292 L 57.811458,0 Z m -70.64375,0 h 21.11375 L 26.749375,42.333333 H 0 Z M 0,50.8 h 26.643542 l 32.54375,66.59562 c 0.396875,0.82021 -0.714375,1.56105 -1.322917,0.87313 z m 39.21125,0 h 73.9775 l -36.247917,84.19042 c -0.264583,0.635 -1.190625,0.635 -1.455208,0 z M 93.212708,117.39562 125.75646,50.8 H 152.4 l -57.864375,67.44229 c -0.608542,0.71438 -1.719792,-0.0265 -1.322917,-0.84667 z"
         id="path206143" />
    </symbol>
    <symbol
       id="magic">
      <title
         id="magic-title">magic</title>
      <path
         style="stroke-width:0.26458332"
         inkscape:connector-curvature="0"
         d="M 26.749375,133.61458 1.8520833,108.71729 c -2.4870833,-2.48708 -2.4870833,-6.50875 0,-8.969373 L 99.747917,1.8520833 c 2.487083,-2.4870833 6.508753,-2.4870833 8.969373,0 l 24.89729,24.8972917 c 2.48709,2.487083 2.48709,6.50875 0,8.969375 l -97.89583,97.89583 c -2.460625,2.46063 -6.482292,2.46063 -8.969375,0 z M 80.433333,42.121667 93.345,55.033333 117.13104,31.247292 104.21937,18.335625 Z M 36.750625,10.398125 33.655,16.695208 26.722917,17.700625 c -1.243542,0.185208 -1.74625,1.719792 -0.846667,2.592917 l 5.027083,4.894791 -1.190625,6.905625 C 29.501042,33.3375 30.7975,34.29 31.90875,33.707917 L 38.1,30.427083 l 6.19125,3.254375 c 1.11125,0.582084 2.407708,-0.370416 2.196042,-1.613958 l -1.190625,-6.905625 5.027083,-4.894792 c 0.899583,-0.873125 0.396875,-2.407708 -0.846667,-2.592916 L 42.545,16.66875 39.449375,10.371667 C 38.920208,9.286875 37.30625,9.286875 36.750625,10.398125 Z M 62.600417,4.92125 60.536667,9.1016667 55.906458,9.7895833 C 55.08625,9.921875 54.742292,10.927292 55.350833,11.509375 l 3.33375,3.254375 -0.79375,4.60375 c -0.132291,0.820208 0.740834,1.455208 1.481667,1.058333 L 63.5,18.25625 l 4.1275,2.169583 c 0.740833,0.396875 1.613958,-0.238125 1.481667,-1.058333 l -0.79375,-4.60375 3.33375,-3.254375 C 72.257708,10.927292 71.91375,9.8954167 71.093542,9.7895833 L 66.463333,9.128125 64.399583,4.9477083 c -0.370416,-0.79375 -1.42875,-0.79375 -1.799166,-0.026458 z m -50.8,0 L 9.7366667,9.1016667 5.1064583,9.7895833 C 4.28625,9.921875 3.9422917,10.927292 4.5508333,11.509375 l 3.33375,3.254375 -0.79375,4.60375 C 6.9585417,20.187708 7.8316667,20.822708 8.5725,20.425833 L 12.7,18.25625 l 4.1275,2.169583 c 0.740833,0.396875 1.613958,-0.238125 1.481667,-1.058333 l -0.79375,-4.60375 3.33375,-3.254375 C 21.457708,10.927292 21.11375,9.8954167 20.293542,9.7895833 L 15.663333,9.128125 13.599583,4.9477083 c -0.370416,-0.79375 -1.42875,-0.79375 -1.799166,-0.026458 z m 110.066663,59.134375 -2.06375,4.180417 -4.63021,0.661458 c -0.8202,0.132292 -1.16416,1.137708 -0.55562,1.719792 l 3.33375,3.254375 -0.79375,4.60375 c -0.13229,0.820208 0.74083,1.455208 1.48167,1.058333 l 4.1275,-2.169583 4.1275,2.169583 c 0.74083,0.396875 1.61395,-0.238125 1.48166,-1.058333 l -0.79375,-4.60375 3.33375,-3.254375 c 0.60855,-0.582084 0.26459,-1.613959 -0.55562,-1.719792 L 125.73,68.236042 123.66625,64.055625 c -0.37042,-0.740833 -1.42875,-0.740833 -1.79917,0 z"
         id="path206411" />
    </symbol>
    <marker
       inkscape:stockid="StopS"
       orient="auto"
       refY="0"
       refX="0"
       id="StopS-9-0-2"
       style="overflow:visible"
       inkscape:isstock="true"
       inkscape:collect="always">
      <path
         inkscape:connector-curvature="0"
         id="path192671-1-2-8"
         d="M 0,5.65 V -5.65"
         style="fill:none;fill-opacity:0.75;fill-rule:evenodd;stroke:#000000;stroke-width:1.00000003pt;stroke-opacity:1"
         transform="scale(0.2)" />
    </marker>
    <marker
       inkscape:stockid="StopS"
       orient="auto"
       refY="0"
       refX="0"
       id="StopS-9-0"
       style="overflow:visible"
       inkscape:isstock="true"
       inkscape:collect="always">
      <path
         inkscape:connector-curvature="0"
         id="path192671-1-2"
         d="M 0,5.65 V -5.65"
         style="fill:none;fill-opacity:0.75;fill-rule:evenodd;stroke:#000000;stroke-width:1.00000003pt;stroke-opacity:1"
         transform="scale(0.2)" />
    </marker>
    <marker
       inkscape:stockid="StopS"
       orient="auto"
       refY="0"
       refX="0"
       id="StopS-9"
       style="overflow:visible"
       inkscape:isstock="true"
       inkscape:collect="always">
      <path
         inkscape:connector-curvature="0"
         id="path192671-1"
         d="M 0,5.65 V -5.65"
         style="fill:none;fill-opacity:0.75;fill-rule:evenodd;stroke:#000000;stroke-width:1.00000003pt;stroke-opacity:1"
         transform="scale(0.2)" />
    </marker>
    <marker
       inkscape:stockid="StopS"
       orient="auto"
       refY="0"
       refX="0"
       id="marker195011-2"
       style="overflow:visible"
       inkscape:isstock="true">
      <path
         inkscape:connector-curvature="0"
         id="path195009-7"
         d="M 0,5.65 V -5.65"
         style="fill:none;fill-opacity:0.75;fill-rule:evenodd;stroke:#000000;stroke-width:1.00000003pt;stroke-opacity:1"
         transform="scale(0.2)" />
    </marker>
    <marker
       inkscape:stockid="StopS"
       orient="auto"
       refY="0"
       refX="0"
       id="StopS"
       style="overflow:visible"
       inkscape:isstock="true"
       inkscape:collect="always">
      <path
         id="path192671"
         d="M 0,5.65 V -5.65"
         style="fill:none;fill-opacity:0.75;fill-rule:evenodd;stroke:#000000;stroke-width:1.00000003pt;stroke-opacity:1"
         transform="scale(0.2)"
         inkscape:connector-curvature="0" />
    </marker>
    <marker
       inkscape:stockid="StopS"
       orient="auto"
       refY="0"
       refX="0"
       id="marker195011"
       style="overflow:visible"
       inkscape:isstock="true">
      <path
         id="path195009"
         d="M 0,5.65 V -5.65"
         style="fill:none;fill-opacity:0.75;fill-rule:evenodd;stroke:#000000;stroke-width:1.00000003pt;stroke-opacity:1"
         transform="scale(0.2)"
         inkscape:connector-curvature="0" />
    </marker>
    <symbol
       id="wrench">
      <title
         id="wrench-title">Wrench</title>
      <path
         style="stroke-width:0.26458332"
         inkscape:connector-curvature="0"
         d="m 127.30586,52.916667 c 2.46062,0 4.0005,2.686843 2.73182,4.795308 C 123.37389,68.78955 111.23586,76.2 97.366667,76.2 76.405846,76.2 59.398694,59.273546 59.26746,38.343681 59.135698,17.322006 76.344992,-2.6458333e-4 97.367196,0 c 13.854114,2.6458333e-4 25.981024,7.3948396 32.649584,18.452835 1.28005,2.122752 -0.23257,4.830498 -2.71145,4.830498 H 99.483333 L 88.9,38.1 99.483333,52.916667 Z M 81.890394,77.52371 28.907052,130.50705 c -6.612996,6.61273 -17.334177,6.613 -23.9474374,0 -6.6127313,-6.61299 -6.6127313,-17.33444 0,-23.94744 L 57.941369,53.578125 c 4.275666,10.90004 13.044752,19.667802 23.949025,23.945585 z M 27.516667,114.3 c 0,-3.50705 -2.842948,-6.35 -6.35,-6.35 -3.507052,0 -6.35,2.84295 -6.35,6.35 0,3.50705 2.842948,6.35 6.35,6.35 3.507052,0 6.35,-2.84295 6.35,-6.35 z"
         id="path207227" />
    </symbol>
    <marker
       inkscape:stockid="Arrow2Send"
       orient="auto"
       refY="0"
       refX="0"
       id="Arrow2Send-5"
       style="overflow:visible"
       inkscape:isstock="true">
      <path
         inkscape:connector-curvature="0"
         id="path200827-5"
         style="fill:#000000;fill-opacity:1;fill-rule:evenodd;stroke:#000000;stroke-width:0.625;stroke-linejoin:round;stroke-opacity:1"
         d="M 8.7185878,4.0337352 -2.2072895,0.01601326 8.7185884,-4.0017078 c -1.7454984,2.3720609 -1.7354408,5.6174519 -6e-7,8.035443 z"
         transform="matrix(-0.3,0,0,-0.3,0.69,0)" />
    </marker>
    <marker
       inkscape:stockid="Arrow2Send"
       orient="auto"
       refY="0"
       refX="0"
       id="Arrow2Send-7"
       style="overflow:visible"
       inkscape:isstock="true">
      <path
         inkscape:connector-curvature="0"
         id="path200827-6"
         style="fill:#000000;fill-opacity:1;fill-rule:evenodd;stroke:#000000;stroke-width:0.625;stroke-linejoin:round;stroke-opacity:1"
         d="M 8.7185878,4.0337352 -2.2072895,0.01601326 8.7185884,-4.0017078 c -1.7454984,2.3720609 -1.7354408,5.6174519 -6e-7,8.035443 z"
         transform="matrix(-0.3,0,0,-0.3,0.69,0)" />
    </marker>
  </defs>
  <sodipodi:namedview
     id="base"
     pagecolor="#ffffff"
     bordercolor="#666666"
     borderopacity="1.0"
     inkscape:pageopacity="0.0"
     inkscape:pageshadow="2"
     inkscape:zoom="0.7"
     inkscape:cx="235.43285"
     inkscape:cy="138.13145"
     inkscape:document-units="mm"
     inkscape:current-layer="layer1"
     showgrid="true"
     inkscape:snap-bbox="true"
     inkscape:snap-bbox-edge-midpoints="false"
     inkscape:bbox-nodes="true"
     inkscape:bbox-paths="true"
     inkscape:snap-grids="true"
     inkscape:object-paths="true"
     fit-margin-top="0"
     fit-margin-left="0"
     fit-margin-right="0"
     fit-margin-bottom="0"
     inkscape:window-width="1920"
     inkscape:window-height="1043"
     inkscape:window-x="0"
     inkscape:window-y="0"
     inkscape:window-maximized="1"
     showguides="true"
     inkscape:guide-bbox="true"
     inkscape:lockguides="false"
     inkscape:object-nodes="true"
     inkscape:snap-nodes="true"
     inkscape:snap-bbox-midpoints="true"
     inkscape:snap-midpoints="true"
     inkscape:snap-intersection-paths="true"
     inkscape:snap-smooth-nodes="true">
    <inkscape:grid
       type="xygrid"
       id="grid103091"
       originx="5.7877532"
       originy="-167.42945" />
  </sodipodi:namedview>
  <metadata
     id="metadata5">
    <rdf:RDF>
      <cc:Work
         rdf:about="">
        <dc:format>image/svg+xml</dc:format>
        <dc:type
           rdf:resource="http://purl.org/dc/dcmitype/StillImage" />
        <dc:title></dc:title>
      </cc:Work>
    </rdf:RDF>
  </metadata>
  <g
     inkscape:label="Layer 1"
     inkscape:groupmode="layer"
     id="layer1"
     transform="translate(5.7877604,17.957519)">
    <use
       id="use98346-0"
       style="fill:#000000;stroke:none"
       xlink:href="#server"
       x="0"
       y="0"
       width="100%"
       height="100%"
       transform="matrix(0.31390369,0,0,0.31390369,33.999993,-4.5327258)" />
    <use
       id="use98346-7"
       style="fill:#000000;stroke:none"
       xlink:href="#server"
       x="0"
       y="0"
       width="100%"
       height="100%"
       transform="matrix(0.22145669,0,0,0.22145669,180.30911,-9.0416746)" />
    <use
       id="use296587"
       transform="matrix(9.2447906,0,0,9.2447906,77.010283,67.611756)"
       xlink:href="#ic_cloud_queue_24px"
       x="0"
       y="0"
       width="100%"
       height="100%" />
    <text
       xml:space="preserve"
       style="font-style:normal;font-weight:normal;font-size:10.58333302px;line-height:1.25;font-family:sans-serif;letter-spacing:0px;word-spacing:0px;fill:#000000;fill-opacity:1;stroke:none;stroke-width:0.26458332"
       x="77.258324"
       y="127.13747"
       id="text296613"><tspan
         sodipodi:role="line"
         id="tspan296611"
         x="77.258324"
         y="127.13747"
         style="stroke-width:0.26458332">OpenStack</tspan></text>
    <use
       id="use98346-7-3"
       style="fill:#000000;stroke:none"
       xlink:href="#server"
       x="0"
       y="0"
       width="100%"
       height="100%"
       transform="matrix(0.12025622,0,0,0.1195093,153.45833,88.676477)" />
    <path
       style="fill:none;stroke:#000000;stroke-width:1.07080328;stroke-linecap:butt;stroke-linejoin:miter;stroke-miterlimit:4;stroke-dasharray:none;stroke-opacity:1;marker-start:url(#StopS);marker-end:url(#marker195011)"
       d="m 166.91587,103.85416 v 9.20779 h 23.08105 v -9.20779"
       id="path191901-5"
       inkscape:connector-curvature="0"
       sodipodi:nodetypes="cccc" />
    <use
       id="use98346-7-3-3"
       style="fill:#000000;stroke:none"
       xlink:href="#server"
       x="0"
       y="0"
       width="100%"
       height="100%"
       transform="matrix(0.12025622,0,0,0.1195093,187.16375,88.676477)" />
    <use
       id="use98346-7-3-3-2"
       style="fill:#000000;stroke:none"
       xlink:href="#server"
       x="0"
       y="0"
       width="100%"
       height="100%"
       transform="matrix(0.12025622,0,0,0.1195093,220.86916,88.676477)" />
    <path
       style="fill:none;stroke:#000000;stroke-width:1.07080328;stroke-linecap:butt;stroke-linejoin:miter;stroke-miterlimit:4;stroke-dasharray:none;stroke-opacity:1;marker-start:url(#StopS-9);marker-end:url(#marker195011-2)"
       d="m 200.6213,103.85416 v 9.20779 h 23.08105 v -9.20779"
       id="path191901-5-0"
       inkscape:connector-curvature="0"
       sodipodi:nodetypes="cccc" />
    <path
       style="fill:none;stroke:#000000;stroke-width:1.07080328;stroke-linecap:butt;stroke-linejoin:miter;stroke-miterlimit:4;stroke-dasharray:none;stroke-opacity:1;marker-start:url(#StopS-9-0)"
       d="m 234.3267,103.85416 v 9.20779 h 5.66634"
       id="path191901-5-0-5"
       inkscape:connector-curvature="0"
       sodipodi:nodetypes="ccc" />
    <path
       style="fill:none;stroke:#000000;stroke-width:1.07080328;stroke-linecap:butt;stroke-linejoin:miter;stroke-miterlimit:0;stroke-dasharray:1.07080327, 1.07080327;stroke-dashoffset:0;stroke-opacity:1"
       d="m 239.70971,113.06195 h 8.4995"
       id="path198627"
       inkscape:connector-curvature="0" />
    <path
       style="fill:none;stroke:#000000;stroke-width:1.07080328;stroke-linecap:butt;stroke-linejoin:miter;stroke-miterlimit:0;stroke-dasharray:1.07080329, 1.07080329;stroke-dashoffset:0;stroke-opacity:1"
       d="m 150.90848,113.06195 h -8.4995"
       id="path198627-2"
       inkscape:connector-curvature="0" />
    <path
       style="fill:none;stroke:#000000;stroke-width:1.07080328;stroke-linecap:butt;stroke-linejoin:miter;stroke-miterlimit:4;stroke-dasharray:none;stroke-opacity:1;marker-start:url(#StopS-9-0-2)"
       d="m 156.2915,103.85416 v 9.20779 h -5.66634"
       id="path191901-5-0-5-9"
       inkscape:connector-curvature="0"
       sodipodi:nodetypes="ccc" />
    <path
       style="fill:none;stroke:#000000;stroke-width:3;stroke-linecap:butt;stroke-linejoin:miter;stroke-miterlimit:4;stroke-dasharray:3.00000008, 3.00000008;stroke-dashoffset:0;stroke-opacity:1"
       d="M -5.2916739,50.93749 H 129.64583 264.58333"
       id="path298162"
       inkscape:connector-curvature="0"
       sodipodi:nodetypes="ccc" />
    <path
       style="fill:none;stroke:#000000;stroke-width:3;stroke-linecap:butt;stroke-linejoin:miter;stroke-miterlimit:4;stroke-dasharray:3.00000008, 3.00000008;stroke-dashoffset:0;stroke-opacity:1"
       d="m 113.77082,42.999991 0,-58.208332"
       id="path298767"
       inkscape:connector-curvature="0"
       sodipodi:nodetypes="cc" />
    <text
       xml:space="preserve"
       style="font-style:normal;font-weight:normal;font-size:10.58333302px;line-height:1.25;font-family:sans-serif;letter-spacing:0px;word-spacing:0px;fill:#000000;fill-opacity:1;stroke:none;stroke-width:0.26458332"
       x="43.391663"
       y="-8.5394983"
       id="text298771"><tspan
         sodipodi:role="line"
         id="tspan298769"
         x="43.391663"
         y="-8.5394983"
         style="stroke-width:0.26458332">OSM</tspan></text>
    <text
       xml:space="preserve"
       style="font-style:normal;font-weight:normal;font-size:10.58333302px;line-height:1.25;font-family:sans-serif;letter-spacing:0px;word-spacing:0px;fill:#000000;fill-opacity:1;stroke:none;stroke-width:0.26458332"
       x="156.65193"
       y="-9.4722576"
       id="text298775"><tspan
         sodipodi:role="line"
         id="tspan298773"
         x="156.65193"
         y="-9.4722576"
         style="stroke-width:0.26458332">Juju Charms</tspan></text>
    <use
       id="use298801"
       transform="matrix(0.08490493,0,0,0.08490493,156.06397,34.144035)"
       style="fill:#000000;stroke:none"
       xlink:href="#wrench"
       x="0"
       y="0"
       width="100%"
       height="100%" />
    <use
       id="use298801-6"
       transform="matrix(0.08490493,0,0,0.08490493,189.76939,34.144036)"
       style="fill:#000000;stroke:none"
       xlink:href="#wrench"
       x="0"
       y="0"
       width="100%"
       height="100%" />
    <use
       id="use298801-1"
       transform="matrix(0.08490493,0,0,0.08490493,223.4748,34.144036)"
       style="fill:#000000;stroke:none"
       xlink:href="#wrench"
       x="0"
       y="0"
       width="100%"
       height="100%" />
    <path
       style="fill:none;stroke:#000000;stroke-width:1.5;stroke-linecap:butt;stroke-linejoin:miter;stroke-miterlimit:4;stroke-dasharray:none;stroke-opacity:1;marker-end:url(#Arrow2Send)"
       d="M 161.59648,53.583325 V 85.333323"
       id="path298896"
       inkscape:connector-curvature="0"
       sodipodi:nodetypes="cc" />
    <path
       style="fill:none;stroke:#000000;stroke-width:1.5;stroke-linecap:butt;stroke-linejoin:miter;stroke-miterlimit:4;stroke-dasharray:none;stroke-opacity:1;marker-end:url(#Arrow2Send-5)"
       d="m 195.3019,72.826731 0,12.506591"
       id="path298896-4"
       inkscape:connector-curvature="0"
       sodipodi:nodetypes="cc"
       clip-path="none" />
    <path
       style="fill:none;stroke:#000000;stroke-width:1.5;stroke-linecap:butt;stroke-linejoin:miter;stroke-miterlimit:4;stroke-dasharray:none;stroke-opacity:1;marker-end:url(#Arrow2Send-7)"
       d="M 229.00731,53.583325 V 85.333322"
       id="path298896-5"
       inkscape:connector-curvature="0"
       sodipodi:nodetypes="cc" />
    <text
       xml:space="preserve"
       style="font-style:normal;font-weight:normal;font-size:10.58333302px;line-height:1.25;font-family:sans-serif;letter-spacing:0px;word-spacing:0px;fill:#000000;fill-opacity:1;stroke:none;stroke-width:0.26458332"
       x="173.48874"
       y="70.306381"
       id="text301011"><tspan
         sodipodi:role="line"
         id="tspan301009"
         x="173.48874"
         y="70.306381"
         style="stroke-width:0.26458332">manage</tspan></text>
    <path
       style="fill:none;stroke:#000000;stroke-width:2;stroke-linecap:butt;stroke-linejoin:miter;stroke-opacity:1;stroke-miterlimit:4;stroke-dasharray:none"
       d="m 154.28324,30.948088 h 82.05174"
       id="path301013"
       inkscape:connector-curvature="0" />
    <path
       style="fill:none;stroke:#000000;stroke-width:2;stroke-linecap:butt;stroke-linejoin:miter;stroke-miterlimit:4;stroke-dasharray:none;stroke-opacity:1;marker-end:url(#marker301025)"
       d="m 195.30911,30.948088 0,-11.628476"
       id="path301015"
       inkscape:connector-curvature="0"
       sodipodi:nodetypes="cc" />
    <path
       style="fill:none;stroke:#000000;stroke-width:1.5;stroke-linecap:butt;stroke-linejoin:miter;stroke-opacity:1;stroke-miterlimit:4;stroke-dasharray:none"
       d="m 195.3019,53.583324 v 7.900304"
       id="path301268"
       inkscape:connector-curvature="0" />
    <path
       style="fill:none;stroke:#000000;stroke-width:1.5;stroke-linecap:butt;stroke-linejoin:miter;stroke-miterlimit:4;stroke-dasharray:none;stroke-opacity:1;marker-end:url(#marker301502)"
       d="m 55.261737,56.229157 v 39.6875 l 18.821589,0"
       id="path301492"
       inkscape:connector-curvature="0"
       sodipodi:nodetypes="ccc" />
    <text
       xml:space="preserve"
       style="font-style:normal;font-weight:normal;font-size:10.58333302px;line-height:1.25;font-family:sans-serif;letter-spacing:0px;word-spacing:0px;fill:#000000;fill-opacity:1;stroke:none;stroke-width:0.26458332"
       x="58.208324"
       y="74.749992"
       id="text301781"><tspan
         sodipodi:role="line"
         id="tspan301779"
         x="58.208324"
         y="74.749992"
         style="stroke-width:0.26458332">allocate</tspan></text>
    <path
       style="fill:none;stroke:#000000;stroke-width:1.5;stroke-linecap:butt;stroke-linejoin:miter;stroke-miterlimit:4;stroke-dasharray:none;stroke-opacity:1;marker-end:url(#marker301793)"
       d="m 134.93749,95.916659 14.55209,0"
       id="path301783"
       inkscape:connector-curvature="0"
       sodipodi:nodetypes="cc" />
  </g>
</svg>
