<?xml version="1.0" encoding="UTF-8" standalone="no"?>
<!-- Created with Inkscape (http://www.inkscape.org/) -->

<svg
   xmlns:dc="http://purl.org/dc/elements/1.1/"
   xmlns:cc="http://creativecommons.org/ns#"
   xmlns:rdf="http://www.w3.org/1999/02/22-rdf-syntax-ns#"
   xmlns:svg="http://www.w3.org/2000/svg"
   xmlns="http://www.w3.org/2000/svg"
   xmlns:xlink="http://www.w3.org/1999/xlink"
   xmlns:sodipodi="http://sodipodi.sourceforge.net/DTD/sodipodi-0.dtd"
   xmlns:inkscape="http://www.inkscape.org/namespaces/inkscape"
   width="700mm"
   height="341.38293mm"
   viewBox="0 0 700 341.38293"
   version="1.1"
   id="svg8"
   inkscape:version="0.92.4 (unknown)"
   sodipodi:docname="live-demo-finish.svg">
  <defs
     id="defs2">
    <symbol
       id="ic_remove_red_eye_24px">
      <path
         style="stroke-width:0.26458332"
         inkscape:connector-curvature="0"
         d="M 3.175,1.190625 C 1.8520833,1.190625 0.7223125,2.0134792 0.26458333,3.175 0.7223125,4.3365208 1.8520833,5.159375 3.175,5.159375 4.4979167,5.159375 5.6276875,4.3365208 6.0854167,3.175 5.6276875,2.0134792 4.4979167,1.190625 3.175,1.190625 Z m 0,3.3072917 C 2.44475,4.4979167 1.8520833,3.90525 1.8520833,3.175 1.8520833,2.44475 2.44475,1.8520833 3.175,1.8520833 c 0.73025,0 1.3229167,0.5926667 1.3229167,1.3229167 0,0.73025 -0.5926667,1.3229167 -1.3229167,1.3229167 z m 0,-2.1166667 c -0.4392083,0 -0.79375,0.3545417 -0.79375,0.79375 0,0.4392083 0.3545417,0.79375 0.79375,0.79375 0.4392083,0 0.79375,-0.3545417 0.79375,-0.79375 0,-0.4392083 -0.3545417,-0.79375 -0.79375,-0.79375 z"
         id="path5145" />
    </symbol>
    <symbol
       id="ic_looks_24px">
      <path
         style="stroke-width:0.26458332"
         inkscape:connector-curvature="0"
         d="m 3.175,2.6458333 c -1.0212917,0 -1.8520833,0.8307917 -1.8520833,1.8520834 H 1.8520833 C 1.8520833,3.7676667 2.44475,3.175 3.175,3.175 c 0.73025,0 1.3229167,0.5926667 1.3229167,1.3229167 H 5.0270833 C 5.0270833,3.476625 4.1962917,2.6458333 3.175,2.6458333 Z m 0,-1.0583333 c -1.6060208,0 -2.91041667,1.3043958 -2.91041667,2.9104167 H 0.79375 c 0,-1.3123334 1.0689167,-2.38125 2.38125,-2.38125 1.3123333,0 2.38125,1.0689166 2.38125,2.38125 H 6.0854167 C 6.0854167,2.8918958 4.7810208,1.5875 3.175,1.5875 Z"
         id="path5047" />
    </symbol>
    <symbol
       id="ic_error_24px">
      <path
         style="stroke-width:0.26458332"
         inkscape:connector-curvature="0"
         d="M 3.175,0.52916667 C 1.7145,0.52916667 0.52916667,1.7145 0.52916667,3.175 0.52916667,4.6355 1.7145,5.8208333 3.175,5.8208333 4.6355,5.8208333 5.8208333,4.6355 5.8208333,3.175 5.8208333,1.7145 4.6355,0.52916667 3.175,0.52916667 Z M 3.4395833,4.4979167 H 2.9104167 V 3.96875 h 0.5291666 z m 0,-1.0583334 H 2.9104167 v -1.5875 h 0.5291666 z"
         id="path5961" />
    </symbol>
    <symbol
       id="play">
      <title
         id="play-title">play</title>
      <path
         style="stroke-width:0.26458332"
         inkscape:connector-curvature="0"
         d="M 112.28917,56.806042 19.155833,1.74625 C 11.58875,-2.7252083 0,1.6139583 0,12.673542 V 122.76667 c 0,9.92187 10.768542,15.90145 19.155833,10.92729 L 112.28917,78.660625 c 8.30791,-4.894792 8.33437,-16.959792 0,-21.854583 z"
         id="path68833" />
    </symbol>
    <symbol
       id="meh">
      <title
         id="meh-title">Meh</title>
      <path
         style="stroke-width:0.26458332"
         inkscape:connector-curvature="0"
         d="M 133.35,67.733333 C 133.35,103.97252 103.97252,133.35 67.733333,133.35 31.494148,133.35 2.1166667,103.97252 2.1166667,67.733333 2.1166667,31.494148 31.494148,2.1166667 67.733333,2.1166667 103.97252,2.1166667 133.35,31.494148 133.35,67.733333 Z M 28.575,50.8 c 0,9.921081 8.070585,17.991667 17.991667,17.991667 9.921081,0 17.991666,-8.070586 17.991666,-17.991667 0,-9.921081 -8.070585,-17.991667 -17.991666,-17.991667 C 36.645585,32.808333 28.575,40.878919 28.575,50.8 Z m 42.465625,0 c 0,9.848056 8.011319,17.859375 17.859375,17.859375 9.848056,0 17.85937,-8.011319 17.85937,-17.859375 0,-9.848056 -8.011314,-17.859375 -17.85937,-17.859375 -9.848056,0 -17.859375,8.011319 -17.859375,17.859375 z M 88.9,38.1 a 12.644173,12.644173 0 0 0 -5.980377,1.494102 h 0.004 c 2.888191,0 5.229489,2.341298 5.229489,5.22949 0,2.888191 -2.341298,5.229489 -5.229489,5.229489 -2.888192,0 -5.22949,-2.341298 -5.22949,-5.229489 v -0.004 A 12.644173,12.644173 0 0 0 76.2,50.8 c 0,7.014104 5.685896,12.7 12.7,12.7 7.014104,0 12.7,-5.685896 12.7,-12.7 0,-7.014104 -5.685896,-12.7 -12.7,-12.7 z m -42.333333,0 a 12.644173,12.644173 0 0 0 -5.980377,1.494102 h 0.004 c 2.888192,0 5.22949,2.341298 5.22949,5.22949 0,2.888191 -2.341298,5.229489 -5.22949,5.229489 -2.888191,0 -5.229489,-2.341298 -5.229489,-5.229489 v -0.004 A 12.644173,12.644173 0 0 0 33.866667,50.8 c 0,7.014104 5.685895,12.7 12.7,12.7 7.014104,0 12.7,-5.685896 12.7,-12.7 0,-7.014104 -5.685896,-12.7 -12.7,-12.7 z M 88.9,93.133333 H 46.566667 c -5.603346,0 -5.600965,8.466667 0,8.466667 H 88.9 c 5.603346,0 5.600965,-8.466667 0,-8.466667 z"
         id="path68693" />
    </symbol>
    <symbol
       id="life-ring">
      <title
         id="life-ring-title">Life Ring</title>
      <path
         style="stroke-width:0.26458332"
         inkscape:connector-curvature="0"
         d="M 67.733333,2.1166667 C 31.494148,2.1166667 2.1166667,31.494148 2.1166667,67.733333 2.1166667,103.97252 31.494148,133.35 67.733333,133.35 103.97252,133.35 133.35,103.97252 133.35,67.733333 133.35,31.494148 103.97252,2.1166667 67.733333,2.1166667 Z M 113.6904,33.749985 96.916081,50.524304 C 94.009104,45.613902 89.859644,41.461796 84.942362,38.550585 L 101.71668,21.776267 A 57.783942,57.783942 0 0 1 113.6904,33.749985 Z M 67.733333,93.133333 c -14.027943,0 -25.4,-11.372056 -25.4,-25.4 0,-14.027943 11.372057,-25.4 25.4,-25.4 14.027944,0 25.4,11.372057 25.4,25.4 0,14.027944 -11.372056,25.4 -25.4,25.4 z M 33.749985,21.776267 50.524304,38.550585 c -4.910402,2.906977 -9.062508,7.056438 -11.973719,11.973719 L 21.776267,33.749985 A 57.777592,57.777592 0 0 1 33.749985,21.776267 Z M 21.776267,101.71668 38.550585,84.942362 c 2.906977,4.910403 7.056438,9.062509 11.973719,11.973719 L 33.749985,113.6904 A 57.783942,57.783942 0 0 1 21.776267,101.71668 Z M 101.71668,113.6904 84.942362,96.916081 c 4.910403,-2.906977 9.062509,-7.056437 11.973719,-11.973719 L 113.6904,101.71668 a 57.785794,57.785794 0 0 1 -11.97372,11.97372 z"
         id="path68573" />
    </symbol>
    <symbol
       id="icon-folder-videos-symbolic">
      <title
         id="title72929">folder-videos-symbolic</title>
      <path
         style="stroke-width:0.26458332"
         inkscape:connector-curvature="0"
         d="m 1.0747375,2.1166667 h 4.2169292 c 0.2921,0 0.5291666,0.236802 0.5291666,0.5291666 V 6.35 c 0,0.2923646 -0.2368021,0.5291667 -0.5291666,0.5291667 H 1.0747375 c -0.2921,0 -0.52916667,-0.2368021 -0.52916667,-0.5291667 V 2.6458333 c 0,-0.2923646 0.23680209,-0.5291666 0.52916667,-0.5291666 z"
         id="path72931" />
      <path
         style="stroke-width:0.26458332"
         inkscape:connector-curvature="0"
         d="M 5.8208333,4.4817771 7.6567771,2.6458333 H 7.9377646 V 6.35 H 7.6731812 Z"
         id="path72933" />
    </symbol>
  </defs>
  <sodipodi:namedview
     id="base"
     pagecolor="#ffffff"
     bordercolor="#666666"
     borderopacity="1.0"
     inkscape:pageopacity="0.0"
     inkscape:pageshadow="2"
     inkscape:zoom="0.7"
     inkscape:cx="1912.9985"
     inkscape:cy="507.00123"
     inkscape:document-units="mm"
     inkscape:current-layer="layer1"
     showgrid="false"
     inkscape:window-width="2560"
     inkscape:window-height="1376"
     inkscape:window-x="1366"
     inkscape:window-y="27"
     inkscape:window-maximized="1"
     fit-margin-top="0"
     fit-margin-left="0"
     fit-margin-right="0"
     fit-margin-bottom="0" />
  <metadata
     id="metadata5">
    <rdf:RDF>
      <cc:Work
         rdf:about="">
        <dc:format>image/svg+xml</dc:format>
        <dc:type
           rdf:resource="http://purl.org/dc/dcmitype/StillImage" />
        <dc:title></dc:title>
      </cc:Work>
    </rdf:RDF>
  </metadata>
  <g
     inkscape:label="Layer 1"
     inkscape:groupmode="layer"
     id="layer1"
     transform="translate(140.08643,-19.521276)">
    <use
       id="use100568"
       style="fill:#000000;stroke:none"
       xlink:href="#meh"
       x="0"
       y="0"
       width="100%"
       height="100%"
       transform="matrix(0.46480651,0.53243198,-0.53243198,0.46480651,375.1232,153.4305)" />
    <use
       id="use103391"
       style="fill:#000000;stroke:none"
       xlink:href="#icon-folder-videos-symbolic"
       x="0"
       y="0"
       width="100%"
       height="100%"
       transform="matrix(15.28854,0,0,15.28854,-112.1417,42.345053)" />
    <path
       style="fill:none;fill-rule:evenodd;stroke:#000000;stroke-width:12.79193592;stroke-linecap:round;stroke-linejoin:miter;stroke-miterlimit:4;stroke-dasharray:none;stroke-opacity:1"
       d="m 389.02636,174.49202 73.09281,15.06665 v 71.69256 l -58.8103,58.8103"
       id="path103407"
       inkscape:connector-curvature="0" />
    <path
       style="fill:none;fill-rule:evenodd;stroke:#000000;stroke-width:12.79193592;stroke-linecap:round;stroke-linejoin:miter;stroke-miterlimit:4;stroke-dasharray:none;stroke-opacity:1"
       d="m 462.11917,261.25123 59.93051,59.9305"
       id="path103409"
       inkscape:connector-curvature="0" />
    <use
       id="use100593-3"
       style="fill:#000000;stroke:none"
       xlink:href="#life-ring"
       x="0"
       y="0"
       width="100%"
       height="100%"
       transform="matrix(0.75838015,0,0,0.75838015,412.10052,78.327911)" />
  </g>
</svg>
