delay,startup,deployment,deletion,failed,other,zookeeper,kafka,mongo,nbi,ro_db,ro,lcm,rtt_ro_db_ms,rtt_db_ro_ms
0,44.31000900268555,7.604065179824829,6.358069896697998,0,10.605112075805664,0.015165090560913086,3.049072027206421,0.016057968139648438,2.046941041946411,0.020109891891479492,22.176677942276,3.0182089805603027,0.097,0.038
10,97.49213695526123,19.151409149169922,11.74784803390503,0,10.22328805923462,0.012040853500366211,4.043034076690674,0.017700910568237305,4.044483184814453,0.014336824417114258,68.47087812423706,3.0204479694366455,40.121,40.099
20,152.82075309753418,30.60814905166626,16.580466985702515,0,10.33711290359497,0.012670040130615234,5.05427098274231,0.014367103576660156,5.05049991607666,0.014014005661010742,115.83709001541138,3.0181801319122314,80.071,80.122
30,206.15511202812195,40.66642713546753,21.720597982406616,0,10.744668960571289,0.015480995178222656,6.074397087097168,0.014701128005981445,7.069019794464111,0.01452016830444336,161.19754791259766,3.0180180072784424,120.079,120.157
40,259.32240104675293,62.77022695541382,27.904653072357178,0,10.462728023529053,0.012810945510864258,7.07223105430603,0.01351308822631836,7.067722797393799,0.014173030853271484,206.52259612083435,3.0143790245056152,160.144,160.182
50,313.85041880607605,71.40581798553467,34.505430936813354,0,10.785993814468384,0.015089988708496094,8.087839126586914,0.013254880905151367,9.088865995407104,0.013952016830444336,253.01066899299622,3.0188491344451904,200.147,200.13
60,367.506728887558,82.94244599342346,38.23600888252258,0,10.908047914505005,0.014468908309936523,9.104350090026855,0.020798921585083008,10.117449045181274,0.0168459415435791,299.56548714637756,3.019618034362793,240.097,240.115
70,421.93563079833984,97.90649890899658,42.505903005599976,0,10.395867824554443,0.013615131378173828,9.096475839614868,0.016138076782226562,12.13103199005127,0.014538049697875977,345.7989330291748,3.0193028450012207,280.13,280.32
80,475.7007818222046,110.82514715194702,50.744226932525635,0,10.583297967910767,0.01458287239074707,10.099443197250366,0.013839960098266602,13.130486965179443,0.015204906463623047,392.2691979408264,3.0167012214660645,320.244,321.201
90,528.2143449783325,124.132150888443,54.58968901634216,0,10.553059101104736,0.013862848281860352,11.125447988510132,0.0156710147857666,14.141271114349365,0.015069961547851562,437.7666380405426,3.0222089290618896,360.177,360.148
100,581.6504139900208,138.24018692970276,59.1036958694458,0,10.3856520652771,0.013644933700561523,12.124809980392456,0.014384031295776367,16.15526509284973,0.015576839447021484,483.2938230037689,3.0151400566101074,400.14,400.182
110,639.9384858608246,152.73508501052856,68.71527695655823,0,10.24643588066101,0.014225959777832031,13.131953001022339,0.014574050903320312,17.161744117736816,0.013716936111450195,529.6165790557861,3.0177528858184814,440.18,440.143
120,690.1329019069672,163.48330211639404,73.79269099235535,0,10.580870866775513,0.013765096664428711,14.15135383605957,0.014226198196411133,19.19400382041931,0.014782190322875977,576.3624830245972,3.0191569328308105,480.127,480.152
